ISO-10303-21;
HEADER;
/****************************************************************
 * Generated by software with PDElib inside                    *
 * PDElib Version v51a, created Wed 11/30/2011                  *
 * ITI Transcendata (http://www.transcendata.com/)              *
 ****************************************************************/
FILE_DESCRIPTION((''),'2;1');
FILE_NAME('D:\\Inventor models\\R_ceramic_5W\\R5W.stp','2017-02-17T15:44:51',('A_Perevoztchikov'),(''),'Autodesk Inventor 2013','Autodesk Inventor 2013','');
FILE_SCHEMA(('AUTOMOTIVE_DESIGN { 1 0 10303 214 1 1 1 1 }'));
ENDSEC;
DATA;
#5=APPLICATION_CONTEXT('automotive design');
#6=APPLICATION_PROTOCOL_DEFINITION('International Standard','automotive_design',2001,#5);
#7=PRODUCT_CONTEXT('',#5,'mechanical');
#8=PRODUCT('R5W','R5W',$,(#7));
#9=PRODUCT_RELATED_PRODUCT_CATEGORY('part',$,(#8));
#10=PRODUCT_DEFINITION_FORMATION('',$,#8);
#11=PRODUCT_DEFINITION_CONTEXT('part definition',#5,'design');
#12=PRODUCT_DEFINITION('',$,#10,#11);
#18=(NAMED_UNIT(*)PLANE_ANGLE_UNIT()SI_UNIT($,.RADIAN.));
#19=DIMENSIONAL_EXPONENTS(0.0,0.0,0.0,0.0,0.0,0.0,0.0);
#20=PLANE_ANGLE_MEASURE_WITH_UNIT(PLANE_ANGLE_MEASURE(0.0174532925),#18);
#24=(CONVERSION_BASED_UNIT('DEGREE',#20)NAMED_UNIT(#19)PLANE_ANGLE_UNIT());
#28=(NAMED_UNIT(*)SI_UNIT($,.STERADIAN.)SOLID_ANGLE_UNIT());
#32=(LENGTH_UNIT()NAMED_UNIT(*)SI_UNIT(.MILLI.,.METRE.));
#34=UNCERTAINTY_MEASURE_WITH_UNIT(LENGTH_MEASURE(0.01),#32,'DISTANCE_ACCURACY_VALUE','');
#36=(GEOMETRIC_REPRESENTATION_CONTEXT(3)GLOBAL_UNCERTAINTY_ASSIGNED_CONTEXT((#34))GLOBAL_UNIT_ASSIGNED_CONTEXT((#24,#28,#32))REPRESENTATION_CONTEXT('None','None'));
#37=AXIS2_PLACEMENT_3D('',#38,#39,#40);
#38=CARTESIAN_POINT('',(0.0,0.0,0.0));
#39=DIRECTION('',(0.0,0.0,1.0));
#40=DIRECTION('',(1.0,0.0,0.0));
#41=SHAPE_REPRESENTATION('',(#37,#206,#218,#453),#36);
#42=PRODUCT_DEFINITION_SHAPE('','',#12);
#43=SHAPE_DEFINITION_REPRESENTATION(#42,#41);
#44=APPLICATION_CONTEXT('automotive design');
#45=APPLICATION_PROTOCOL_DEFINITION('International Standard','automotive_design',2001,#44);
#46=PRODUCT_CONTEXT('',#44,'mechanical');
#47=PRODUCT('pin','pin',$,(#46));
#48=PRODUCT_RELATED_PRODUCT_CATEGORY('part',$,(#47));
#49=PRODUCT_DEFINITION_FORMATION('',$,#47);
#50=PRODUCT_DEFINITION_CONTEXT('part definition',#44,'design');
#51=PRODUCT_DEFINITION('',$,#49,#50);
#57=(NAMED_UNIT(*)PLANE_ANGLE_UNIT()SI_UNIT($,.RADIAN.));
#58=DIMENSIONAL_EXPONENTS(0.0,0.0,0.0,0.0,0.0,0.0,0.0);
#59=PLANE_ANGLE_MEASURE_WITH_UNIT(PLANE_ANGLE_MEASURE(0.0174532925),#57);
#63=(CONVERSION_BASED_UNIT('DEGREE',#59)NAMED_UNIT(#58)PLANE_ANGLE_UNIT());
#67=(NAMED_UNIT(*)SI_UNIT($,.STERADIAN.)SOLID_ANGLE_UNIT());
#71=(LENGTH_UNIT()NAMED_UNIT(*)SI_UNIT(.MILLI.,.METRE.));
#73=UNCERTAINTY_MEASURE_WITH_UNIT(LENGTH_MEASURE(0.01),#71,'DISTANCE_ACCURACY_VALUE','');
#75=(GEOMETRIC_REPRESENTATION_CONTEXT(3)GLOBAL_UNCERTAINTY_ASSIGNED_CONTEXT((#73))GLOBAL_UNIT_ASSIGNED_CONTEXT((#63,#67,#71))REPRESENTATION_CONTEXT('None','None'));
#76=AXIS2_PLACEMENT_3D('',#77,#78,#79);
#77=CARTESIAN_POINT('',(0.0,0.0,0.0));
#78=DIRECTION('',(0.0,0.0,1.0));
#79=DIRECTION('',(1.0,0.0,0.0));
#80=SHAPE_REPRESENTATION('',(#76),#75);
#81=PRODUCT_DEFINITION_SHAPE('','',#51);
#82=SHAPE_DEFINITION_REPRESENTATION(#81,#80);
#88=(NAMED_UNIT(*)PLANE_ANGLE_UNIT()SI_UNIT($,.RADIAN.));
#89=DIMENSIONAL_EXPONENTS(0.0,0.0,0.0,0.0,0.0,0.0,0.0);
#90=PLANE_ANGLE_MEASURE_WITH_UNIT(PLANE_ANGLE_MEASURE(0.0174532925),#88);
#94=(CONVERSION_BASED_UNIT('DEGREE',#90)NAMED_UNIT(#89)PLANE_ANGLE_UNIT());
#98=(NAMED_UNIT(*)SI_UNIT($,.STERADIAN.)SOLID_ANGLE_UNIT());
#102=(LENGTH_UNIT()NAMED_UNIT(*)SI_UNIT(.MILLI.,.METRE.));
#104=UNCERTAINTY_MEASURE_WITH_UNIT(LENGTH_MEASURE(0.000001),#102,'DISTANCE_ACCURACY_VALUE','');
#106=(GEOMETRIC_REPRESENTATION_CONTEXT(3)GLOBAL_UNCERTAINTY_ASSIGNED_CONTEXT((#104))GLOBAL_UNIT_ASSIGNED_CONTEXT((#94,#98,#102))REPRESENTATION_CONTEXT('','3D'));
#107=CARTESIAN_POINT('',(0.0,10.0,-2.0));
#108=DIRECTION('',(0.0,0.0,-1.0));
#109=DIRECTION('',(1.0,0.0,0.0));
#110=AXIS2_PLACEMENT_3D('',#107,#108,#109);
#111=CYLINDRICAL_SURFACE('',#110,0.4);
#112=CARTESIAN_POINT('',(-0.4,10.0,-10.0));
#113=VERTEX_POINT('',#112);
#114=CARTESIAN_POINT('',(0.0,10.0,-10.0));
#115=DIRECTION('',(0.0,0.0,1.0));
#116=DIRECTION('',(1.0,0.0,0.0));
#117=AXIS2_PLACEMENT_3D('',#114,#115,#116);
#118=CIRCLE('',#117,0.4);
#119=EDGE_CURVE('',#113,#113,#118,.T.);
#120=ORIENTED_EDGE('',*,*,#119,.T.);
#121=EDGE_LOOP('',(#120));
#122=FACE_OUTER_BOUND('',#121,.T.);
#123=CARTESIAN_POINT('',(-0.4,10.0,-2.0));
#124=VERTEX_POINT('',#123);
#125=CARTESIAN_POINT('',(0.0,10.0,-2.0));
#126=DIRECTION('',(0.0,0.0,1.0));
#127=DIRECTION('',(1.0,0.0,0.0));
#128=AXIS2_PLACEMENT_3D('',#125,#126,#127);
#129=CIRCLE('',#128,0.4);
#130=EDGE_CURVE('',#124,#124,#129,.T.);
#131=ORIENTED_EDGE('',*,*,#130,.F.);
#132=EDGE_LOOP('',(#131));
#133=FACE_BOUND('',#132,.T.);
#134=ADVANCED_FACE('',(#122,#133),#111,.T.);
#135=CARTESIAN_POINT('',(0.0,8.0,-2.0));
#136=DIRECTION('',(-1.0,0.0,0.0));
#137=DIRECTION('',(0.0,0.0,1.0));
#138=AXIS2_PLACEMENT_3D('',#135,#136,#137);
#139=TOROIDAL_SURFACE('',#138,2.0,0.4);
#140=ORIENTED_EDGE('',*,*,#130,.T.);
#141=EDGE_LOOP('',(#140));
#142=FACE_OUTER_BOUND('',#141,.T.);
#143=CARTESIAN_POINT('',(-0.4,8.0,4.898587E-017));
#144=VERTEX_POINT('',#143);
#145=CARTESIAN_POINT('',(0.0,8.0,0.0));
#146=DIRECTION('',(0.0,-1.0,0.0));
#147=DIRECTION('',(1.0,0.0,0.0));
#148=AXIS2_PLACEMENT_3D('',#145,#146,#147);
#149=CIRCLE('',#148,0.4);
#150=EDGE_CURVE('',#144,#144,#149,.T.);
#151=ORIENTED_EDGE('',*,*,#150,.F.);
#152=EDGE_LOOP('',(#151));
#153=FACE_BOUND('',#152,.T.);
#154=ADVANCED_FACE('',(#142,#153),#139,.T.);
#155=CARTESIAN_POINT('',(0.0,0.0,0.0));
#156=DIRECTION('',(0.0,1.0,0.0));
#157=DIRECTION('',(1.0,0.0,0.0));
#158=AXIS2_PLACEMENT_3D('',#155,#156,#157);
#159=CYLINDRICAL_SURFACE('',#158,0.4);
#160=ORIENTED_EDGE('',*,*,#150,.T.);
#161=EDGE_LOOP('',(#160));
#162=FACE_OUTER_BOUND('',#161,.T.);
#163=CARTESIAN_POINT('',(-0.4,0.0,4.898587E-017));
#164=VERTEX_POINT('',#163);
#165=CARTESIAN_POINT('',(0.0,0.0,0.0));
#166=DIRECTION('',(0.0,-1.0,0.0));
#167=DIRECTION('',(1.0,0.0,0.0));
#168=AXIS2_PLACEMENT_3D('',#165,#166,#167);
#169=CIRCLE('',#168,0.4);
#170=EDGE_CURVE('',#164,#164,#169,.T.);
#171=ORIENTED_EDGE('',*,*,#170,.F.);
#172=EDGE_LOOP('',(#171));
#173=FACE_BOUND('',#172,.T.);
#174=ADVANCED_FACE('',(#162,#173),#159,.T.);
#175=CARTESIAN_POINT('',(0.0,10.0,-10.0));
#176=DIRECTION('',(0.0,0.0,1.0));
#177=DIRECTION('',(1.0,0.0,0.0));
#178=AXIS2_PLACEMENT_3D('',#175,#176,#177);
#179=PLANE('',#178);
#180=ORIENTED_EDGE('',*,*,#119,.F.);
#181=EDGE_LOOP('',(#180));
#182=FACE_OUTER_BOUND('',#181,.T.);
#183=ADVANCED_FACE('',(#182),#179,.F.);
#184=CARTESIAN_POINT('',(0.0,0.0,0.0));
#185=DIRECTION('',(0.0,-1.0,0.0));
#186=DIRECTION('',(0.0,0.0,-1.0));
#187=AXIS2_PLACEMENT_3D('',#184,#185,#186);
#188=PLANE('',#187);
#189=ORIENTED_EDGE('',*,*,#170,.T.);
#190=EDGE_LOOP('',(#189));
#191=FACE_OUTER_BOUND('',#190,.T.);
#192=ADVANCED_FACE('',(#191),#188,.T.);
#193=CLOSED_SHELL('',(#134,#154,#174,#183,#192));
#194=MANIFOLD_SOLID_BREP('\X2\04220432043504400434043E0435\X0\ \X2\04420435043B043E\X0\1',#193);
#195=COLOUR_RGB('\X2\FFFDFFFDFFFDFFFDFFFDFFFD\X0\',0.462745100259781,0.533333361148834,0.560784339904785);
#196=FILL_AREA_STYLE_COLOUR('\X2\FFFDFFFDFFFDFFFDFFFDFFFD\X0\',#195);
#197=FILL_AREA_STYLE('\X2\FFFDFFFDFFFDFFFDFFFDFFFD\X0\',(#196));
#198=SURFACE_STYLE_FILL_AREA(#197);
#199=SURFACE_SIDE_STYLE('\X2\FFFDFFFDFFFDFFFDFFFDFFFD\X0\',(#198));
#200=SURFACE_STYLE_USAGE(.BOTH.,#199);
#201=PRESENTATION_STYLE_ASSIGNMENT((#200));
#202=STYLED_ITEM('',(#201),#194);
#203=MECHANICAL_DESIGN_GEOMETRIC_PRESENTATION_REPRESENTATION('',(#202,#450),#36);
#204=ADVANCED_BREP_SHAPE_REPRESENTATION('ABSR',(#194),#75);
#205=SHAPE_REPRESENTATION_RELATIONSHIP('SRR','None',#204,#80);
#206=AXIS2_PLACEMENT_3D('',#207,#208,#209);
#207=CARTESIAN_POINT('',(10.0,-3.184082E-016,5.0));
#208=DIRECTION('',(0.0,0.0,1.0));
#209=DIRECTION('',(6.123234E-017,1.0,0.0));
#210=NEXT_ASSEMBLY_USAGE_OCCURRENCE('pin:1','pin:1','pin:1',#12,#51,'pin:1');
#211=PRODUCT_DEFINITION_SHAPE('pin:1','pin:1',#210);
#212=ITEM_DEFINED_TRANSFORMATION('pin:1','pin:1',#76,#206);
#216=(REPRESENTATION_RELATIONSHIP('pin:1','pin:1',#80,#41)REPRESENTATION_RELATIONSHIP_WITH_TRANSFORMATION(#212)SHAPE_REPRESENTATION_RELATIONSHIP());
#217=CONTEXT_DEPENDENT_SHAPE_REPRESENTATION(#216,#211);
#218=AXIS2_PLACEMENT_3D('',#219,#220,#221);
#219=CARTESIAN_POINT('',(17.940000000000001,-8.045929E-016,5.0));
#220=DIRECTION('',(-3.749399E-033,-6.123234E-017,0.999999999999996));
#221=DIRECTION('',(-6.123234E-017,-0.999999999999996,-6.123234E-017));
#222=NEXT_ASSEMBLY_USAGE_OCCURRENCE('pin:2','pin:2','pin:2',#12,#51,'pin:2');
#223=PRODUCT_DEFINITION_SHAPE('pin:2','pin:2',#222);
#224=ITEM_DEFINED_TRANSFORMATION('pin:2','pin:2',#76,#218);
#228=(REPRESENTATION_RELATIONSHIP('pin:2','pin:2',#80,#41)REPRESENTATION_RELATIONSHIP_WITH_TRANSFORMATION(#224)SHAPE_REPRESENTATION_RELATIONSHIP());
#229=CONTEXT_DEPENDENT_SHAPE_REPRESENTATION(#228,#223);
#230=APPLICATION_CONTEXT('automotive design');
#231=APPLICATION_PROTOCOL_DEFINITION('International Standard','automotive_design',2001,#230);
#232=PRODUCT_CONTEXT('',#230,'mechanical');
#233=PRODUCT('body','body',$,(#232));
#234=PRODUCT_RELATED_PRODUCT_CATEGORY('part',$,(#233));
#235=PRODUCT_DEFINITION_FORMATION('',$,#233);
#236=PRODUCT_DEFINITION_CONTEXT('part definition',#230,'design');
#237=PRODUCT_DEFINITION('',$,#235,#236);
#243=(NAMED_UNIT(*)PLANE_ANGLE_UNIT()SI_UNIT($,.RADIAN.));
#244=DIMENSIONAL_EXPONENTS(0.0,0.0,0.0,0.0,0.0,0.0,0.0);
#245=PLANE_ANGLE_MEASURE_WITH_UNIT(PLANE_ANGLE_MEASURE(0.0174532925),#243);
#249=(CONVERSION_BASED_UNIT('DEGREE',#245)NAMED_UNIT(#244)PLANE_ANGLE_UNIT());
#253=(NAMED_UNIT(*)SI_UNIT($,.STERADIAN.)SOLID_ANGLE_UNIT());
#257=(LENGTH_UNIT()NAMED_UNIT(*)SI_UNIT(.MILLI.,.METRE.));
#259=UNCERTAINTY_MEASURE_WITH_UNIT(LENGTH_MEASURE(0.01),#257,'DISTANCE_ACCURACY_VALUE','');
#261=(GEOMETRIC_REPRESENTATION_CONTEXT(3)GLOBAL_UNCERTAINTY_ASSIGNED_CONTEXT((#259))GLOBAL_UNIT_ASSIGNED_CONTEXT((#249,#253,#257))REPRESENTATION_CONTEXT('None','None'));
#262=AXIS2_PLACEMENT_3D('',#263,#264,#265);
#263=CARTESIAN_POINT('',(0.0,0.0,0.0));
#264=DIRECTION('',(0.0,0.0,1.0));
#265=DIRECTION('',(1.0,0.0,0.0));
#266=SHAPE_REPRESENTATION('',(#262),#261);
#267=PRODUCT_DEFINITION_SHAPE('','',#237);
#268=SHAPE_DEFINITION_REPRESENTATION(#267,#266);
#274=(NAMED_UNIT(*)PLANE_ANGLE_UNIT()SI_UNIT($,.RADIAN.));
#275=DIMENSIONAL_EXPONENTS(0.0,0.0,0.0,0.0,0.0,0.0,0.0);
#276=PLANE_ANGLE_MEASURE_WITH_UNIT(PLANE_ANGLE_MEASURE(0.0174532925),#274);
#280=(CONVERSION_BASED_UNIT('DEGREE',#276)NAMED_UNIT(#275)PLANE_ANGLE_UNIT());
#284=(NAMED_UNIT(*)SI_UNIT($,.STERADIAN.)SOLID_ANGLE_UNIT());
#288=(LENGTH_UNIT()NAMED_UNIT(*)SI_UNIT(.MILLI.,.METRE.));
#290=UNCERTAINTY_MEASURE_WITH_UNIT(LENGTH_MEASURE(0.000001),#288,'DISTANCE_ACCURACY_VALUE','');
#292=(GEOMETRIC_REPRESENTATION_CONTEXT(3)GLOBAL_UNCERTAINTY_ASSIGNED_CONTEXT((#290))GLOBAL_UNIT_ASSIGNED_CONTEXT((#280,#284,#288))REPRESENTATION_CONTEXT('','3D'));
#293=CARTESIAN_POINT('',(-11.0,0.0,-5.0));
#294=DIRECTION('',(-1.0,0.0,0.0));
#295=DIRECTION('',(0.0,0.0,1.0));
#296=AXIS2_PLACEMENT_3D('',#293,#294,#295);
#297=PLANE('',#296);
#298=CARTESIAN_POINT('',(-11.0,0.0,5.0));
#299=VERTEX_POINT('',#298);
#300=CARTESIAN_POINT('',(-11.0,0.0,-5.0));
#301=VERTEX_POINT('',#300);
#302=CARTESIAN_POINT('',(-11.0,0.0,5.0));
#303=DIRECTION('',(0.0,0.0,-1.0));
#304=VECTOR('',#303,10.0);
#305=LINE('',#302,#304);
#306=EDGE_CURVE('',#299,#301,#305,.T.);
#307=ORIENTED_EDGE('',*,*,#306,.F.);
#308=CARTESIAN_POINT('',(-11.0,9.0,5.0));
#309=VERTEX_POINT('',#308);
#310=CARTESIAN_POINT('',(-11.0,0.0,5.0));
#311=DIRECTION('',(0.0,1.0,0.0));
#312=VECTOR('',#311,9.0);
#313=LINE('',#310,#312);
#314=EDGE_CURVE('',#299,#309,#313,.T.);
#315=ORIENTED_EDGE('',*,*,#314,.T.);
#316=CARTESIAN_POINT('',(-11.0,9.0,-5.0));
#317=VERTEX_POINT('',#316);
#318=CARTESIAN_POINT('',(-11.0,9.0,-5.0));
#319=DIRECTION('',(0.0,0.0,1.0));
#320=VECTOR('',#319,10.0);
#321=LINE('',#318,#320);
#322=EDGE_CURVE('',#317,#309,#321,.T.);
#323=ORIENTED_EDGE('',*,*,#322,.F.);
#324=CARTESIAN_POINT('',(-11.0,0.0,-5.0));
#325=DIRECTION('',(0.0,1.0,0.0));
#326=VECTOR('',#325,9.0);
#327=LINE('',#324,#326);
#328=EDGE_CURVE('',#301,#317,#327,.T.);
#329=ORIENTED_EDGE('',*,*,#328,.F.);
#330=EDGE_LOOP('',(#307,#315,#323,#329));
#331=FACE_OUTER_BOUND('',#330,.T.);
#332=ADVANCED_FACE('',(#331),#297,.T.);
#333=CARTESIAN_POINT('',(11.0,0.0,-5.0));
#334=DIRECTION('',(0.0,0.0,-1.0));
#335=DIRECTION('',(-1.0,0.0,0.0));
#336=AXIS2_PLACEMENT_3D('',#333,#334,#335);
#337=PLANE('',#336);
#338=CARTESIAN_POINT('',(11.0,0.0,-5.0));
#339=VERTEX_POINT('',#338);
#340=CARTESIAN_POINT('',(-11.0,0.0,-5.0));
#341=DIRECTION('',(1.0,0.0,0.0));
#342=VECTOR('',#341,22.0);
#343=LINE('',#340,#342);
#344=EDGE_CURVE('',#301,#339,#343,.T.);
#345=ORIENTED_EDGE('',*,*,#344,.F.);
#346=ORIENTED_EDGE('',*,*,#328,.T.);
#347=CARTESIAN_POINT('',(11.0,9.0,-5.0));
#348=VERTEX_POINT('',#347);
#349=CARTESIAN_POINT('',(11.0,9.0,-5.0));
#350=DIRECTION('',(-1.0,0.0,0.0));
#351=VECTOR('',#350,22.0);
#352=LINE('',#349,#351);
#353=EDGE_CURVE('',#348,#317,#352,.T.);
#354=ORIENTED_EDGE('',*,*,#353,.F.);
#355=CARTESIAN_POINT('',(11.0,0.0,-5.0));
#356=DIRECTION('',(0.0,1.0,0.0));
#357=VECTOR('',#356,9.0);
#358=LINE('',#355,#357);
#359=EDGE_CURVE('',#339,#348,#358,.T.);
#360=ORIENTED_EDGE('',*,*,#359,.F.);
#361=EDGE_LOOP('',(#345,#346,#354,#360));
#362=FACE_OUTER_BOUND('',#361,.T.);
#363=ADVANCED_FACE('',(#362),#337,.T.);
#364=CARTESIAN_POINT('',(11.0,0.0,5.0));
#365=DIRECTION('',(1.0,0.0,0.0));
#366=DIRECTION('',(0.0,0.0,-1.0));
#367=AXIS2_PLACEMENT_3D('',#364,#365,#366);
#368=PLANE('',#367);
#369=CARTESIAN_POINT('',(11.0,0.0,5.0));
#370=VERTEX_POINT('',#369);
#371=CARTESIAN_POINT('',(11.0,0.0,-5.0));
#372=DIRECTION('',(0.0,0.0,1.0));
#373=VECTOR('',#372,10.0);
#374=LINE('',#371,#373);
#375=EDGE_CURVE('',#339,#370,#374,.T.);
#376=ORIENTED_EDGE('',*,*,#375,.F.);
#377=ORIENTED_EDGE('',*,*,#359,.T.);
#378=CARTESIAN_POINT('',(11.0,9.0,5.0));
#379=VERTEX_POINT('',#378);
#380=CARTESIAN_POINT('',(11.0,9.0,5.0));
#381=DIRECTION('',(0.0,0.0,-1.0));
#382=VECTOR('',#381,10.0);
#383=LINE('',#380,#382);
#384=EDGE_CURVE('',#379,#348,#383,.T.);
#385=ORIENTED_EDGE('',*,*,#384,.F.);
#386=CARTESIAN_POINT('',(11.0,0.0,5.0));
#387=DIRECTION('',(0.0,1.0,0.0));
#388=VECTOR('',#387,9.0);
#389=LINE('',#386,#388);
#390=EDGE_CURVE('',#370,#379,#389,.T.);
#391=ORIENTED_EDGE('',*,*,#390,.F.);
#392=EDGE_LOOP('',(#376,#377,#385,#391));
#393=FACE_OUTER_BOUND('',#392,.T.);
#394=ADVANCED_FACE('',(#393),#368,.T.);
#395=CARTESIAN_POINT('',(-11.0,0.0,5.0));
#396=DIRECTION('',(0.0,0.0,1.0));
#397=DIRECTION('',(1.0,0.0,0.0));
#398=AXIS2_PLACEMENT_3D('',#395,#396,#397);
#399=PLANE('',#398);
#400=CARTESIAN_POINT('',(11.0,0.0,5.0));
#401=DIRECTION('',(-1.0,0.0,0.0));
#402=VECTOR('',#401,22.0);
#403=LINE('',#400,#402);
#404=EDGE_CURVE('',#370,#299,#403,.T.);
#405=ORIENTED_EDGE('',*,*,#404,.F.);
#406=ORIENTED_EDGE('',*,*,#390,.T.);
#407=CARTESIAN_POINT('',(-11.0,9.0,5.0));
#408=DIRECTION('',(1.0,0.0,0.0));
#409=VECTOR('',#408,22.0);
#410=LINE('',#407,#409);
#411=EDGE_CURVE('',#309,#379,#410,.T.);
#412=ORIENTED_EDGE('',*,*,#411,.F.);
#413=ORIENTED_EDGE('',*,*,#314,.F.);
#414=EDGE_LOOP('',(#405,#406,#412,#413));
#415=FACE_OUTER_BOUND('',#414,.T.);
#416=ADVANCED_FACE('',(#415),#399,.T.);
#417=CARTESIAN_POINT('',(0.0,9.0,0.0));
#418=DIRECTION('',(0.0,1.0,0.0));
#419=DIRECTION('',(0.0,0.0,1.0));
#420=AXIS2_PLACEMENT_3D('',#417,#418,#419);
#421=PLANE('',#420);
#422=ORIENTED_EDGE('',*,*,#411,.T.);
#423=ORIENTED_EDGE('',*,*,#384,.T.);
#424=ORIENTED_EDGE('',*,*,#353,.T.);
#425=ORIENTED_EDGE('',*,*,#322,.T.);
#426=EDGE_LOOP('',(#422,#423,#424,#425));
#427=FACE_OUTER_BOUND('',#426,.T.);
#428=ADVANCED_FACE('',(#427),#421,.T.);
#429=CARTESIAN_POINT('',(0.0,0.0,0.0));
#430=DIRECTION('',(0.0,1.0,0.0));
#431=DIRECTION('',(0.0,0.0,1.0));
#432=AXIS2_PLACEMENT_3D('',#429,#430,#431);
#433=PLANE('',#432);
#434=ORIENTED_EDGE('',*,*,#404,.T.);
#435=ORIENTED_EDGE('',*,*,#306,.T.);
#436=ORIENTED_EDGE('',*,*,#344,.T.);
#437=ORIENTED_EDGE('',*,*,#375,.T.);
#438=EDGE_LOOP('',(#434,#435,#436,#437));
#439=FACE_OUTER_BOUND('',#438,.T.);
#440=ADVANCED_FACE('',(#439),#433,.F.);
#441=CLOSED_SHELL('',(#332,#363,#394,#416,#428,#440));
#442=MANIFOLD_SOLID_BREP('\X2\04220432043504400434043E0435\X0\ \X2\04420435043B043E\X0\1',#441);
#443=COLOUR_RGB('\X2\FFFDFFFDFFFDFFFDFFFDFFFD\X0\ 6',1.0,0.968627452850342,0.725490212440491);
#444=FILL_AREA_STYLE_COLOUR('\X2\FFFDFFFDFFFDFFFDFFFDFFFD\X0\ 6',#443);
#445=FILL_AREA_STYLE('\X2\FFFDFFFDFFFDFFFDFFFDFFFD\X0\ 6',(#444));
#446=SURFACE_STYLE_FILL_AREA(#445);
#447=SURFACE_SIDE_STYLE('\X2\FFFDFFFDFFFDFFFDFFFDFFFD\X0\ 6',(#446));
#448=SURFACE_STYLE_USAGE(.BOTH.,#447);
#449=PRESENTATION_STYLE_ASSIGNMENT((#448));
#450=STYLED_ITEM('',(#449),#442);
#451=ADVANCED_BREP_SHAPE_REPRESENTATION('ABSR',(#442),#261);
#452=SHAPE_REPRESENTATION_RELATIONSHIP('SRR','None',#451,#266);
#453=AXIS2_PLACEMENT_3D('',#454,#455,#456);
#454=CARTESIAN_POINT('',(13.969999999999992,1.728096E-015,9.499999999999972));
#455=DIRECTION('',(-2.706574E-017,0.999999999999997,-4.789594E-048));
#456=DIRECTION('',(0.999999999999999,6.162976E-033,-5.554962E-032));
#457=NEXT_ASSEMBLY_USAGE_OCCURRENCE('body:1','body:1','body:1',#12,#237,'body:1');
#458=PRODUCT_DEFINITION_SHAPE('body:1','body:1',#457);
#459=ITEM_DEFINED_TRANSFORMATION('body:1','body:1',#262,#453);
#463=(REPRESENTATION_RELATIONSHIP('body:1','body:1',#266,#41)REPRESENTATION_RELATIONSHIP_WITH_TRANSFORMATION(#459)SHAPE_REPRESENTATION_RELATIONSHIP());
#464=CONTEXT_DEPENDENT_SHAPE_REPRESENTATION(#463,#458);
ENDSEC;
END-ISO-10303-21;
