ISO-10303-21;
HEADER;
/****************************************************************
 * Generated by software with PDElib inside                    *
 * PDElib Version v51a, created Wed 11/30/2011                  *
 * ITI Transcendata (http://www.transcendata.com/)              *
 ****************************************************************/
FILE_DESCRIPTION((''),'2;1');
FILE_NAME('D:\\Inventor models\\PLS-6R\\PLD-20.stp','2017-02-10T11:29:21',('A_Perevoztchikov'),(''),'Autodesk Inventor 2013','Autodesk Inventor 2013','');
FILE_SCHEMA(('AUTOMOTIVE_DESIGN { 1 0 10303 214 1 1 1 1 }'));
ENDSEC;
DATA;
#5=APPLICATION_CONTEXT('automotive design');
#6=APPLICATION_PROTOCOL_DEFINITION('International Standard','automotive_design',2001,#5);
#7=PRODUCT_CONTEXT('',#5,'mechanical');
#8=PRODUCT('PLS2','PLS2',$,(#7));
#9=PRODUCT_RELATED_PRODUCT_CATEGORY('part',$,(#8));
#10=PRODUCT_DEFINITION_FORMATION('',$,#8);
#11=PRODUCT_DEFINITION_CONTEXT('part definition',#5,'design');
#12=PRODUCT_DEFINITION('',$,#10,#11);
#18=(NAMED_UNIT(*)PLANE_ANGLE_UNIT()SI_UNIT($,.RADIAN.));
#19=DIMENSIONAL_EXPONENTS(0.0,0.0,0.0,0.0,0.0,0.0,0.0);
#20=PLANE_ANGLE_MEASURE_WITH_UNIT(PLANE_ANGLE_MEASURE(0.0174532925),#18);
#24=(CONVERSION_BASED_UNIT('DEGREE',#20)NAMED_UNIT(#19)PLANE_ANGLE_UNIT());
#28=(NAMED_UNIT(*)SI_UNIT($,.STERADIAN.)SOLID_ANGLE_UNIT());
#32=(LENGTH_UNIT()NAMED_UNIT(*)SI_UNIT(.MILLI.,.METRE.));
#34=UNCERTAINTY_MEASURE_WITH_UNIT(LENGTH_MEASURE(0.01),#32,'DISTANCE_ACCURACY_VALUE','');
#36=(GEOMETRIC_REPRESENTATION_CONTEXT(3)GLOBAL_UNCERTAINTY_ASSIGNED_CONTEXT((#34))GLOBAL_UNIT_ASSIGNED_CONTEXT((#24,#28,#32))REPRESENTATION_CONTEXT('None','None'));
#37=AXIS2_PLACEMENT_3D('',#38,#39,#40);
#38=CARTESIAN_POINT('',(0.0,0.0,0.0));
#39=DIRECTION('',(0.0,0.0,1.0));
#40=DIRECTION('',(1.0,0.0,0.0));
#41=SHAPE_REPRESENTATION('',(#37,#680,#1137,#1149,#1161,#1173,#1185,#1197,#1209,#1221,#1233,#1245,#1257,#1269,#1281,#1293,#1305,#1317,#1329,#1341,#1353,#1365,#1377,#1389,#1401,#1413,#1425,#1437,#1449,#1461,#1473,#1485,#1497,#1509,#1521,#1533,#1545,#1557,#1569,#1581,#1593),#36);
#42=PRODUCT_DEFINITION_SHAPE('','',#12);
#43=SHAPE_DEFINITION_REPRESENTATION(#42,#41);
#44=APPLICATION_CONTEXT('automotive design');
#45=APPLICATION_PROTOCOL_DEFINITION('International Standard','automotive_design',2001,#44);
#46=PRODUCT_CONTEXT('',#44,'mechanical');
#47=PRODUCT('pin_direct','pin_direct',$,(#46));
#48=PRODUCT_RELATED_PRODUCT_CATEGORY('part',$,(#47));
#49=PRODUCT_DEFINITION_FORMATION('',$,#47);
#50=PRODUCT_DEFINITION_CONTEXT('part definition',#44,'design');
#51=PRODUCT_DEFINITION('',$,#49,#50);
#57=(NAMED_UNIT(*)PLANE_ANGLE_UNIT()SI_UNIT($,.RADIAN.));
#58=DIMENSIONAL_EXPONENTS(0.0,0.0,0.0,0.0,0.0,0.0,0.0);
#59=PLANE_ANGLE_MEASURE_WITH_UNIT(PLANE_ANGLE_MEASURE(0.0174532925),#57);
#63=(CONVERSION_BASED_UNIT('DEGREE',#59)NAMED_UNIT(#58)PLANE_ANGLE_UNIT());
#67=(NAMED_UNIT(*)SI_UNIT($,.STERADIAN.)SOLID_ANGLE_UNIT());
#71=(LENGTH_UNIT()NAMED_UNIT(*)SI_UNIT(.MILLI.,.METRE.));
#73=UNCERTAINTY_MEASURE_WITH_UNIT(LENGTH_MEASURE(0.01),#71,'DISTANCE_ACCURACY_VALUE','');
#75=(GEOMETRIC_REPRESENTATION_CONTEXT(3)GLOBAL_UNCERTAINTY_ASSIGNED_CONTEXT((#73))GLOBAL_UNIT_ASSIGNED_CONTEXT((#63,#67,#71))REPRESENTATION_CONTEXT('None','None'));
#76=AXIS2_PLACEMENT_3D('',#77,#78,#79);
#77=CARTESIAN_POINT('',(0.0,0.0,0.0));
#78=DIRECTION('',(0.0,0.0,1.0));
#79=DIRECTION('',(1.0,0.0,0.0));
#80=SHAPE_REPRESENTATION('',(#76),#75);
#81=PRODUCT_DEFINITION_SHAPE('','',#51);
#82=SHAPE_DEFINITION_REPRESENTATION(#81,#80);
#88=(NAMED_UNIT(*)PLANE_ANGLE_UNIT()SI_UNIT($,.RADIAN.));
#89=DIMENSIONAL_EXPONENTS(0.0,0.0,0.0,0.0,0.0,0.0,0.0);
#90=PLANE_ANGLE_MEASURE_WITH_UNIT(PLANE_ANGLE_MEASURE(0.0174532925),#88);
#94=(CONVERSION_BASED_UNIT('DEGREE',#90)NAMED_UNIT(#89)PLANE_ANGLE_UNIT());
#98=(NAMED_UNIT(*)SI_UNIT($,.STERADIAN.)SOLID_ANGLE_UNIT());
#102=(LENGTH_UNIT()NAMED_UNIT(*)SI_UNIT(.MILLI.,.METRE.));
#104=UNCERTAINTY_MEASURE_WITH_UNIT(LENGTH_MEASURE(0.000001),#102,'DISTANCE_ACCURACY_VALUE','');
#106=(GEOMETRIC_REPRESENTATION_CONTEXT(3)GLOBAL_UNCERTAINTY_ASSIGNED_CONTEXT((#104))GLOBAL_UNIT_ASSIGNED_CONTEXT((#94,#98,#102))REPRESENTATION_CONTEXT('','3D'));
#107=CARTESIAN_POINT('',(-0.22,2.875,0.54));
#108=DIRECTION('',(0.0,-1.0,0.0));
#109=DIRECTION('',(-0.707106781186548,0.0,0.707106781186547));
#110=AXIS2_PLACEMENT_3D('',#107,#108,#109);
#111=CYLINDRICAL_SURFACE('',#110,0.1);
#112=CARTESIAN_POINT('',(-0.290710678118655,-5.629289321881348,0.610710678118655));
#113=VERTEX_POINT('',#112);
#114=CARTESIAN_POINT('',(-0.22,-5.600000000000001,0.64));
#115=VERTEX_POINT('',#114);
#116=CARTESIAN_POINT('',(-0.22,-5.700000000000001,0.54));
#117=DIRECTION('',(0.0,0.707106781186547,-0.707106781186548));
#118=DIRECTION('',(1.226635E-016,0.707106781186548,0.707106781186547));
#119=AXIS2_PLACEMENT_3D('',#116,#117,#118);
#120=ELLIPSE('',#119,0.14142135623731,0.1);
#121=EDGE_CURVE('',#113,#115,#120,.T.);
#122=ORIENTED_EDGE('',*,*,#121,.T.);
#123=CARTESIAN_POINT('',(-0.22,5.600000000000001,0.64));
#124=VERTEX_POINT('',#123);
#125=CARTESIAN_POINT('',(-0.22,-5.600000000000001,0.64));
#126=DIRECTION('',(0.0,1.0,0.0));
#127=VECTOR('',#126,11.200000000000003);
#128=LINE('',#125,#127);
#129=EDGE_CURVE('',#115,#124,#128,.T.);
#130=ORIENTED_EDGE('',*,*,#129,.T.);
#131=CARTESIAN_POINT('',(-0.290710678118655,5.629289321881346,0.610710678118655));
#132=VERTEX_POINT('',#131);
#133=CARTESIAN_POINT('',(-0.22,5.700000000000001,0.54));
#134=DIRECTION('',(0.0,-0.707106781186547,-0.707106781186548));
#135=DIRECTION('',(1.226635E-016,-0.707106781186548,0.707106781186547));
#136=AXIS2_PLACEMENT_3D('',#133,#134,#135);
#137=ELLIPSE('',#136,0.14142135623731,0.1);
#138=EDGE_CURVE('',#124,#132,#137,.T.);
#139=ORIENTED_EDGE('',*,*,#138,.T.);
#140=CARTESIAN_POINT('',(-0.32,5.600000000000001,0.54));
#141=VERTEX_POINT('',#140);
#142=CARTESIAN_POINT('',(-0.22,5.700000000000001,0.54));
#143=DIRECTION('',(0.707106781186548,-0.707106781186547,0.0));
#144=DIRECTION('',(-0.707106781186547,-0.707106781186548,0.0));
#145=AXIS2_PLACEMENT_3D('',#142,#143,#144);
#146=ELLIPSE('',#145,0.14142135623731,0.1);
#147=EDGE_CURVE('',#132,#141,#146,.T.);
#148=ORIENTED_EDGE('',*,*,#147,.T.);
#149=CARTESIAN_POINT('',(-0.32,-5.600000000000001,0.54));
#150=VERTEX_POINT('',#149);
#151=CARTESIAN_POINT('',(-0.32,5.600000000000001,0.54));
#152=DIRECTION('',(0.0,-1.0,0.0));
#153=VECTOR('',#152,11.200000000000003);
#154=LINE('',#151,#153);
#155=EDGE_CURVE('',#141,#150,#154,.T.);
#156=ORIENTED_EDGE('',*,*,#155,.T.);
#157=CARTESIAN_POINT('',(-0.22,-5.700000000000001,0.54));
#158=DIRECTION('',(0.707106781186548,0.707106781186547,0.0));
#159=DIRECTION('',(-0.707106781186547,0.707106781186548,0.0));
#160=AXIS2_PLACEMENT_3D('',#157,#158,#159);
#161=ELLIPSE('',#160,0.14142135623731,0.1);
#162=EDGE_CURVE('',#150,#113,#161,.T.);
#163=ORIENTED_EDGE('',*,*,#162,.T.);
#164=EDGE_LOOP('',(#122,#130,#139,#148,#156,#163));
#165=FACE_OUTER_BOUND('',#164,.T.);
#166=ADVANCED_FACE('',(#165),#111,.T.);
#167=CARTESIAN_POINT('',(-0.245,-5.675000000000001,0.0));
#168=DIRECTION('',(-0.707106781186548,-0.707106781186547,0.0));
#169=DIRECTION('',(0.0,0.0,1.0));
#170=AXIS2_PLACEMENT_3D('',#167,#168,#169);
#171=PLANE('',#170);
#172=ORIENTED_EDGE('',*,*,#162,.F.);
#173=CARTESIAN_POINT('',(-0.32,-5.600000000000001,0.1));
#174=VERTEX_POINT('',#173);
#175=CARTESIAN_POINT('',(-0.32,-5.600000000000001,0.54));
#176=DIRECTION('',(0.0,0.0,-1.0));
#177=VECTOR('',#176,0.44);
#178=LINE('',#175,#177);
#179=EDGE_CURVE('',#150,#174,#178,.T.);
#180=ORIENTED_EDGE('',*,*,#179,.T.);
#181=CARTESIAN_POINT('',(-0.290710678118655,-5.629289321881348,0.029289321881345));
#182=VERTEX_POINT('',#181);
#183=CARTESIAN_POINT('',(-0.22,-5.700000000000001,0.1));
#184=DIRECTION('',(0.707106781186548,0.707106781186547,0.0));
#185=DIRECTION('',(-0.707106781186547,0.707106781186548,-6.133174E-017));
#186=AXIS2_PLACEMENT_3D('',#183,#184,#185);
#187=ELLIPSE('',#186,0.14142135623731,0.1);
#188=EDGE_CURVE('',#182,#174,#187,.T.);
#189=ORIENTED_EDGE('',*,*,#188,.F.);
#190=CARTESIAN_POINT('',(-0.17,-5.750000000000001,0.15));
#191=VERTEX_POINT('',#190);
#192=CARTESIAN_POINT('',(-0.17,-5.750000000000001,0.15));
#193=DIRECTION('',(-0.577350269189627,0.577350269189623,-0.577350269189627));
#194=VECTOR('',#193,0.209077027517602);
#195=LINE('',#192,#194);
#196=EDGE_CURVE('',#191,#182,#195,.T.);
#197=ORIENTED_EDGE('',*,*,#196,.F.);
#198=CARTESIAN_POINT('',(-0.17,-5.750000000000001,0.49));
#199=VERTEX_POINT('',#198);
#200=CARTESIAN_POINT('',(-0.17,-5.750000000000001,0.15));
#201=DIRECTION('',(0.0,0.0,1.0));
#202=VECTOR('',#201,0.34);
#203=LINE('',#200,#202);
#204=EDGE_CURVE('',#191,#199,#203,.T.);
#205=ORIENTED_EDGE('',*,*,#204,.T.);
#206=CARTESIAN_POINT('',(-0.17,-5.750000000000001,0.49));
#207=DIRECTION('',(-0.577350269189627,0.577350269189623,0.577350269189627));
#208=VECTOR('',#207,0.209077027517602);
#209=LINE('',#206,#208);
#210=EDGE_CURVE('',#199,#113,#209,.T.);
#211=ORIENTED_EDGE('',*,*,#210,.T.);
#212=EDGE_LOOP('',(#172,#180,#189,#197,#205,#211));
#213=FACE_OUTER_BOUND('',#212,.T.);
#214=ADVANCED_FACE('',(#213),#171,.T.);
#215=CARTESIAN_POINT('',(-0.32,5.750000000000001,0.0));
#216=DIRECTION('',(-1.0,0.0,0.0));
#217=DIRECTION('',(0.0,-1.0,0.0));
#218=AXIS2_PLACEMENT_3D('',#215,#216,#217);
#219=PLANE('',#218);
#220=ORIENTED_EDGE('',*,*,#155,.F.);
#221=CARTESIAN_POINT('',(-0.32,5.600000000000001,0.1));
#222=VERTEX_POINT('',#221);
#223=CARTESIAN_POINT('',(-0.32,5.600000000000001,0.1));
#224=DIRECTION('',(0.0,0.0,1.0));
#225=VECTOR('',#224,0.44);
#226=LINE('',#223,#225);
#227=EDGE_CURVE('',#222,#141,#226,.T.);
#228=ORIENTED_EDGE('',*,*,#227,.F.);
#229=CARTESIAN_POINT('',(-0.32,-5.600000000000001,0.1));
#230=DIRECTION('',(0.0,1.0,0.0));
#231=VECTOR('',#230,11.200000000000003);
#232=LINE('',#229,#231);
#233=EDGE_CURVE('',#174,#222,#232,.T.);
#234=ORIENTED_EDGE('',*,*,#233,.F.);
#235=ORIENTED_EDGE('',*,*,#179,.F.);
#236=EDGE_LOOP('',(#220,#228,#234,#235));
#237=FACE_OUTER_BOUND('',#236,.T.);
#238=ADVANCED_FACE('',(#237),#219,.T.);
#239=CARTESIAN_POINT('',(-0.245,5.675000000000001,0.0));
#240=DIRECTION('',(-0.707106781186548,0.707106781186547,0.0));
#241=DIRECTION('',(0.0,0.0,1.0));
#242=AXIS2_PLACEMENT_3D('',#239,#240,#241);
#243=PLANE('',#242);
#244=ORIENTED_EDGE('',*,*,#147,.F.);
#245=CARTESIAN_POINT('',(-0.17,5.750000000000001,0.49));
#246=VERTEX_POINT('',#245);
#247=CARTESIAN_POINT('',(-0.290710678118655,5.629289321881346,0.610710678118655));
#248=DIRECTION('',(0.577350269189625,0.577350269189628,-0.577350269189625));
#249=VECTOR('',#248,0.209077027517603);
#250=LINE('',#247,#249);
#251=EDGE_CURVE('',#132,#246,#250,.T.);
#252=ORIENTED_EDGE('',*,*,#251,.T.);
#253=CARTESIAN_POINT('',(-0.17,5.750000000000001,0.15));
#254=VERTEX_POINT('',#253);
#255=CARTESIAN_POINT('',(-0.17,5.750000000000001,0.49));
#256=DIRECTION('',(0.0,0.0,-1.0));
#257=VECTOR('',#256,0.34);
#258=LINE('',#255,#257);
#259=EDGE_CURVE('',#246,#254,#258,.T.);
#260=ORIENTED_EDGE('',*,*,#259,.T.);
#261=CARTESIAN_POINT('',(-0.290710678118655,5.629289321881346,0.029289321881345));
#262=VERTEX_POINT('',#261);
#263=CARTESIAN_POINT('',(-0.290710678118655,5.629289321881346,0.029289321881345));
#264=DIRECTION('',(0.577350269189625,0.577350269189627,0.577350269189625));
#265=VECTOR('',#264,0.209077027517603);
#266=LINE('',#263,#265);
#267=EDGE_CURVE('',#262,#254,#266,.T.);
#268=ORIENTED_EDGE('',*,*,#267,.F.);
#269=CARTESIAN_POINT('',(-0.22,5.700000000000001,0.1));
#270=DIRECTION('',(0.707106781186548,-0.707106781186547,0.0));
#271=DIRECTION('',(-0.707106781186547,-0.707106781186548,-6.133174E-017));
#272=AXIS2_PLACEMENT_3D('',#269,#270,#271);
#273=ELLIPSE('',#272,0.14142135623731,0.1);
#274=EDGE_CURVE('',#222,#262,#273,.T.);
#275=ORIENTED_EDGE('',*,*,#274,.F.);
#276=ORIENTED_EDGE('',*,*,#227,.T.);
#277=EDGE_LOOP('',(#244,#252,#260,#268,#275,#276));
#278=FACE_OUTER_BOUND('',#277,.T.);
#279=ADVANCED_FACE('',(#278),#243,.T.);
#280=CARTESIAN_POINT('',(-0.22,2.875,0.1));
#281=DIRECTION('',(0.0,-1.0,0.0));
#282=DIRECTION('',(-0.707106781186548,0.0,-0.707106781186548));
#283=AXIS2_PLACEMENT_3D('',#280,#281,#282);
#284=CYLINDRICAL_SURFACE('',#283,0.1);
#285=ORIENTED_EDGE('',*,*,#188,.T.);
#286=ORIENTED_EDGE('',*,*,#233,.T.);
#287=ORIENTED_EDGE('',*,*,#274,.T.);
#288=CARTESIAN_POINT('',(-0.22,5.600000000000001,0.0));
#289=VERTEX_POINT('',#288);
#290=CARTESIAN_POINT('',(-0.22,5.700000000000001,0.1));
#291=DIRECTION('',(0.0,-0.707106781186547,0.707106781186548));
#292=DIRECTION('',(-6.133174E-017,-0.707106781186548,-0.707106781186547));
#293=AXIS2_PLACEMENT_3D('',#290,#291,#292);
#294=ELLIPSE('',#293,0.14142135623731,0.1);
#295=EDGE_CURVE('',#262,#289,#294,.T.);
#296=ORIENTED_EDGE('',*,*,#295,.T.);
#297=CARTESIAN_POINT('',(-0.22,-5.600000000000001,0.0));
#298=VERTEX_POINT('',#297);
#299=CARTESIAN_POINT('',(-0.22,5.600000000000001,0.0));
#300=DIRECTION('',(0.0,-1.0,0.0));
#301=VECTOR('',#300,11.200000000000003);
#302=LINE('',#299,#301);
#303=EDGE_CURVE('',#289,#298,#302,.T.);
#304=ORIENTED_EDGE('',*,*,#303,.T.);
#305=CARTESIAN_POINT('',(-0.22,-5.700000000000001,0.1));
#306=DIRECTION('',(0.0,0.707106781186547,0.707106781186548));
#307=DIRECTION('',(-6.133174E-017,0.707106781186548,-0.707106781186547));
#308=AXIS2_PLACEMENT_3D('',#305,#306,#307);
#309=ELLIPSE('',#308,0.14142135623731,0.1);
#310=EDGE_CURVE('',#298,#182,#309,.T.);
#311=ORIENTED_EDGE('',*,*,#310,.T.);
#312=EDGE_LOOP('',(#285,#286,#287,#296,#304,#311));
#313=FACE_OUTER_BOUND('',#312,.T.);
#314=ADVANCED_FACE('',(#313),#284,.T.);
#315=CARTESIAN_POINT('',(-0.16,-5.675000000000001,0.075));
#316=DIRECTION('',(0.0,-0.707106781186547,-0.707106781186548));
#317=DIRECTION('',(-1.0,0.0,0.0));
#318=AXIS2_PLACEMENT_3D('',#315,#316,#317);
#319=PLANE('',#318);
#320=ORIENTED_EDGE('',*,*,#310,.F.);
#321=CARTESIAN_POINT('',(0.22,-5.600000000000001,0.0));
#322=VERTEX_POINT('',#321);
#323=CARTESIAN_POINT('',(-0.22,-5.600000000000001,0.0));
#324=DIRECTION('',(1.0,0.0,0.0));
#325=VECTOR('',#324,0.44);
#326=LINE('',#323,#325);
#327=EDGE_CURVE('',#298,#322,#326,.T.);
#328=ORIENTED_EDGE('',*,*,#327,.T.);
#329=CARTESIAN_POINT('',(0.290710678118655,-5.629289321881346,0.029289321881345));
#330=VERTEX_POINT('',#329);
#331=CARTESIAN_POINT('',(0.22,-5.700000000000001,0.1));
#332=DIRECTION('',(0.0,0.707106781186547,0.707106781186548));
#333=DIRECTION('',(6.133174E-017,0.707106781186548,-0.707106781186547));
#334=AXIS2_PLACEMENT_3D('',#331,#332,#333);
#335=ELLIPSE('',#334,0.14142135623731,0.1);
#336=EDGE_CURVE('',#330,#322,#335,.T.);
#337=ORIENTED_EDGE('',*,*,#336,.F.);
#338=CARTESIAN_POINT('',(0.17,-5.750000000000001,0.15));
#339=VERTEX_POINT('',#338);
#340=CARTESIAN_POINT('',(0.290710678118655,-5.629289321881346,0.029289321881345));
#341=DIRECTION('',(-0.577350269189625,-0.577350269189627,0.577350269189625));
#342=VECTOR('',#341,0.209077027517603);
#343=LINE('',#340,#342);
#344=EDGE_CURVE('',#330,#339,#343,.T.);
#345=ORIENTED_EDGE('',*,*,#344,.T.);
#346=CARTESIAN_POINT('',(0.17,-5.750000000000001,0.15));
#347=DIRECTION('',(-1.0,0.0,0.0));
#348=VECTOR('',#347,0.34);
#349=LINE('',#346,#348);
#350=EDGE_CURVE('',#339,#191,#349,.T.);
#351=ORIENTED_EDGE('',*,*,#350,.T.);
#352=ORIENTED_EDGE('',*,*,#196,.T.);
#353=EDGE_LOOP('',(#320,#328,#337,#345,#351,#352));
#354=FACE_OUTER_BOUND('',#353,.T.);
#355=ADVANCED_FACE('',(#354),#319,.T.);
#356=CARTESIAN_POINT('',(0.0,0.0,0.0));
#357=DIRECTION('',(0.0,0.0,1.0));
#358=DIRECTION('',(1.0,0.0,0.0));
#359=AXIS2_PLACEMENT_3D('',#356,#357,#358);
#360=PLANE('',#359);
#361=ORIENTED_EDGE('',*,*,#303,.F.);
#362=CARTESIAN_POINT('',(0.22,5.600000000000001,0.0));
#363=VERTEX_POINT('',#362);
#364=CARTESIAN_POINT('',(0.22,5.600000000000001,0.0));
#365=DIRECTION('',(-1.0,0.0,0.0));
#366=VECTOR('',#365,0.44);
#367=LINE('',#364,#366);
#368=EDGE_CURVE('',#363,#289,#367,.T.);
#369=ORIENTED_EDGE('',*,*,#368,.F.);
#370=CARTESIAN_POINT('',(0.22,-5.600000000000001,0.0));
#371=DIRECTION('',(0.0,1.0,0.0));
#372=VECTOR('',#371,11.200000000000003);
#373=LINE('',#370,#372);
#374=EDGE_CURVE('',#322,#363,#373,.T.);
#375=ORIENTED_EDGE('',*,*,#374,.F.);
#376=ORIENTED_EDGE('',*,*,#327,.F.);
#377=EDGE_LOOP('',(#361,#369,#375,#376));
#378=FACE_OUTER_BOUND('',#377,.T.);
#379=ADVANCED_FACE('',(#378),#360,.F.);
#380=CARTESIAN_POINT('',(0.16,5.675000000000001,0.075));
#381=DIRECTION('',(0.0,0.707106781186547,-0.707106781186548));
#382=DIRECTION('',(-1.0,0.0,0.0));
#383=AXIS2_PLACEMENT_3D('',#380,#381,#382);
#384=PLANE('',#383);
#385=ORIENTED_EDGE('',*,*,#295,.F.);
#386=ORIENTED_EDGE('',*,*,#267,.T.);
#387=CARTESIAN_POINT('',(0.17,5.750000000000001,0.15));
#388=VERTEX_POINT('',#387);
#389=CARTESIAN_POINT('',(-0.17,5.750000000000001,0.15));
#390=DIRECTION('',(1.0,0.0,0.0));
#391=VECTOR('',#390,0.34);
#392=LINE('',#389,#391);
#393=EDGE_CURVE('',#254,#388,#392,.T.);
#394=ORIENTED_EDGE('',*,*,#393,.T.);
#395=CARTESIAN_POINT('',(0.290710678118655,5.629289321881348,0.029289321881345));
#396=VERTEX_POINT('',#395);
#397=CARTESIAN_POINT('',(0.17,5.750000000000001,0.15));
#398=DIRECTION('',(0.577350269189627,-0.577350269189623,-0.577350269189627));
#399=VECTOR('',#398,0.209077027517602);
#400=LINE('',#397,#399);
#401=EDGE_CURVE('',#388,#396,#400,.T.);
#402=ORIENTED_EDGE('',*,*,#401,.T.);
#403=CARTESIAN_POINT('',(0.22,5.700000000000001,0.1));
#404=DIRECTION('',(0.0,-0.707106781186547,0.707106781186548));
#405=DIRECTION('',(6.133174E-017,-0.707106781186548,-0.707106781186547));
#406=AXIS2_PLACEMENT_3D('',#403,#404,#405);
#407=ELLIPSE('',#406,0.14142135623731,0.1);
#408=EDGE_CURVE('',#363,#396,#407,.T.);
#409=ORIENTED_EDGE('',*,*,#408,.F.);
#410=ORIENTED_EDGE('',*,*,#368,.T.);
#411=EDGE_LOOP('',(#385,#386,#394,#402,#409,#410));
#412=FACE_OUTER_BOUND('',#411,.T.);
#413=ADVANCED_FACE('',(#412),#384,.T.);
#414=CARTESIAN_POINT('',(0.22,-2.875,0.54));
#415=DIRECTION('',(0.0,1.0,0.0));
#416=DIRECTION('',(0.707106781186548,0.0,0.707106781186547));
#417=AXIS2_PLACEMENT_3D('',#414,#415,#416);
#418=CYLINDRICAL_SURFACE('',#417,0.1);
#419=CARTESIAN_POINT('',(0.290710678118655,5.629289321881348,0.610710678118655));
#420=VERTEX_POINT('',#419);
#421=CARTESIAN_POINT('',(0.22,5.600000000000001,0.64));
#422=VERTEX_POINT('',#421);
#423=CARTESIAN_POINT('',(0.22,5.700000000000001,0.54));
#424=DIRECTION('',(0.0,-0.707106781186547,-0.707106781186548));
#425=DIRECTION('',(-1.226635E-016,-0.707106781186548,0.707106781186547));
#426=AXIS2_PLACEMENT_3D('',#423,#424,#425);
#427=ELLIPSE('',#426,0.14142135623731,0.1);
#428=EDGE_CURVE('',#420,#422,#427,.T.);
#429=ORIENTED_EDGE('',*,*,#428,.T.);
#430=CARTESIAN_POINT('',(0.22,-5.600000000000001,0.64));
#431=VERTEX_POINT('',#430);
#432=CARTESIAN_POINT('',(0.22,5.600000000000001,0.64));
#433=DIRECTION('',(0.0,-1.0,0.0));
#434=VECTOR('',#433,11.200000000000003);
#435=LINE('',#432,#434);
#436=EDGE_CURVE('',#422,#431,#435,.T.);
#437=ORIENTED_EDGE('',*,*,#436,.T.);
#438=CARTESIAN_POINT('',(0.290710678118655,-5.629289321881346,0.610710678118655));
#439=VERTEX_POINT('',#438);
#440=CARTESIAN_POINT('',(0.22,-5.700000000000001,0.54));
#441=DIRECTION('',(0.0,0.707106781186547,-0.707106781186548));
#442=DIRECTION('',(-1.226635E-016,0.707106781186548,0.707106781186547));
#443=AXIS2_PLACEMENT_3D('',#440,#441,#442);
#444=ELLIPSE('',#443,0.14142135623731,0.1);
#445=EDGE_CURVE('',#431,#439,#444,.T.);
#446=ORIENTED_EDGE('',*,*,#445,.T.);
#447=CARTESIAN_POINT('',(0.32,-5.600000000000001,0.54));
#448=VERTEX_POINT('',#447);
#449=CARTESIAN_POINT('',(0.22,-5.700000000000001,0.54));
#450=DIRECTION('',(-0.707106781186548,0.707106781186547,0.0));
#451=DIRECTION('',(0.707106781186547,0.707106781186548,0.0));
#452=AXIS2_PLACEMENT_3D('',#449,#450,#451);
#453=ELLIPSE('',#452,0.14142135623731,0.1);
#454=EDGE_CURVE('',#439,#448,#453,.T.);
#455=ORIENTED_EDGE('',*,*,#454,.T.);
#456=CARTESIAN_POINT('',(0.32,5.600000000000001,0.54));
#457=VERTEX_POINT('',#456);
#458=CARTESIAN_POINT('',(0.32,-5.600000000000001,0.54));
#459=DIRECTION('',(0.0,1.0,0.0));
#460=VECTOR('',#459,11.200000000000003);
#461=LINE('',#458,#460);
#462=EDGE_CURVE('',#448,#457,#461,.T.);
#463=ORIENTED_EDGE('',*,*,#462,.T.);
#464=CARTESIAN_POINT('',(0.22,5.700000000000001,0.54));
#465=DIRECTION('',(-0.707106781186548,-0.707106781186547,0.0));
#466=DIRECTION('',(0.707106781186547,-0.707106781186548,0.0));
#467=AXIS2_PLACEMENT_3D('',#464,#465,#466);
#468=ELLIPSE('',#467,0.14142135623731,0.1);
#469=EDGE_CURVE('',#457,#420,#468,.T.);
#470=ORIENTED_EDGE('',*,*,#469,.T.);
#471=EDGE_LOOP('',(#429,#437,#446,#455,#463,#470));
#472=FACE_OUTER_BOUND('',#471,.T.);
#473=ADVANCED_FACE('',(#472),#418,.T.);
#474=CARTESIAN_POINT('',(0.245,5.675000000000001,0.0));
#475=DIRECTION('',(0.707106781186548,0.707106781186547,0.0));
#476=DIRECTION('',(0.0,0.0,-1.0));
#477=AXIS2_PLACEMENT_3D('',#474,#475,#476);
#478=PLANE('',#477);
#479=ORIENTED_EDGE('',*,*,#469,.F.);
#480=CARTESIAN_POINT('',(0.32,5.600000000000001,0.1));
#481=VERTEX_POINT('',#480);
#482=CARTESIAN_POINT('',(0.32,5.600000000000001,0.54));
#483=DIRECTION('',(0.0,0.0,-1.0));
#484=VECTOR('',#483,0.44);
#485=LINE('',#482,#484);
#486=EDGE_CURVE('',#457,#481,#485,.T.);
#487=ORIENTED_EDGE('',*,*,#486,.T.);
#488=CARTESIAN_POINT('',(0.22,5.700000000000001,0.1));
#489=DIRECTION('',(-0.707106781186548,-0.707106781186547,0.0));
#490=DIRECTION('',(0.707106781186547,-0.707106781186548,-6.133174E-017));
#491=AXIS2_PLACEMENT_3D('',#488,#489,#490);
#492=ELLIPSE('',#491,0.14142135623731,0.1);
#493=EDGE_CURVE('',#396,#481,#492,.T.);
#494=ORIENTED_EDGE('',*,*,#493,.F.);
#495=ORIENTED_EDGE('',*,*,#401,.F.);
#496=CARTESIAN_POINT('',(0.17,5.750000000000001,0.49));
#497=VERTEX_POINT('',#496);
#498=CARTESIAN_POINT('',(0.17,5.750000000000001,0.15));
#499=DIRECTION('',(0.0,0.0,1.0));
#500=VECTOR('',#499,0.34);
#501=LINE('',#498,#500);
#502=EDGE_CURVE('',#388,#497,#501,.T.);
#503=ORIENTED_EDGE('',*,*,#502,.T.);
#504=CARTESIAN_POINT('',(0.17,5.750000000000001,0.49));
#505=DIRECTION('',(0.577350269189627,-0.577350269189623,0.577350269189627));
#506=VECTOR('',#505,0.209077027517602);
#507=LINE('',#504,#506);
#508=EDGE_CURVE('',#497,#420,#507,.T.);
#509=ORIENTED_EDGE('',*,*,#508,.T.);
#510=EDGE_LOOP('',(#479,#487,#494,#495,#503,#509));
#511=FACE_OUTER_BOUND('',#510,.T.);
#512=ADVANCED_FACE('',(#511),#478,.T.);
#513=CARTESIAN_POINT('',(0.32,-5.750000000000001,0.0));
#514=DIRECTION('',(1.0,0.0,0.0));
#515=DIRECTION('',(0.0,1.0,0.0));
#516=AXIS2_PLACEMENT_3D('',#513,#514,#515);
#517=PLANE('',#516);
#518=ORIENTED_EDGE('',*,*,#462,.F.);
#519=CARTESIAN_POINT('',(0.32,-5.600000000000001,0.1));
#520=VERTEX_POINT('',#519);
#521=CARTESIAN_POINT('',(0.32,-5.600000000000001,0.1));
#522=DIRECTION('',(0.0,0.0,1.0));
#523=VECTOR('',#522,0.44);
#524=LINE('',#521,#523);
#525=EDGE_CURVE('',#520,#448,#524,.T.);
#526=ORIENTED_EDGE('',*,*,#525,.F.);
#527=CARTESIAN_POINT('',(0.32,5.600000000000001,0.1));
#528=DIRECTION('',(0.0,-1.0,0.0));
#529=VECTOR('',#528,11.200000000000003);
#530=LINE('',#527,#529);
#531=EDGE_CURVE('',#481,#520,#530,.T.);
#532=ORIENTED_EDGE('',*,*,#531,.F.);
#533=ORIENTED_EDGE('',*,*,#486,.F.);
#534=EDGE_LOOP('',(#518,#526,#532,#533));
#535=FACE_OUTER_BOUND('',#534,.T.);
#536=ADVANCED_FACE('',(#535),#517,.T.);
#537=CARTESIAN_POINT('',(0.245,-5.675000000000001,0.0));
#538=DIRECTION('',(0.707106781186548,-0.707106781186547,0.0));
#539=DIRECTION('',(0.0,0.0,-1.0));
#540=AXIS2_PLACEMENT_3D('',#537,#538,#539);
#541=PLANE('',#540);
#542=ORIENTED_EDGE('',*,*,#454,.F.);
#543=CARTESIAN_POINT('',(0.17,-5.750000000000001,0.49));
#544=VERTEX_POINT('',#543);
#545=CARTESIAN_POINT('',(0.290710678118655,-5.629289321881346,0.610710678118655));
#546=DIRECTION('',(-0.577350269189625,-0.577350269189628,-0.577350269189625));
#547=VECTOR('',#546,0.209077027517603);
#548=LINE('',#545,#547);
#549=EDGE_CURVE('',#439,#544,#548,.T.);
#550=ORIENTED_EDGE('',*,*,#549,.T.);
#551=CARTESIAN_POINT('',(0.17,-5.750000000000001,0.49));
#552=DIRECTION('',(0.0,0.0,-1.0));
#553=VECTOR('',#552,0.34);
#554=LINE('',#551,#553);
#555=EDGE_CURVE('',#544,#339,#554,.T.);
#556=ORIENTED_EDGE('',*,*,#555,.T.);
#557=ORIENTED_EDGE('',*,*,#344,.F.);
#558=CARTESIAN_POINT('',(0.22,-5.700000000000001,0.1));
#559=DIRECTION('',(-0.707106781186548,0.707106781186547,0.0));
#560=DIRECTION('',(0.707106781186547,0.707106781186548,-6.133174E-017));
#561=AXIS2_PLACEMENT_3D('',#558,#559,#560);
#562=ELLIPSE('',#561,0.14142135623731,0.1);
#563=EDGE_CURVE('',#520,#330,#562,.T.);
#564=ORIENTED_EDGE('',*,*,#563,.F.);
#565=ORIENTED_EDGE('',*,*,#525,.T.);
#566=EDGE_LOOP('',(#542,#550,#556,#557,#564,#565));
#567=FACE_OUTER_BOUND('',#566,.T.);
#568=ADVANCED_FACE('',(#567),#541,.T.);
#569=CARTESIAN_POINT('',(0.22,-2.875,0.1));
#570=DIRECTION('',(0.0,1.0,0.0));
#571=DIRECTION('',(0.707106781186548,0.0,-0.707106781186548));
#572=AXIS2_PLACEMENT_3D('',#569,#570,#571);
#573=CYLINDRICAL_SURFACE('',#572,0.1);
#574=ORIENTED_EDGE('',*,*,#493,.T.);
#575=ORIENTED_EDGE('',*,*,#531,.T.);
#576=ORIENTED_EDGE('',*,*,#563,.T.);
#577=ORIENTED_EDGE('',*,*,#336,.T.);
#578=ORIENTED_EDGE('',*,*,#374,.T.);
#579=ORIENTED_EDGE('',*,*,#408,.T.);
#580=EDGE_LOOP('',(#574,#575,#576,#577,#578,#579));
#581=FACE_OUTER_BOUND('',#580,.T.);
#582=ADVANCED_FACE('',(#581),#573,.T.);
#583=CARTESIAN_POINT('',(-0.16,-5.675000000000001,0.565));
#584=DIRECTION('',(0.0,-0.707106781186547,0.707106781186548));
#585=DIRECTION('',(1.0,0.0,0.0));
#586=AXIS2_PLACEMENT_3D('',#583,#584,#585);
#587=PLANE('',#586);
#588=ORIENTED_EDGE('',*,*,#121,.F.);
#589=ORIENTED_EDGE('',*,*,#210,.F.);
#590=CARTESIAN_POINT('',(-0.17,-5.750000000000001,0.49));
#591=DIRECTION('',(1.0,0.0,0.0));
#592=VECTOR('',#591,0.34);
#593=LINE('',#590,#592);
#594=EDGE_CURVE('',#199,#544,#593,.T.);
#595=ORIENTED_EDGE('',*,*,#594,.T.);
#596=ORIENTED_EDGE('',*,*,#549,.F.);
#597=ORIENTED_EDGE('',*,*,#445,.F.);
#598=CARTESIAN_POINT('',(0.22,-5.600000000000001,0.64));
#599=DIRECTION('',(-1.0,0.0,0.0));
#600=VECTOR('',#599,0.44);
#601=LINE('',#598,#600);
#602=EDGE_CURVE('',#431,#115,#601,.T.);
#603=ORIENTED_EDGE('',*,*,#602,.T.);
#604=EDGE_LOOP('',(#588,#589,#595,#596,#597,#603));
#605=FACE_OUTER_BOUND('',#604,.T.);
#606=ADVANCED_FACE('',(#605),#587,.T.);
#607=CARTESIAN_POINT('',(-0.32,-5.750000000000001,0.0));
#608=DIRECTION('',(0.0,-1.0,0.0));
#609=DIRECTION('',(1.0,0.0,0.0));
#610=AXIS2_PLACEMENT_3D('',#607,#608,#609);
#611=PLANE('',#610);
#612=ORIENTED_EDGE('',*,*,#350,.F.);
#613=ORIENTED_EDGE('',*,*,#555,.F.);
#614=ORIENTED_EDGE('',*,*,#594,.F.);
#615=ORIENTED_EDGE('',*,*,#204,.F.);
#616=EDGE_LOOP('',(#612,#613,#614,#615));
#617=FACE_OUTER_BOUND('',#616,.T.);
#618=ADVANCED_FACE('',(#617),#611,.T.);
#619=CARTESIAN_POINT('',(0.16,5.675000000000001,0.565));
#620=DIRECTION('',(0.0,0.707106781186547,0.707106781186548));
#621=DIRECTION('',(1.0,0.0,0.0));
#622=AXIS2_PLACEMENT_3D('',#619,#620,#621);
#623=PLANE('',#622);
#624=ORIENTED_EDGE('',*,*,#138,.F.);
#625=CARTESIAN_POINT('',(-0.22,5.600000000000001,0.64));
#626=DIRECTION('',(1.0,0.0,0.0));
#627=VECTOR('',#626,0.44);
#628=LINE('',#625,#627);
#629=EDGE_CURVE('',#124,#422,#628,.T.);
#630=ORIENTED_EDGE('',*,*,#629,.T.);
#631=ORIENTED_EDGE('',*,*,#428,.F.);
#632=ORIENTED_EDGE('',*,*,#508,.F.);
#633=CARTESIAN_POINT('',(0.17,5.750000000000001,0.49));
#634=DIRECTION('',(-1.0,0.0,0.0));
#635=VECTOR('',#634,0.34);
#636=LINE('',#633,#635);
#637=EDGE_CURVE('',#497,#246,#636,.T.);
#638=ORIENTED_EDGE('',*,*,#637,.T.);
#639=ORIENTED_EDGE('',*,*,#251,.F.);
#640=EDGE_LOOP('',(#624,#630,#631,#632,#638,#639));
#641=FACE_OUTER_BOUND('',#640,.T.);
#642=ADVANCED_FACE('',(#641),#623,.T.);
#643=CARTESIAN_POINT('',(0.32,5.750000000000001,0.0));
#644=DIRECTION('',(0.0,1.0,0.0));
#645=DIRECTION('',(-1.0,0.0,0.0));
#646=AXIS2_PLACEMENT_3D('',#643,#644,#645);
#647=PLANE('',#646);
#648=ORIENTED_EDGE('',*,*,#393,.F.);
#649=ORIENTED_EDGE('',*,*,#259,.F.);
#650=ORIENTED_EDGE('',*,*,#637,.F.);
#651=ORIENTED_EDGE('',*,*,#502,.F.);
#652=EDGE_LOOP('',(#648,#649,#650,#651));
#653=FACE_OUTER_BOUND('',#652,.T.);
#654=ADVANCED_FACE('',(#653),#647,.T.);
#655=CARTESIAN_POINT('',(0.0,0.0,0.64));
#656=DIRECTION('',(0.0,0.0,1.0));
#657=DIRECTION('',(1.0,0.0,0.0));
#658=AXIS2_PLACEMENT_3D('',#655,#656,#657);
#659=PLANE('',#658);
#660=ORIENTED_EDGE('',*,*,#129,.F.);
#661=ORIENTED_EDGE('',*,*,#602,.F.);
#662=ORIENTED_EDGE('',*,*,#436,.F.);
#663=ORIENTED_EDGE('',*,*,#629,.F.);
#664=EDGE_LOOP('',(#660,#661,#662,#663));
#665=FACE_OUTER_BOUND('',#664,.T.);
#666=ADVANCED_FACE('',(#665),#659,.T.);
#667=CLOSED_SHELL('',(#166,#214,#238,#279,#314,#355,#379,#413,#473,#512,#536,#568,#582,#606,#618,#642,#654,#666));
#668=MANIFOLD_SOLID_BREP('\X2\04220432043504400434043E0435\X0\ \X2\04420435043B043E\X0\1',#667);
#669=COLOUR_RGB('\X2\FFFDFFFDFFFDFFFDFFFDFFFD\X0\ \X2\FFFD\X0\ \X2\FFFDFFFDFFFDFFFDFFFDFFFDFFFDFFFDFFFDFFFDFFFDFFFDFFFDFFFD\X0\',0.796000003814697,0.603999972343445,0.231000006198883);
#670=FILL_AREA_STYLE_COLOUR('\X2\FFFDFFFDFFFDFFFDFFFDFFFD\X0\ \X2\FFFD\X0\ \X2\FFFDFFFDFFFDFFFDFFFDFFFDFFFDFFFDFFFDFFFDFFFDFFFDFFFDFFFD\X0\',#669);
#671=FILL_AREA_STYLE('\X2\FFFDFFFDFFFDFFFDFFFDFFFD\X0\ \X2\FFFD\X0\ \X2\FFFDFFFDFFFDFFFDFFFDFFFDFFFDFFFDFFFDFFFDFFFDFFFDFFFDFFFD\X0\',(#670));
#672=SURFACE_STYLE_FILL_AREA(#671);
#673=SURFACE_SIDE_STYLE('\X2\FFFDFFFDFFFDFFFDFFFDFFFD\X0\ \X2\FFFD\X0\ \X2\FFFDFFFDFFFDFFFDFFFDFFFDFFFDFFFDFFFDFFFDFFFDFFFDFFFDFFFD\X0\',(#672));
#674=SURFACE_STYLE_USAGE(.BOTH.,#673);
#675=PRESENTATION_STYLE_ASSIGNMENT((#674));
#676=STYLED_ITEM('',(#675),#668);
#677=MECHANICAL_DESIGN_GEOMETRIC_PRESENTATION_REPRESENTATION('',(#676,#1134),#36);
#678=ADVANCED_BREP_SHAPE_REPRESENTATION('ABSR',(#668),#75);
#679=SHAPE_REPRESENTATION_RELATIONSHIP('SRR','None',#678,#80);
#680=AXIS2_PLACEMENT_3D('',#681,#682,#683);
#681=CARTESIAN_POINT('',(-6.162976E-032,2.749999999999996,-0.319999999999999));
#682=DIRECTION('',(3.081488E-033,-4.379058E-047,0.999999999999999));
#683=DIRECTION('',(1.0,-1.110223E-016,1.342109E-017));
#684=NEXT_ASSEMBLY_USAGE_OCCURRENCE('pin_direct:1','pin_direct:1','pin_direct:1',#12,#51,'pin_direct:1');
#685=PRODUCT_DEFINITION_SHAPE('pin_direct:1','pin_direct:1',#684);
#686=ITEM_DEFINED_TRANSFORMATION('pin_direct:1','pin_direct:1',#76,#680);
#690=(REPRESENTATION_RELATIONSHIP('pin_direct:1','pin_direct:1',#80,#41)REPRESENTATION_RELATIONSHIP_WITH_TRANSFORMATION(#686)SHAPE_REPRESENTATION_RELATIONSHIP());
#691=CONTEXT_DEPENDENT_SHAPE_REPRESENTATION(#690,#685);
#692=APPLICATION_CONTEXT('automotive design');
#693=APPLICATION_PROTOCOL_DEFINITION('International Standard','automotive_design',2001,#692);
#694=PRODUCT_CONTEXT('',#692,'mechanical');
#695=PRODUCT('body','body',$,(#694));
#696=PRODUCT_RELATED_PRODUCT_CATEGORY('part',$,(#695));
#697=PRODUCT_DEFINITION_FORMATION('',$,#695);
#698=PRODUCT_DEFINITION_CONTEXT('part definition',#692,'design');
#699=PRODUCT_DEFINITION('',$,#697,#698);
#705=(NAMED_UNIT(*)PLANE_ANGLE_UNIT()SI_UNIT($,.RADIAN.));
#706=DIMENSIONAL_EXPONENTS(0.0,0.0,0.0,0.0,0.0,0.0,0.0);
#707=PLANE_ANGLE_MEASURE_WITH_UNIT(PLANE_ANGLE_MEASURE(0.0174532925),#705);
#711=(CONVERSION_BASED_UNIT('DEGREE',#707)NAMED_UNIT(#706)PLANE_ANGLE_UNIT());
#715=(NAMED_UNIT(*)SI_UNIT($,.STERADIAN.)SOLID_ANGLE_UNIT());
#719=(LENGTH_UNIT()NAMED_UNIT(*)SI_UNIT(.MILLI.,.METRE.));
#721=UNCERTAINTY_MEASURE_WITH_UNIT(LENGTH_MEASURE(0.01),#719,'DISTANCE_ACCURACY_VALUE','');
#723=(GEOMETRIC_REPRESENTATION_CONTEXT(3)GLOBAL_UNCERTAINTY_ASSIGNED_CONTEXT((#721))GLOBAL_UNIT_ASSIGNED_CONTEXT((#711,#715,#719))REPRESENTATION_CONTEXT('None','None'));
#724=AXIS2_PLACEMENT_3D('',#725,#726,#727);
#725=CARTESIAN_POINT('',(0.0,0.0,0.0));
#726=DIRECTION('',(0.0,0.0,1.0));
#727=DIRECTION('',(1.0,0.0,0.0));
#728=SHAPE_REPRESENTATION('',(#724),#723);
#729=PRODUCT_DEFINITION_SHAPE('','',#699);
#730=SHAPE_DEFINITION_REPRESENTATION(#729,#728);
#736=(NAMED_UNIT(*)PLANE_ANGLE_UNIT()SI_UNIT($,.RADIAN.));
#737=DIMENSIONAL_EXPONENTS(0.0,0.0,0.0,0.0,0.0,0.0,0.0);
#738=PLANE_ANGLE_MEASURE_WITH_UNIT(PLANE_ANGLE_MEASURE(0.0174532925),#736);
#742=(CONVERSION_BASED_UNIT('DEGREE',#738)NAMED_UNIT(#737)PLANE_ANGLE_UNIT());
#746=(NAMED_UNIT(*)SI_UNIT($,.STERADIAN.)SOLID_ANGLE_UNIT());
#750=(LENGTH_UNIT()NAMED_UNIT(*)SI_UNIT(.MILLI.,.METRE.));
#752=UNCERTAINTY_MEASURE_WITH_UNIT(LENGTH_MEASURE(0.000001),#750,'DISTANCE_ACCURACY_VALUE','');
#754=(GEOMETRIC_REPRESENTATION_CONTEXT(3)GLOBAL_UNCERTAINTY_ASSIGNED_CONTEXT((#752))GLOBAL_UNIT_ASSIGNED_CONTEXT((#742,#746,#750))REPRESENTATION_CONTEXT('','3D'));
#755=CARTESIAN_POINT('',(1.0,0.0,-1.0));
#756=DIRECTION('',(0.0,1.0,0.0));
#757=DIRECTION('',(-1.0,0.0,0.0));
#758=AXIS2_PLACEMENT_3D('',#755,#756,#757);
#759=CONICAL_SURFACE('',#758,0.05,29.999999999999996);
#760=CARTESIAN_POINT('',(1.043911649915626,0.0,-0.976088350084374));
#761=VERTEX_POINT('',#760);
#762=CARTESIAN_POINT('',(0.976088350084374,0.0,-1.043911649915626));
#763=VERTEX_POINT('',#762);
#764=CARTESIAN_POINT('',(1.0,0.0,-1.0));
#765=DIRECTION('',(0.0,1.0,0.0));
#766=DIRECTION('',(-1.0,0.0,0.0));
#767=AXIS2_PLACEMENT_3D('',#764,#765,#766);
#768=CIRCLE('',#767,0.05);
#769=EDGE_CURVE('',#761,#763,#768,.T.);
#770=ORIENTED_EDGE('',*,*,#769,.F.);
#771=CARTESIAN_POINT('',(1.0,0.0,-1.0));
#772=DIRECTION('',(0.0,1.0,0.0));
#773=DIRECTION('',(-1.0,0.0,0.0));
#774=AXIS2_PLACEMENT_3D('',#771,#772,#773);
#775=CIRCLE('',#774,0.05);
#776=EDGE_CURVE('',#763,#761,#775,.T.);
#777=ORIENTED_EDGE('',*,*,#776,.F.);
#778=EDGE_LOOP('',(#770,#777));
#779=FACE_OUTER_BOUND('',#778,.T.);
#780=ADVANCED_FACE('',(#779),#759,.T.);
#781=CARTESIAN_POINT('',(1.0,0.0,-1.0));
#782=DIRECTION('',(0.0,1.0,0.0));
#783=DIRECTION('',(0.0,0.0,1.0));
#784=AXIS2_PLACEMENT_3D('',#781,#782,#783);
#785=PLANE('',#784);
#786=CARTESIAN_POINT('',(1.043911649915627,0.0,-0.976088350084374));
#787=DIRECTION('',(-0.707106781186548,0.0,-0.707106781186548));
#788=VECTOR('',#787,0.095916630466254);
#789=LINE('',#786,#788);
#790=EDGE_CURVE('',#761,#763,#789,.T.);
#791=ORIENTED_EDGE('',*,*,#790,.F.);
#792=ORIENTED_EDGE('',*,*,#769,.T.);
#793=EDGE_LOOP('',(#791,#792));
#794=FACE_OUTER_BOUND('',#793,.T.);
#795=ADVANCED_FACE('',(#794),#785,.T.);
#796=CARTESIAN_POINT('',(0.0,0.0,-1.0));
#797=DIRECTION('',(0.0,1.0,0.0));
#798=DIRECTION('',(-1.0,0.0,0.0));
#799=AXIS2_PLACEMENT_3D('',#796,#797,#798);
#800=CONICAL_SURFACE('',#799,0.05,29.999999999999996);
#801=CARTESIAN_POINT('',(0.05,0.0,-1.0));
#802=VERTEX_POINT('',#801);
#803=CARTESIAN_POINT('',(0.0,0.0,-1.0));
#804=DIRECTION('',(0.0,1.0,0.0));
#805=DIRECTION('',(-1.0,0.0,0.0));
#806=AXIS2_PLACEMENT_3D('',#803,#804,#805);
#807=CIRCLE('',#806,0.05);
#808=EDGE_CURVE('',#802,#802,#807,.T.);
#809=ORIENTED_EDGE('',*,*,#808,.F.);
#810=EDGE_LOOP('',(#809));
#811=FACE_OUTER_BOUND('',#810,.T.);
#812=ADVANCED_FACE('',(#811),#800,.T.);
#813=CARTESIAN_POINT('',(1.0,0.0,0.0));
#814=DIRECTION('',(0.0,1.0,0.0));
#815=DIRECTION('',(-1.0,0.0,0.0));
#816=AXIS2_PLACEMENT_3D('',#813,#814,#815);
#817=CONICAL_SURFACE('',#816,0.05,29.999999999999996);
#818=CARTESIAN_POINT('',(1.05,0.0,6.123234E-018));
#819=VERTEX_POINT('',#818);
#820=CARTESIAN_POINT('',(1.0,0.0,0.0));
#821=DIRECTION('',(0.0,1.0,0.0));
#822=DIRECTION('',(-1.0,0.0,0.0));
#823=AXIS2_PLACEMENT_3D('',#820,#821,#822);
#824=CIRCLE('',#823,0.05);
#825=EDGE_CURVE('',#819,#819,#824,.T.);
#826=ORIENTED_EDGE('',*,*,#825,.F.);
#827=EDGE_LOOP('',(#826));
#828=FACE_OUTER_BOUND('',#827,.T.);
#829=ADVANCED_FACE('',(#828),#817,.T.);
#830=CARTESIAN_POINT('',(-1.02,0.0,-1.0));
#831=DIRECTION('',(-0.707106781186548,0.0,-0.707106781186548));
#832=DIRECTION('',(-0.707106781186548,0.0,0.707106781186548));
#833=AXIS2_PLACEMENT_3D('',#830,#831,#832);
#834=PLANE('',#833);
#835=CARTESIAN_POINT('',(-1.27,2.5,-0.75));
#836=VERTEX_POINT('',#835);
#837=CARTESIAN_POINT('',(-0.77,2.5,-1.25));
#838=VERTEX_POINT('',#837);
#839=CARTESIAN_POINT('',(-1.27,2.5,-0.75));
#840=DIRECTION('',(0.707106781186548,0.0,-0.707106781186548));
#841=VECTOR('',#840,0.707106781186547);
#842=LINE('',#839,#841);
#843=EDGE_CURVE('',#836,#838,#842,.T.);
#844=ORIENTED_EDGE('',*,*,#843,.T.);
#845=CARTESIAN_POINT('',(-0.77,0.0,-1.25));
#846=VERTEX_POINT('',#845);
#847=CARTESIAN_POINT('',(-0.77,2.5,-1.25));
#848=DIRECTION('',(0.0,-1.0,0.0));
#849=VECTOR('',#848,2.5);
#850=LINE('',#847,#849);
#851=EDGE_CURVE('',#838,#846,#850,.T.);
#852=ORIENTED_EDGE('',*,*,#851,.T.);
#853=CARTESIAN_POINT('',(-1.27,0.0,-0.75));
#854=VERTEX_POINT('',#853);
#855=CARTESIAN_POINT('',(-0.77,0.0,-1.25));
#856=DIRECTION('',(-0.707106781186548,0.0,0.707106781186548));
#857=VECTOR('',#856,0.707106781186547);
#858=LINE('',#855,#857);
#859=EDGE_CURVE('',#846,#854,#858,.T.);
#860=ORIENTED_EDGE('',*,*,#859,.T.);
#861=CARTESIAN_POINT('',(-1.27,0.0,-0.75));
#862=DIRECTION('',(0.0,1.0,0.0));
#863=VECTOR('',#862,2.5);
#864=LINE('',#861,#863);
#865=EDGE_CURVE('',#854,#836,#864,.T.);
#866=ORIENTED_EDGE('',*,*,#865,.T.);
#867=EDGE_LOOP('',(#844,#852,#860,#866));
#868=FACE_OUTER_BOUND('',#867,.T.);
#869=ADVANCED_FACE('',(#868),#834,.T.);
#870=CARTESIAN_POINT('',(0.0,0.0,0.0));
#871=DIRECTION('',(0.0,1.0,0.0));
#872=DIRECTION('',(0.0,0.0,1.0));
#873=AXIS2_PLACEMENT_3D('',#870,#871,#872);
#874=PLANE('',#873);
#875=ORIENTED_EDGE('',*,*,#776,.T.);
#876=CARTESIAN_POINT('',(1.27,0.0,-0.75));
#877=VERTEX_POINT('',#876);
#878=CARTESIAN_POINT('',(1.27,0.0,-0.75));
#879=DIRECTION('',(-0.707106781186547,0.0,-0.707106781186548));
#880=VECTOR('',#879,0.319737210983878);
#881=LINE('',#878,#880);
#882=EDGE_CURVE('',#877,#761,#881,.T.);
#883=ORIENTED_EDGE('',*,*,#882,.F.);
#884=CARTESIAN_POINT('',(1.27,0.0,0.75));
#885=VERTEX_POINT('',#884);
#886=CARTESIAN_POINT('',(1.27,0.0,-0.75));
#887=DIRECTION('',(0.0,0.0,1.0));
#888=VECTOR('',#887,1.5);
#889=LINE('',#886,#888);
#890=EDGE_CURVE('',#877,#885,#889,.T.);
#891=ORIENTED_EDGE('',*,*,#890,.T.);
#892=CARTESIAN_POINT('',(0.77,0.0,1.25));
#893=VERTEX_POINT('',#892);
#894=CARTESIAN_POINT('',(0.77,0.0,1.25));
#895=DIRECTION('',(0.707106781186548,0.0,-0.707106781186548));
#896=VECTOR('',#895,0.707106781186547);
#897=LINE('',#894,#896);
#898=EDGE_CURVE('',#893,#885,#897,.T.);
#899=ORIENTED_EDGE('',*,*,#898,.F.);
#900=CARTESIAN_POINT('',(-0.77,0.0,1.25));
#901=VERTEX_POINT('',#900);
#902=CARTESIAN_POINT('',(0.77,0.0,1.25));
#903=DIRECTION('',(-1.0,0.0,0.0));
#904=VECTOR('',#903,1.54);
#905=LINE('',#902,#904);
#906=EDGE_CURVE('',#893,#901,#905,.T.);
#907=ORIENTED_EDGE('',*,*,#906,.T.);
#908=CARTESIAN_POINT('',(-1.27,0.0,0.75));
#909=VERTEX_POINT('',#908);
#910=CARTESIAN_POINT('',(-1.27,0.0,0.75));
#911=DIRECTION('',(0.707106781186548,0.0,0.707106781186548));
#912=VECTOR('',#911,0.707106781186547);
#913=LINE('',#910,#912);
#914=EDGE_CURVE('',#909,#901,#913,.T.);
#915=ORIENTED_EDGE('',*,*,#914,.F.);
#916=CARTESIAN_POINT('',(-1.27,0.0,0.75));
#917=DIRECTION('',(0.0,0.0,-1.0));
#918=VECTOR('',#917,1.5);
#919=LINE('',#916,#918);
#920=EDGE_CURVE('',#909,#854,#919,.T.);
#921=ORIENTED_EDGE('',*,*,#920,.T.);
#922=ORIENTED_EDGE('',*,*,#859,.F.);
#923=CARTESIAN_POINT('',(0.77,0.0,-1.25));
#924=VERTEX_POINT('',#923);
#925=CARTESIAN_POINT('',(-0.77,0.0,-1.25));
#926=DIRECTION('',(1.0,0.0,0.0));
#927=VECTOR('',#926,1.54);
#928=LINE('',#925,#927);
#929=EDGE_CURVE('',#846,#924,#928,.T.);
#930=ORIENTED_EDGE('',*,*,#929,.T.);
#931=CARTESIAN_POINT('',(0.976088350084374,0.0,-1.043911649915627));
#932=DIRECTION('',(-0.707106781186548,0.0,-0.707106781186547));
#933=VECTOR('',#932,0.291452939736416);
#934=LINE('',#931,#933);
#935=EDGE_CURVE('',#763,#924,#934,.T.);
#936=ORIENTED_EDGE('',*,*,#935,.F.);
#937=EDGE_LOOP('',(#875,#883,#891,#899,#907,#915,#921,#922,#930,#936));
#938=FACE_OUTER_BOUND('',#937,.T.);
#939=ORIENTED_EDGE('',*,*,#808,.T.);
#940=EDGE_LOOP('',(#939));
#941=FACE_BOUND('',#940,.T.);
#942=ORIENTED_EDGE('',*,*,#825,.T.);
#943=EDGE_LOOP('',(#942));
#944=FACE_BOUND('',#943,.T.);
#945=ADVANCED_FACE('',(#938,#941,#944),#874,.F.);
#946=CARTESIAN_POINT('',(1.27,0.0,-1.25));
#947=DIRECTION('',(0.0,0.0,-1.0));
#948=DIRECTION('',(-1.0,0.0,0.0));
#949=AXIS2_PLACEMENT_3D('',#946,#947,#948);
#950=PLANE('',#949);
#951=ORIENTED_EDGE('',*,*,#851,.F.);
#952=CARTESIAN_POINT('',(0.77,2.5,-1.25));
#953=VERTEX_POINT('',#952);
#954=CARTESIAN_POINT('',(0.77,2.5,-1.25));
#955=DIRECTION('',(-1.0,0.0,0.0));
#956=VECTOR('',#955,1.54);
#957=LINE('',#954,#956);
#958=EDGE_CURVE('',#953,#838,#957,.T.);
#959=ORIENTED_EDGE('',*,*,#958,.F.);
#960=CARTESIAN_POINT('',(0.77,0.0,-1.25));
#961=DIRECTION('',(0.0,1.0,0.0));
#962=VECTOR('',#961,2.5);
#963=LINE('',#960,#962);
#964=EDGE_CURVE('',#924,#953,#963,.T.);
#965=ORIENTED_EDGE('',*,*,#964,.F.);
#966=ORIENTED_EDGE('',*,*,#929,.F.);
#967=EDGE_LOOP('',(#951,#959,#965,#966));
#968=FACE_OUTER_BOUND('',#967,.T.);
#969=ADVANCED_FACE('',(#968),#950,.T.);
#970=CARTESIAN_POINT('',(1.02,0.0,-1.0));
#971=DIRECTION('',(0.707106781186548,0.0,-0.707106781186548));
#972=DIRECTION('',(-0.707106781186548,0.0,-0.707106781186548));
#973=AXIS2_PLACEMENT_3D('',#970,#971,#972);
#974=PLANE('',#973);
#975=CARTESIAN_POINT('',(1.27,2.5,-0.75));
#976=VERTEX_POINT('',#975);
#977=CARTESIAN_POINT('',(0.77,2.5,-1.25));
#978=DIRECTION('',(0.707106781186548,0.0,0.707106781186548));
#979=VECTOR('',#978,0.707106781186547);
#980=LINE('',#977,#979);
#981=EDGE_CURVE('',#953,#976,#980,.T.);
#982=ORIENTED_EDGE('',*,*,#981,.T.);
#983=CARTESIAN_POINT('',(1.27,2.5,-0.75));
#984=DIRECTION('',(0.0,-1.0,0.0));
#985=VECTOR('',#984,2.5);
#986=LINE('',#983,#985);
#987=EDGE_CURVE('',#976,#877,#986,.T.);
#988=ORIENTED_EDGE('',*,*,#987,.T.);
#989=ORIENTED_EDGE('',*,*,#882,.T.);
#990=ORIENTED_EDGE('',*,*,#790,.T.);
#991=ORIENTED_EDGE('',*,*,#935,.T.);
#992=ORIENTED_EDGE('',*,*,#964,.T.);
#993=EDGE_LOOP('',(#982,#988,#989,#990,#991,#992));
#994=FACE_OUTER_BOUND('',#993,.T.);
#995=ADVANCED_FACE('',(#994),#974,.T.);
#996=CARTESIAN_POINT('',(-1.02,0.0,1.0));
#997=DIRECTION('',(-0.707106781186548,0.0,0.707106781186548));
#998=DIRECTION('',(0.707106781186548,0.0,0.707106781186548));
#999=AXIS2_PLACEMENT_3D('',#996,#997,#998);
#1000=PLANE('',#999);
#1001=CARTESIAN_POINT('',(-0.77,2.5,1.25));
#1002=VERTEX_POINT('',#1001);
#1003=CARTESIAN_POINT('',(-1.27,2.5,0.75));
#1004=VERTEX_POINT('',#1003);
#1005=CARTESIAN_POINT('',(-0.77,2.5,1.25));
#1006=DIRECTION('',(-0.707106781186548,0.0,-0.707106781186548));
#1007=VECTOR('',#1006,0.707106781186547);
#1008=LINE('',#1005,#1007);
#1009=EDGE_CURVE('',#1002,#1004,#1008,.T.);
#1010=ORIENTED_EDGE('',*,*,#1009,.T.);
#1011=CARTESIAN_POINT('',(-1.27,2.5,0.75));
#1012=DIRECTION('',(0.0,-1.0,0.0));
#1013=VECTOR('',#1012,2.5);
#1014=LINE('',#1011,#1013);
#1015=EDGE_CURVE('',#1004,#909,#1014,.T.);
#1016=ORIENTED_EDGE('',*,*,#1015,.T.);
#1017=ORIENTED_EDGE('',*,*,#914,.T.);
#1018=CARTESIAN_POINT('',(-0.77,0.0,1.25));
#1019=DIRECTION('',(0.0,1.0,0.0));
#1020=VECTOR('',#1019,2.5);
#1021=LINE('',#1018,#1020);
#1022=EDGE_CURVE('',#901,#1002,#1021,.T.);
#1023=ORIENTED_EDGE('',*,*,#1022,.T.);
#1024=EDGE_LOOP('',(#1010,#1016,#1017,#1023));
#1025=FACE_OUTER_BOUND('',#1024,.T.);
#1026=ADVANCED_FACE('',(#1025),#1000,.T.);
#1027=CARTESIAN_POINT('',(-1.27,0.0,1.25));
#1028=DIRECTION('',(0.0,0.0,1.0));
#1029=DIRECTION('',(1.0,0.0,0.0));
#1030=AXIS2_PLACEMENT_3D('',#1027,#1028,#1029);
#1031=PLANE('',#1030);
#1032=ORIENTED_EDGE('',*,*,#1022,.F.);
#1033=ORIENTED_EDGE('',*,*,#906,.F.);
#1034=CARTESIAN_POINT('',(0.77,2.5,1.25));
#1035=VERTEX_POINT('',#1034);
#1036=CARTESIAN_POINT('',(0.77,2.5,1.25));
#1037=DIRECTION('',(0.0,-1.0,0.0));
#1038=VECTOR('',#1037,2.5);
#1039=LINE('',#1036,#1038);
#1040=EDGE_CURVE('',#1035,#893,#1039,.T.);
#1041=ORIENTED_EDGE('',*,*,#1040,.F.);
#1042=CARTESIAN_POINT('',(-0.77,2.5,1.25));
#1043=DIRECTION('',(1.0,0.0,0.0));
#1044=VECTOR('',#1043,1.54);
#1045=LINE('',#1042,#1044);
#1046=EDGE_CURVE('',#1002,#1035,#1045,.T.);
#1047=ORIENTED_EDGE('',*,*,#1046,.F.);
#1048=EDGE_LOOP('',(#1032,#1033,#1041,#1047));
#1049=FACE_OUTER_BOUND('',#1048,.T.);
#1050=ADVANCED_FACE('',(#1049),#1031,.T.);
#1051=CARTESIAN_POINT('',(1.02,0.0,1.0));
#1052=DIRECTION('',(0.707106781186548,0.0,0.707106781186548));
#1053=DIRECTION('',(0.707106781186548,0.0,-0.707106781186548));
#1054=AXIS2_PLACEMENT_3D('',#1051,#1052,#1053);
#1055=PLANE('',#1054);
#1056=CARTESIAN_POINT('',(1.27,2.5,0.75));
#1057=VERTEX_POINT('',#1056);
#1058=CARTESIAN_POINT('',(1.27,2.5,0.75));
#1059=DIRECTION('',(-0.707106781186548,0.0,0.707106781186548));
#1060=VECTOR('',#1059,0.707106781186547);
#1061=LINE('',#1058,#1060);
#1062=EDGE_CURVE('',#1057,#1035,#1061,.T.);
#1063=ORIENTED_EDGE('',*,*,#1062,.T.);
#1064=ORIENTED_EDGE('',*,*,#1040,.T.);
#1065=ORIENTED_EDGE('',*,*,#898,.T.);
#1066=CARTESIAN_POINT('',(1.27,0.0,0.75));
#1067=DIRECTION('',(0.0,1.0,0.0));
#1068=VECTOR('',#1067,2.5);
#1069=LINE('',#1066,#1068);
#1070=EDGE_CURVE('',#885,#1057,#1069,.T.);
#1071=ORIENTED_EDGE('',*,*,#1070,.T.);
#1072=EDGE_LOOP('',(#1063,#1064,#1065,#1071));
#1073=FACE_OUTER_BOUND('',#1072,.T.);
#1074=ADVANCED_FACE('',(#1073),#1055,.T.);
#1075=CARTESIAN_POINT('',(-1.27,0.0,-1.25));
#1076=DIRECTION('',(-1.0,0.0,0.0));
#1077=DIRECTION('',(0.0,0.0,1.0));
#1078=AXIS2_PLACEMENT_3D('',#1075,#1076,#1077);
#1079=PLANE('',#1078);
#1080=ORIENTED_EDGE('',*,*,#865,.F.);
#1081=ORIENTED_EDGE('',*,*,#920,.F.);
#1082=ORIENTED_EDGE('',*,*,#1015,.F.);
#1083=CARTESIAN_POINT('',(-1.27,2.5,-0.75));
#1084=DIRECTION('',(0.0,0.0,1.0));
#1085=VECTOR('',#1084,1.5);
#1086=LINE('',#1083,#1085);
#1087=EDGE_CURVE('',#836,#1004,#1086,.T.);
#1088=ORIENTED_EDGE('',*,*,#1087,.F.);
#1089=EDGE_LOOP('',(#1080,#1081,#1082,#1088));
#1090=FACE_OUTER_BOUND('',#1089,.T.);
#1091=ADVANCED_FACE('',(#1090),#1079,.T.);
#1092=CARTESIAN_POINT('',(1.27,0.0,1.25));
#1093=DIRECTION('',(1.0,0.0,0.0));
#1094=DIRECTION('',(0.0,0.0,-1.0));
#1095=AXIS2_PLACEMENT_3D('',#1092,#1093,#1094);
#1096=PLANE('',#1095);
#1097=ORIENTED_EDGE('',*,*,#987,.F.);
#1098=CARTESIAN_POINT('',(1.27,2.5,0.75));
#1099=DIRECTION('',(0.0,0.0,-1.0));
#1100=VECTOR('',#1099,1.5);
#1101=LINE('',#1098,#1100);
#1102=EDGE_CURVE('',#1057,#976,#1101,.T.);
#1103=ORIENTED_EDGE('',*,*,#1102,.F.);
#1104=ORIENTED_EDGE('',*,*,#1070,.F.);
#1105=ORIENTED_EDGE('',*,*,#890,.F.);
#1106=EDGE_LOOP('',(#1097,#1103,#1104,#1105));
#1107=FACE_OUTER_BOUND('',#1106,.T.);
#1108=ADVANCED_FACE('',(#1107),#1096,.T.);
#1109=CARTESIAN_POINT('',(0.0,2.5,0.0));
#1110=DIRECTION('',(0.0,1.0,0.0));
#1111=DIRECTION('',(0.0,0.0,1.0));
#1112=AXIS2_PLACEMENT_3D('',#1109,#1110,#1111);
#1113=PLANE('',#1112);
#1114=ORIENTED_EDGE('',*,*,#843,.F.);
#1115=ORIENTED_EDGE('',*,*,#1087,.T.);
#1116=ORIENTED_EDGE('',*,*,#1009,.F.);
#1117=ORIENTED_EDGE('',*,*,#1046,.T.);
#1118=ORIENTED_EDGE('',*,*,#1062,.F.);
#1119=ORIENTED_EDGE('',*,*,#1102,.T.);
#1120=ORIENTED_EDGE('',*,*,#981,.F.);
#1121=ORIENTED_EDGE('',*,*,#958,.T.);
#1122=EDGE_LOOP('',(#1114,#1115,#1116,#1117,#1118,#1119,#1120,#1121));
#1123=FACE_OUTER_BOUND('',#1122,.T.);
#1124=ADVANCED_FACE('',(#1123),#1113,.T.);
#1125=CLOSED_SHELL('',(#780,#795,#812,#829,#869,#945,#969,#995,#1026,#1050,#1074,#1091,#1108,#1124));
#1126=MANIFOLD_SOLID_BREP('\X2\04220432043504400434043E0435\X0\ \X2\04420435043B043E\X0\1',#1125);
#1127=COLOUR_RGB('\X2\FFFDFFFDFFFDFFFDFFFDFFFDFFFD\X0\ \X2\FFFD\X0\ \X2\FFFDFFFDFFFDFFFDFFFDFFFD\X0\',0.019999999552965,0.019999999552965,0.019999999552965);
#1128=FILL_AREA_STYLE_COLOUR('\X2\FFFDFFFDFFFDFFFDFFFDFFFDFFFD\X0\ \X2\FFFD\X0\ \X2\FFFDFFFDFFFDFFFDFFFDFFFD\X0\',#1127);
#1129=FILL_AREA_STYLE('\X2\FFFDFFFDFFFDFFFDFFFDFFFDFFFD\X0\ \X2\FFFD\X0\ \X2\FFFDFFFDFFFDFFFDFFFDFFFD\X0\',(#1128));
#1130=SURFACE_STYLE_FILL_AREA(#1129);
#1131=SURFACE_SIDE_STYLE('\X2\FFFDFFFDFFFDFFFDFFFDFFFDFFFD\X0\ \X2\FFFD\X0\ \X2\FFFDFFFDFFFDFFFDFFFDFFFD\X0\',(#1130));
#1132=SURFACE_STYLE_USAGE(.BOTH.,#1131);
#1133=PRESENTATION_STYLE_ASSIGNMENT((#1132));
#1134=STYLED_ITEM('',(#1133),#1126);
#1135=ADVANCED_BREP_SHAPE_REPRESENTATION('ABSR',(#1126),#723);
#1136=SHAPE_REPRESENTATION_RELATIONSHIP('SRR','None',#1135,#728);
#1137=AXIS2_PLACEMENT_3D('',#1138,#1139,#1140);
#1138=CARTESIAN_POINT('',(0.0,0.0,0.0));
#1139=DIRECTION('',(0.0,0.0,1.0));
#1140=DIRECTION('',(1.0,0.0,0.0));
#1141=NEXT_ASSEMBLY_USAGE_OCCURRENCE('body:1','body:1','body:1',#12,#699,'body:1');
#1142=PRODUCT_DEFINITION_SHAPE('body:1','body:1',#1141);
#1143=ITEM_DEFINED_TRANSFORMATION('body:1','body:1',#724,#1137);
#1147=(REPRESENTATION_RELATIONSHIP('body:1','body:1',#728,#41)REPRESENTATION_RELATIONSHIP_WITH_TRANSFORMATION(#1143)SHAPE_REPRESENTATION_RELATIONSHIP());
#1148=CONTEXT_DEPENDENT_SHAPE_REPRESENTATION(#1147,#1142);
#1149=AXIS2_PLACEMENT_3D('',#1150,#1151,#1152);
#1150=CARTESIAN_POINT('',(0.0,0.0,-2.54));
#1151=DIRECTION('',(0.0,0.0,1.0));
#1152=DIRECTION('',(1.0,0.0,0.0));
#1153=NEXT_ASSEMBLY_USAGE_OCCURRENCE('body:2','body:2','body:2',#12,#699,'body:2');
#1154=PRODUCT_DEFINITION_SHAPE('body:2','body:2',#1153);
#1155=ITEM_DEFINED_TRANSFORMATION('body:2','body:2',#724,#1149);
#1159=(REPRESENTATION_RELATIONSHIP('body:2','body:2',#728,#41)REPRESENTATION_RELATIONSHIP_WITH_TRANSFORMATION(#1155)SHAPE_REPRESENTATION_RELATIONSHIP());
#1160=CONTEXT_DEPENDENT_SHAPE_REPRESENTATION(#1159,#1154);
#1161=AXIS2_PLACEMENT_3D('',#1162,#1163,#1164);
#1162=CARTESIAN_POINT('',(-6.938894E-017,2.749999999999989,-2.86));
#1163=DIRECTION('',(0.0,0.0,1.0));
#1164=DIRECTION('',(1.0,-9.860761E-032,0.0));
#1165=NEXT_ASSEMBLY_USAGE_OCCURRENCE('pin_direct:2','pin_direct:2','pin_direct:2',#12,#51,'pin_direct:2');
#1166=PRODUCT_DEFINITION_SHAPE('pin_direct:2','pin_direct:2',#1165);
#1167=ITEM_DEFINED_TRANSFORMATION('pin_direct:2','pin_direct:2',#76,#1161);
#1171=(REPRESENTATION_RELATIONSHIP('pin_direct:2','pin_direct:2',#80,#41)REPRESENTATION_RELATIONSHIP_WITH_TRANSFORMATION(#1167)SHAPE_REPRESENTATION_RELATIONSHIP());
#1172=CONTEXT_DEPENDENT_SHAPE_REPRESENTATION(#1171,#1166);
#1173=AXIS2_PLACEMENT_3D('',#1174,#1175,#1176);
#1174=CARTESIAN_POINT('',(-2.54,2.749999999999996,-0.319999999999999));
#1175=DIRECTION('',(3.081488E-033,-4.379058E-047,0.999999999999999));
#1176=DIRECTION('',(1.0,-1.110223E-016,1.342109E-017));
#1177=NEXT_ASSEMBLY_USAGE_OCCURRENCE('pin_direct:3','pin_direct:3','pin_direct:3',#12,#51,'pin_direct:3');
#1178=PRODUCT_DEFINITION_SHAPE('pin_direct:3','pin_direct:3',#1177);
#1179=ITEM_DEFINED_TRANSFORMATION('pin_direct:3','pin_direct:3',#76,#1173);
#1183=(REPRESENTATION_RELATIONSHIP('pin_direct:3','pin_direct:3',#80,#41)REPRESENTATION_RELATIONSHIP_WITH_TRANSFORMATION(#1179)SHAPE_REPRESENTATION_RELATIONSHIP());
#1184=CONTEXT_DEPENDENT_SHAPE_REPRESENTATION(#1183,#1178);
#1185=AXIS2_PLACEMENT_3D('',#1186,#1187,#1188);
#1186=CARTESIAN_POINT('',(-2.54,0.0,0.0));
#1187=DIRECTION('',(0.0,0.0,1.0));
#1188=DIRECTION('',(1.0,0.0,0.0));
#1189=NEXT_ASSEMBLY_USAGE_OCCURRENCE('body:3','body:3','body:3',#12,#699,'body:3');
#1190=PRODUCT_DEFINITION_SHAPE('body:3','body:3',#1189);
#1191=ITEM_DEFINED_TRANSFORMATION('body:3','body:3',#724,#1185);
#1195=(REPRESENTATION_RELATIONSHIP('body:3','body:3',#728,#41)REPRESENTATION_RELATIONSHIP_WITH_TRANSFORMATION(#1191)SHAPE_REPRESENTATION_RELATIONSHIP());
#1196=CONTEXT_DEPENDENT_SHAPE_REPRESENTATION(#1195,#1190);
#1197=AXIS2_PLACEMENT_3D('',#1198,#1199,#1200);
#1198=CARTESIAN_POINT('',(-2.54,0.0,-2.54));
#1199=DIRECTION('',(0.0,0.0,1.0));
#1200=DIRECTION('',(1.0,0.0,0.0));
#1201=NEXT_ASSEMBLY_USAGE_OCCURRENCE('body:4','body:4','body:4',#12,#699,'body:4');
#1202=PRODUCT_DEFINITION_SHAPE('body:4','body:4',#1201);
#1203=ITEM_DEFINED_TRANSFORMATION('body:4','body:4',#724,#1197);
#1207=(REPRESENTATION_RELATIONSHIP('body:4','body:4',#728,#41)REPRESENTATION_RELATIONSHIP_WITH_TRANSFORMATION(#1203)SHAPE_REPRESENTATION_RELATIONSHIP());
#1208=CONTEXT_DEPENDENT_SHAPE_REPRESENTATION(#1207,#1202);
#1209=AXIS2_PLACEMENT_3D('',#1210,#1211,#1212);
#1210=CARTESIAN_POINT('',(-2.54,2.749999999999989,-2.86));
#1211=DIRECTION('',(0.0,0.0,1.0));
#1212=DIRECTION('',(1.0,-9.860761E-032,0.0));
#1213=NEXT_ASSEMBLY_USAGE_OCCURRENCE('pin_direct:4','pin_direct:4','pin_direct:4',#12,#51,'pin_direct:4');
#1214=PRODUCT_DEFINITION_SHAPE('pin_direct:4','pin_direct:4',#1213);
#1215=ITEM_DEFINED_TRANSFORMATION('pin_direct:4','pin_direct:4',#76,#1209);
#1219=(REPRESENTATION_RELATIONSHIP('pin_direct:4','pin_direct:4',#80,#41)REPRESENTATION_RELATIONSHIP_WITH_TRANSFORMATION(#1215)SHAPE_REPRESENTATION_RELATIONSHIP());
#1220=CONTEXT_DEPENDENT_SHAPE_REPRESENTATION(#1219,#1214);
#1221=AXIS2_PLACEMENT_3D('',#1222,#1223,#1224);
#1222=CARTESIAN_POINT('',(-5.08,2.749999999999996,-0.319999999999999));
#1223=DIRECTION('',(3.081488E-033,-4.379058E-047,0.999999999999999));
#1224=DIRECTION('',(1.0,-1.110223E-016,1.342109E-017));
#1225=NEXT_ASSEMBLY_USAGE_OCCURRENCE('pin_direct:5','pin_direct:5','pin_direct:5',#12,#51,'pin_direct:5');
#1226=PRODUCT_DEFINITION_SHAPE('pin_direct:5','pin_direct:5',#1225);
#1227=ITEM_DEFINED_TRANSFORMATION('pin_direct:5','pin_direct:5',#76,#1221);
#1231=(REPRESENTATION_RELATIONSHIP('pin_direct:5','pin_direct:5',#80,#41)REPRESENTATION_RELATIONSHIP_WITH_TRANSFORMATION(#1227)SHAPE_REPRESENTATION_RELATIONSHIP());
#1232=CONTEXT_DEPENDENT_SHAPE_REPRESENTATION(#1231,#1226);
#1233=AXIS2_PLACEMENT_3D('',#1234,#1235,#1236);
#1234=CARTESIAN_POINT('',(-5.08,0.0,0.0));
#1235=DIRECTION('',(0.0,0.0,1.0));
#1236=DIRECTION('',(1.0,0.0,0.0));
#1237=NEXT_ASSEMBLY_USAGE_OCCURRENCE('body:5','body:5','body:5',#12,#699,'body:5');
#1238=PRODUCT_DEFINITION_SHAPE('body:5','body:5',#1237);
#1239=ITEM_DEFINED_TRANSFORMATION('body:5','body:5',#724,#1233);
#1243=(REPRESENTATION_RELATIONSHIP('body:5','body:5',#728,#41)REPRESENTATION_RELATIONSHIP_WITH_TRANSFORMATION(#1239)SHAPE_REPRESENTATION_RELATIONSHIP());
#1244=CONTEXT_DEPENDENT_SHAPE_REPRESENTATION(#1243,#1238);
#1245=AXIS2_PLACEMENT_3D('',#1246,#1247,#1248);
#1246=CARTESIAN_POINT('',(-5.08,0.0,-2.54));
#1247=DIRECTION('',(0.0,0.0,1.0));
#1248=DIRECTION('',(1.0,0.0,0.0));
#1249=NEXT_ASSEMBLY_USAGE_OCCURRENCE('body:6','body:6','body:6',#12,#699,'body:6');
#1250=PRODUCT_DEFINITION_SHAPE('body:6','body:6',#1249);
#1251=ITEM_DEFINED_TRANSFORMATION('body:6','body:6',#724,#1245);
#1255=(REPRESENTATION_RELATIONSHIP('body:6','body:6',#728,#41)REPRESENTATION_RELATIONSHIP_WITH_TRANSFORMATION(#1251)SHAPE_REPRESENTATION_RELATIONSHIP());
#1256=CONTEXT_DEPENDENT_SHAPE_REPRESENTATION(#1255,#1250);
#1257=AXIS2_PLACEMENT_3D('',#1258,#1259,#1260);
#1258=CARTESIAN_POINT('',(-5.08,2.749999999999989,-2.86));
#1259=DIRECTION('',(0.0,0.0,1.0));
#1260=DIRECTION('',(1.0,-9.860761E-032,0.0));
#1261=NEXT_ASSEMBLY_USAGE_OCCURRENCE('pin_direct:6','pin_direct:6','pin_direct:6',#12,#51,'pin_direct:6');
#1262=PRODUCT_DEFINITION_SHAPE('pin_direct:6','pin_direct:6',#1261);
#1263=ITEM_DEFINED_TRANSFORMATION('pin_direct:6','pin_direct:6',#76,#1257);
#1267=(REPRESENTATION_RELATIONSHIP('pin_direct:6','pin_direct:6',#80,#41)REPRESENTATION_RELATIONSHIP_WITH_TRANSFORMATION(#1263)SHAPE_REPRESENTATION_RELATIONSHIP());
#1268=CONTEXT_DEPENDENT_SHAPE_REPRESENTATION(#1267,#1262);
#1269=AXIS2_PLACEMENT_3D('',#1270,#1271,#1272);
#1270=CARTESIAN_POINT('',(-7.620000000000001,2.749999999999996,-0.319999999999999));
#1271=DIRECTION('',(3.081488E-033,-4.379058E-047,0.999999999999999));
#1272=DIRECTION('',(1.0,-1.110223E-016,1.342109E-017));
#1273=NEXT_ASSEMBLY_USAGE_OCCURRENCE('pin_direct:7','pin_direct:7','pin_direct:7',#12,#51,'pin_direct:7');
#1274=PRODUCT_DEFINITION_SHAPE('pin_direct:7','pin_direct:7',#1273);
#1275=ITEM_DEFINED_TRANSFORMATION('pin_direct:7','pin_direct:7',#76,#1269);
#1279=(REPRESENTATION_RELATIONSHIP('pin_direct:7','pin_direct:7',#80,#41)REPRESENTATION_RELATIONSHIP_WITH_TRANSFORMATION(#1275)SHAPE_REPRESENTATION_RELATIONSHIP());
#1280=CONTEXT_DEPENDENT_SHAPE_REPRESENTATION(#1279,#1274);
#1281=AXIS2_PLACEMENT_3D('',#1282,#1283,#1284);
#1282=CARTESIAN_POINT('',(-7.62,0.0,0.0));
#1283=DIRECTION('',(0.0,0.0,1.0));
#1284=DIRECTION('',(1.0,0.0,0.0));
#1285=NEXT_ASSEMBLY_USAGE_OCCURRENCE('body:7','body:7','body:7',#12,#699,'body:7');
#1286=PRODUCT_DEFINITION_SHAPE('body:7','body:7',#1285);
#1287=ITEM_DEFINED_TRANSFORMATION('body:7','body:7',#724,#1281);
#1291=(REPRESENTATION_RELATIONSHIP('body:7','body:7',#728,#41)REPRESENTATION_RELATIONSHIP_WITH_TRANSFORMATION(#1287)SHAPE_REPRESENTATION_RELATIONSHIP());
#1292=CONTEXT_DEPENDENT_SHAPE_REPRESENTATION(#1291,#1286);
#1293=AXIS2_PLACEMENT_3D('',#1294,#1295,#1296);
#1294=CARTESIAN_POINT('',(-7.62,0.0,-2.54));
#1295=DIRECTION('',(0.0,0.0,1.0));
#1296=DIRECTION('',(1.0,0.0,0.0));
#1297=NEXT_ASSEMBLY_USAGE_OCCURRENCE('body:8','body:8','body:8',#12,#699,'body:8');
#1298=PRODUCT_DEFINITION_SHAPE('body:8','body:8',#1297);
#1299=ITEM_DEFINED_TRANSFORMATION('body:8','body:8',#724,#1293);
#1303=(REPRESENTATION_RELATIONSHIP('body:8','body:8',#728,#41)REPRESENTATION_RELATIONSHIP_WITH_TRANSFORMATION(#1299)SHAPE_REPRESENTATION_RELATIONSHIP());
#1304=CONTEXT_DEPENDENT_SHAPE_REPRESENTATION(#1303,#1298);
#1305=AXIS2_PLACEMENT_3D('',#1306,#1307,#1308);
#1306=CARTESIAN_POINT('',(-7.62,2.749999999999989,-2.86));
#1307=DIRECTION('',(0.0,0.0,1.0));
#1308=DIRECTION('',(1.0,-9.860761E-032,0.0));
#1309=NEXT_ASSEMBLY_USAGE_OCCURRENCE('pin_direct:8','pin_direct:8','pin_direct:8',#12,#51,'pin_direct:8');
#1310=PRODUCT_DEFINITION_SHAPE('pin_direct:8','pin_direct:8',#1309);
#1311=ITEM_DEFINED_TRANSFORMATION('pin_direct:8','pin_direct:8',#76,#1305);
#1315=(REPRESENTATION_RELATIONSHIP('pin_direct:8','pin_direct:8',#80,#41)REPRESENTATION_RELATIONSHIP_WITH_TRANSFORMATION(#1311)SHAPE_REPRESENTATION_RELATIONSHIP());
#1316=CONTEXT_DEPENDENT_SHAPE_REPRESENTATION(#1315,#1310);
#1317=AXIS2_PLACEMENT_3D('',#1318,#1319,#1320);
#1318=CARTESIAN_POINT('',(-10.16,2.749999999999996,-0.319999999999999));
#1319=DIRECTION('',(3.081488E-033,-4.379058E-047,0.999999999999999));
#1320=DIRECTION('',(1.0,-1.110223E-016,1.342109E-017));
#1321=NEXT_ASSEMBLY_USAGE_OCCURRENCE('pin_direct:9','pin_direct:9','pin_direct:9',#12,#51,'pin_direct:9');
#1322=PRODUCT_DEFINITION_SHAPE('pin_direct:9','pin_direct:9',#1321);
#1323=ITEM_DEFINED_TRANSFORMATION('pin_direct:9','pin_direct:9',#76,#1317);
#1327=(REPRESENTATION_RELATIONSHIP('pin_direct:9','pin_direct:9',#80,#41)REPRESENTATION_RELATIONSHIP_WITH_TRANSFORMATION(#1323)SHAPE_REPRESENTATION_RELATIONSHIP());
#1328=CONTEXT_DEPENDENT_SHAPE_REPRESENTATION(#1327,#1322);
#1329=AXIS2_PLACEMENT_3D('',#1330,#1331,#1332);
#1330=CARTESIAN_POINT('',(-10.16,0.0,0.0));
#1331=DIRECTION('',(0.0,0.0,1.0));
#1332=DIRECTION('',(1.0,0.0,0.0));
#1333=NEXT_ASSEMBLY_USAGE_OCCURRENCE('body:9','body:9','body:9',#12,#699,'body:9');
#1334=PRODUCT_DEFINITION_SHAPE('body:9','body:9',#1333);
#1335=ITEM_DEFINED_TRANSFORMATION('body:9','body:9',#724,#1329);
#1339=(REPRESENTATION_RELATIONSHIP('body:9','body:9',#728,#41)REPRESENTATION_RELATIONSHIP_WITH_TRANSFORMATION(#1335)SHAPE_REPRESENTATION_RELATIONSHIP());
#1340=CONTEXT_DEPENDENT_SHAPE_REPRESENTATION(#1339,#1334);
#1341=AXIS2_PLACEMENT_3D('',#1342,#1343,#1344);
#1342=CARTESIAN_POINT('',(-10.16,0.0,-2.54));
#1343=DIRECTION('',(0.0,0.0,1.0));
#1344=DIRECTION('',(1.0,0.0,0.0));
#1345=NEXT_ASSEMBLY_USAGE_OCCURRENCE('body:10','body:10','body:10',#12,#699,'body:10');
#1346=PRODUCT_DEFINITION_SHAPE('body:10','body:10',#1345);
#1347=ITEM_DEFINED_TRANSFORMATION('body:10','body:10',#724,#1341);
#1351=(REPRESENTATION_RELATIONSHIP('body:10','body:10',#728,#41)REPRESENTATION_RELATIONSHIP_WITH_TRANSFORMATION(#1347)SHAPE_REPRESENTATION_RELATIONSHIP());
#1352=CONTEXT_DEPENDENT_SHAPE_REPRESENTATION(#1351,#1346);
#1353=AXIS2_PLACEMENT_3D('',#1354,#1355,#1356);
#1354=CARTESIAN_POINT('',(-10.16,2.749999999999989,-2.86));
#1355=DIRECTION('',(0.0,0.0,1.0));
#1356=DIRECTION('',(1.0,-9.860761E-032,0.0));
#1357=NEXT_ASSEMBLY_USAGE_OCCURRENCE('pin_direct:10','pin_direct:10','pin_direct:10',#12,#51,'pin_direct:10');
#1358=PRODUCT_DEFINITION_SHAPE('pin_direct:10','pin_direct:10',#1357);
#1359=ITEM_DEFINED_TRANSFORMATION('pin_direct:10','pin_direct:10',#76,#1353);
#1363=(REPRESENTATION_RELATIONSHIP('pin_direct:10','pin_direct:10',#80,#41)REPRESENTATION_RELATIONSHIP_WITH_TRANSFORMATION(#1359)SHAPE_REPRESENTATION_RELATIONSHIP());
#1364=CONTEXT_DEPENDENT_SHAPE_REPRESENTATION(#1363,#1358);
#1365=AXIS2_PLACEMENT_3D('',#1366,#1367,#1368);
#1366=CARTESIAN_POINT('',(-12.699999999999999,2.749999999999996,-0.319999999999999));
#1367=DIRECTION('',(3.081488E-033,-4.379058E-047,0.999999999999999));
#1368=DIRECTION('',(1.0,-1.110223E-016,1.342109E-017));
#1369=NEXT_ASSEMBLY_USAGE_OCCURRENCE('pin_direct:11','pin_direct:11','pin_direct:11',#12,#51,'pin_direct:11');
#1370=PRODUCT_DEFINITION_SHAPE('pin_direct:11','pin_direct:11',#1369);
#1371=ITEM_DEFINED_TRANSFORMATION('pin_direct:11','pin_direct:11',#76,#1365);
#1375=(REPRESENTATION_RELATIONSHIP('pin_direct:11','pin_direct:11',#80,#41)REPRESENTATION_RELATIONSHIP_WITH_TRANSFORMATION(#1371)SHAPE_REPRESENTATION_RELATIONSHIP());
#1376=CONTEXT_DEPENDENT_SHAPE_REPRESENTATION(#1375,#1370);
#1377=AXIS2_PLACEMENT_3D('',#1378,#1379,#1380);
#1378=CARTESIAN_POINT('',(-12.699999999999999,0.0,0.0));
#1379=DIRECTION('',(0.0,0.0,1.0));
#1380=DIRECTION('',(1.0,0.0,0.0));
#1381=NEXT_ASSEMBLY_USAGE_OCCURRENCE('body:11','body:11','body:11',#12,#699,'body:11');
#1382=PRODUCT_DEFINITION_SHAPE('body:11','body:11',#1381);
#1383=ITEM_DEFINED_TRANSFORMATION('body:11','body:11',#724,#1377);
#1387=(REPRESENTATION_RELATIONSHIP('body:11','body:11',#728,#41)REPRESENTATION_RELATIONSHIP_WITH_TRANSFORMATION(#1383)SHAPE_REPRESENTATION_RELATIONSHIP());
#1388=CONTEXT_DEPENDENT_SHAPE_REPRESENTATION(#1387,#1382);
#1389=AXIS2_PLACEMENT_3D('',#1390,#1391,#1392);
#1390=CARTESIAN_POINT('',(-12.699999999999999,0.0,-2.54));
#1391=DIRECTION('',(0.0,0.0,1.0));
#1392=DIRECTION('',(1.0,0.0,0.0));
#1393=NEXT_ASSEMBLY_USAGE_OCCURRENCE('body:12','body:12','body:12',#12,#699,'body:12');
#1394=PRODUCT_DEFINITION_SHAPE('body:12','body:12',#1393);
#1395=ITEM_DEFINED_TRANSFORMATION('body:12','body:12',#724,#1389);
#1399=(REPRESENTATION_RELATIONSHIP('body:12','body:12',#728,#41)REPRESENTATION_RELATIONSHIP_WITH_TRANSFORMATION(#1395)SHAPE_REPRESENTATION_RELATIONSHIP());
#1400=CONTEXT_DEPENDENT_SHAPE_REPRESENTATION(#1399,#1394);
#1401=AXIS2_PLACEMENT_3D('',#1402,#1403,#1404);
#1402=CARTESIAN_POINT('',(-12.699999999999999,2.749999999999989,-2.86));
#1403=DIRECTION('',(0.0,0.0,1.0));
#1404=DIRECTION('',(1.0,-9.860761E-032,0.0));
#1405=NEXT_ASSEMBLY_USAGE_OCCURRENCE('pin_direct:12','pin_direct:12','pin_direct:12',#12,#51,'pin_direct:12');
#1406=PRODUCT_DEFINITION_SHAPE('pin_direct:12','pin_direct:12',#1405);
#1407=ITEM_DEFINED_TRANSFORMATION('pin_direct:12','pin_direct:12',#76,#1401);
#1411=(REPRESENTATION_RELATIONSHIP('pin_direct:12','pin_direct:12',#80,#41)REPRESENTATION_RELATIONSHIP_WITH_TRANSFORMATION(#1407)SHAPE_REPRESENTATION_RELATIONSHIP());
#1412=CONTEXT_DEPENDENT_SHAPE_REPRESENTATION(#1411,#1406);
#1413=AXIS2_PLACEMENT_3D('',#1414,#1415,#1416);
#1414=CARTESIAN_POINT('',(-15.240000000000002,2.749999999999996,-0.319999999999999));
#1415=DIRECTION('',(3.081488E-033,-4.379058E-047,0.999999999999999));
#1416=DIRECTION('',(1.0,-1.110223E-016,1.342109E-017));
#1417=NEXT_ASSEMBLY_USAGE_OCCURRENCE('pin_direct:13','pin_direct:13','pin_direct:13',#12,#51,'pin_direct:13');
#1418=PRODUCT_DEFINITION_SHAPE('pin_direct:13','pin_direct:13',#1417);
#1419=ITEM_DEFINED_TRANSFORMATION('pin_direct:13','pin_direct:13',#76,#1413);
#1423=(REPRESENTATION_RELATIONSHIP('pin_direct:13','pin_direct:13',#80,#41)REPRESENTATION_RELATIONSHIP_WITH_TRANSFORMATION(#1419)SHAPE_REPRESENTATION_RELATIONSHIP());
#1424=CONTEXT_DEPENDENT_SHAPE_REPRESENTATION(#1423,#1418);
#1425=AXIS2_PLACEMENT_3D('',#1426,#1427,#1428);
#1426=CARTESIAN_POINT('',(-15.24,0.0,0.0));
#1427=DIRECTION('',(0.0,0.0,1.0));
#1428=DIRECTION('',(1.0,0.0,0.0));
#1429=NEXT_ASSEMBLY_USAGE_OCCURRENCE('body:13','body:13','body:13',#12,#699,'body:13');
#1430=PRODUCT_DEFINITION_SHAPE('body:13','body:13',#1429);
#1431=ITEM_DEFINED_TRANSFORMATION('body:13','body:13',#724,#1425);
#1435=(REPRESENTATION_RELATIONSHIP('body:13','body:13',#728,#41)REPRESENTATION_RELATIONSHIP_WITH_TRANSFORMATION(#1431)SHAPE_REPRESENTATION_RELATIONSHIP());
#1436=CONTEXT_DEPENDENT_SHAPE_REPRESENTATION(#1435,#1430);
#1437=AXIS2_PLACEMENT_3D('',#1438,#1439,#1440);
#1438=CARTESIAN_POINT('',(-15.24,0.0,-2.54));
#1439=DIRECTION('',(0.0,0.0,1.0));
#1440=DIRECTION('',(1.0,0.0,0.0));
#1441=NEXT_ASSEMBLY_USAGE_OCCURRENCE('body:14','body:14','body:14',#12,#699,'body:14');
#1442=PRODUCT_DEFINITION_SHAPE('body:14','body:14',#1441);
#1443=ITEM_DEFINED_TRANSFORMATION('body:14','body:14',#724,#1437);
#1447=(REPRESENTATION_RELATIONSHIP('body:14','body:14',#728,#41)REPRESENTATION_RELATIONSHIP_WITH_TRANSFORMATION(#1443)SHAPE_REPRESENTATION_RELATIONSHIP());
#1448=CONTEXT_DEPENDENT_SHAPE_REPRESENTATION(#1447,#1442);
#1449=AXIS2_PLACEMENT_3D('',#1450,#1451,#1452);
#1450=CARTESIAN_POINT('',(-15.24,2.749999999999989,-2.86));
#1451=DIRECTION('',(0.0,0.0,1.0));
#1452=DIRECTION('',(1.0,-9.860761E-032,0.0));
#1453=NEXT_ASSEMBLY_USAGE_OCCURRENCE('pin_direct:14','pin_direct:14','pin_direct:14',#12,#51,'pin_direct:14');
#1454=PRODUCT_DEFINITION_SHAPE('pin_direct:14','pin_direct:14',#1453);
#1455=ITEM_DEFINED_TRANSFORMATION('pin_direct:14','pin_direct:14',#76,#1449);
#1459=(REPRESENTATION_RELATIONSHIP('pin_direct:14','pin_direct:14',#80,#41)REPRESENTATION_RELATIONSHIP_WITH_TRANSFORMATION(#1455)SHAPE_REPRESENTATION_RELATIONSHIP());
#1460=CONTEXT_DEPENDENT_SHAPE_REPRESENTATION(#1459,#1454);
#1461=AXIS2_PLACEMENT_3D('',#1462,#1463,#1464);
#1462=CARTESIAN_POINT('',(-17.780000000000001,2.749999999999996,-0.319999999999999));
#1463=DIRECTION('',(3.081488E-033,-4.379058E-047,0.999999999999999));
#1464=DIRECTION('',(1.0,-1.110223E-016,1.342109E-017));
#1465=NEXT_ASSEMBLY_USAGE_OCCURRENCE('pin_direct:15','pin_direct:15','pin_direct:15',#12,#51,'pin_direct:15');
#1466=PRODUCT_DEFINITION_SHAPE('pin_direct:15','pin_direct:15',#1465);
#1467=ITEM_DEFINED_TRANSFORMATION('pin_direct:15','pin_direct:15',#76,#1461);
#1471=(REPRESENTATION_RELATIONSHIP('pin_direct:15','pin_direct:15',#80,#41)REPRESENTATION_RELATIONSHIP_WITH_TRANSFORMATION(#1467)SHAPE_REPRESENTATION_RELATIONSHIP());
#1472=CONTEXT_DEPENDENT_SHAPE_REPRESENTATION(#1471,#1466);
#1473=AXIS2_PLACEMENT_3D('',#1474,#1475,#1476);
#1474=CARTESIAN_POINT('',(-17.780000000000001,0.0,0.0));
#1475=DIRECTION('',(0.0,0.0,1.0));
#1476=DIRECTION('',(1.0,0.0,0.0));
#1477=NEXT_ASSEMBLY_USAGE_OCCURRENCE('body:15','body:15','body:15',#12,#699,'body:15');
#1478=PRODUCT_DEFINITION_SHAPE('body:15','body:15',#1477);
#1479=ITEM_DEFINED_TRANSFORMATION('body:15','body:15',#724,#1473);
#1483=(REPRESENTATION_RELATIONSHIP('body:15','body:15',#728,#41)REPRESENTATION_RELATIONSHIP_WITH_TRANSFORMATION(#1479)SHAPE_REPRESENTATION_RELATIONSHIP());
#1484=CONTEXT_DEPENDENT_SHAPE_REPRESENTATION(#1483,#1478);
#1485=AXIS2_PLACEMENT_3D('',#1486,#1487,#1488);
#1486=CARTESIAN_POINT('',(-17.780000000000001,0.0,-2.54));
#1487=DIRECTION('',(0.0,0.0,1.0));
#1488=DIRECTION('',(1.0,0.0,0.0));
#1489=NEXT_ASSEMBLY_USAGE_OCCURRENCE('body:16','body:16','body:16',#12,#699,'body:16');
#1490=PRODUCT_DEFINITION_SHAPE('body:16','body:16',#1489);
#1491=ITEM_DEFINED_TRANSFORMATION('body:16','body:16',#724,#1485);
#1495=(REPRESENTATION_RELATIONSHIP('body:16','body:16',#728,#41)REPRESENTATION_RELATIONSHIP_WITH_TRANSFORMATION(#1491)SHAPE_REPRESENTATION_RELATIONSHIP());
#1496=CONTEXT_DEPENDENT_SHAPE_REPRESENTATION(#1495,#1490);
#1497=AXIS2_PLACEMENT_3D('',#1498,#1499,#1500);
#1498=CARTESIAN_POINT('',(-17.780000000000001,2.749999999999989,-2.86));
#1499=DIRECTION('',(0.0,0.0,1.0));
#1500=DIRECTION('',(1.0,-9.860761E-032,0.0));
#1501=NEXT_ASSEMBLY_USAGE_OCCURRENCE('pin_direct:16','pin_direct:16','pin_direct:16',#12,#51,'pin_direct:16');
#1502=PRODUCT_DEFINITION_SHAPE('pin_direct:16','pin_direct:16',#1501);
#1503=ITEM_DEFINED_TRANSFORMATION('pin_direct:16','pin_direct:16',#76,#1497);
#1507=(REPRESENTATION_RELATIONSHIP('pin_direct:16','pin_direct:16',#80,#41)REPRESENTATION_RELATIONSHIP_WITH_TRANSFORMATION(#1503)SHAPE_REPRESENTATION_RELATIONSHIP());
#1508=CONTEXT_DEPENDENT_SHAPE_REPRESENTATION(#1507,#1502);
#1509=AXIS2_PLACEMENT_3D('',#1510,#1511,#1512);
#1510=CARTESIAN_POINT('',(-20.32,2.749999999999996,-0.319999999999999));
#1511=DIRECTION('',(3.081488E-033,-4.379058E-047,0.999999999999999));
#1512=DIRECTION('',(1.0,-1.110223E-016,1.342109E-017));
#1513=NEXT_ASSEMBLY_USAGE_OCCURRENCE('pin_direct:17','pin_direct:17','pin_direct:17',#12,#51,'pin_direct:17');
#1514=PRODUCT_DEFINITION_SHAPE('pin_direct:17','pin_direct:17',#1513);
#1515=ITEM_DEFINED_TRANSFORMATION('pin_direct:17','pin_direct:17',#76,#1509);
#1519=(REPRESENTATION_RELATIONSHIP('pin_direct:17','pin_direct:17',#80,#41)REPRESENTATION_RELATIONSHIP_WITH_TRANSFORMATION(#1515)SHAPE_REPRESENTATION_RELATIONSHIP());
#1520=CONTEXT_DEPENDENT_SHAPE_REPRESENTATION(#1519,#1514);
#1521=AXIS2_PLACEMENT_3D('',#1522,#1523,#1524);
#1522=CARTESIAN_POINT('',(-20.32,0.0,0.0));
#1523=DIRECTION('',(0.0,0.0,1.0));
#1524=DIRECTION('',(1.0,0.0,0.0));
#1525=NEXT_ASSEMBLY_USAGE_OCCURRENCE('body:17','body:17','body:17',#12,#699,'body:17');
#1526=PRODUCT_DEFINITION_SHAPE('body:17','body:17',#1525);
#1527=ITEM_DEFINED_TRANSFORMATION('body:17','body:17',#724,#1521);
#1531=(REPRESENTATION_RELATIONSHIP('body:17','body:17',#728,#41)REPRESENTATION_RELATIONSHIP_WITH_TRANSFORMATION(#1527)SHAPE_REPRESENTATION_RELATIONSHIP());
#1532=CONTEXT_DEPENDENT_SHAPE_REPRESENTATION(#1531,#1526);
#1533=AXIS2_PLACEMENT_3D('',#1534,#1535,#1536);
#1534=CARTESIAN_POINT('',(-20.32,0.0,-2.54));
#1535=DIRECTION('',(0.0,0.0,1.0));
#1536=DIRECTION('',(1.0,0.0,0.0));
#1537=NEXT_ASSEMBLY_USAGE_OCCURRENCE('body:18','body:18','body:18',#12,#699,'body:18');
#1538=PRODUCT_DEFINITION_SHAPE('body:18','body:18',#1537);
#1539=ITEM_DEFINED_TRANSFORMATION('body:18','body:18',#724,#1533);
#1543=(REPRESENTATION_RELATIONSHIP('body:18','body:18',#728,#41)REPRESENTATION_RELATIONSHIP_WITH_TRANSFORMATION(#1539)SHAPE_REPRESENTATION_RELATIONSHIP());
#1544=CONTEXT_DEPENDENT_SHAPE_REPRESENTATION(#1543,#1538);
#1545=AXIS2_PLACEMENT_3D('',#1546,#1547,#1548);
#1546=CARTESIAN_POINT('',(-20.32,2.749999999999989,-2.86));
#1547=DIRECTION('',(0.0,0.0,1.0));
#1548=DIRECTION('',(1.0,-9.860761E-032,0.0));
#1549=NEXT_ASSEMBLY_USAGE_OCCURRENCE('pin_direct:18','pin_direct:18','pin_direct:18',#12,#51,'pin_direct:18');
#1550=PRODUCT_DEFINITION_SHAPE('pin_direct:18','pin_direct:18',#1549);
#1551=ITEM_DEFINED_TRANSFORMATION('pin_direct:18','pin_direct:18',#76,#1545);
#1555=(REPRESENTATION_RELATIONSHIP('pin_direct:18','pin_direct:18',#80,#41)REPRESENTATION_RELATIONSHIP_WITH_TRANSFORMATION(#1551)SHAPE_REPRESENTATION_RELATIONSHIP());
#1556=CONTEXT_DEPENDENT_SHAPE_REPRESENTATION(#1555,#1550);
#1557=AXIS2_PLACEMENT_3D('',#1558,#1559,#1560);
#1558=CARTESIAN_POINT('',(-22.859999999999999,2.749999999999996,-0.319999999999999));
#1559=DIRECTION('',(3.081488E-033,-4.379058E-047,0.999999999999999));
#1560=DIRECTION('',(1.0,-1.110223E-016,1.342109E-017));
#1561=NEXT_ASSEMBLY_USAGE_OCCURRENCE('pin_direct:19','pin_direct:19','pin_direct:19',#12,#51,'pin_direct:19');
#1562=PRODUCT_DEFINITION_SHAPE('pin_direct:19','pin_direct:19',#1561);
#1563=ITEM_DEFINED_TRANSFORMATION('pin_direct:19','pin_direct:19',#76,#1557);
#1567=(REPRESENTATION_RELATIONSHIP('pin_direct:19','pin_direct:19',#80,#41)REPRESENTATION_RELATIONSHIP_WITH_TRANSFORMATION(#1563)SHAPE_REPRESENTATION_RELATIONSHIP());
#1568=CONTEXT_DEPENDENT_SHAPE_REPRESENTATION(#1567,#1562);
#1569=AXIS2_PLACEMENT_3D('',#1570,#1571,#1572);
#1570=CARTESIAN_POINT('',(-22.859999999999999,0.0,0.0));
#1571=DIRECTION('',(0.0,0.0,1.0));
#1572=DIRECTION('',(1.0,0.0,0.0));
#1573=NEXT_ASSEMBLY_USAGE_OCCURRENCE('body:19','body:19','body:19',#12,#699,'body:19');
#1574=PRODUCT_DEFINITION_SHAPE('body:19','body:19',#1573);
#1575=ITEM_DEFINED_TRANSFORMATION('body:19','body:19',#724,#1569);
#1579=(REPRESENTATION_RELATIONSHIP('body:19','body:19',#728,#41)REPRESENTATION_RELATIONSHIP_WITH_TRANSFORMATION(#1575)SHAPE_REPRESENTATION_RELATIONSHIP());
#1580=CONTEXT_DEPENDENT_SHAPE_REPRESENTATION(#1579,#1574);
#1581=AXIS2_PLACEMENT_3D('',#1582,#1583,#1584);
#1582=CARTESIAN_POINT('',(-22.859999999999999,0.0,-2.54));
#1583=DIRECTION('',(0.0,0.0,1.0));
#1584=DIRECTION('',(1.0,0.0,0.0));
#1585=NEXT_ASSEMBLY_USAGE_OCCURRENCE('body:20','body:20','body:20',#12,#699,'body:20');
#1586=PRODUCT_DEFINITION_SHAPE('body:20','body:20',#1585);
#1587=ITEM_DEFINED_TRANSFORMATION('body:20','body:20',#724,#1581);
#1591=(REPRESENTATION_RELATIONSHIP('body:20','body:20',#728,#41)REPRESENTATION_RELATIONSHIP_WITH_TRANSFORMATION(#1587)SHAPE_REPRESENTATION_RELATIONSHIP());
#1592=CONTEXT_DEPENDENT_SHAPE_REPRESENTATION(#1591,#1586);
#1593=AXIS2_PLACEMENT_3D('',#1594,#1595,#1596);
#1594=CARTESIAN_POINT('',(-22.859999999999999,2.749999999999989,-2.86));
#1595=DIRECTION('',(0.0,0.0,1.0));
#1596=DIRECTION('',(1.0,-9.860761E-032,0.0));
#1597=NEXT_ASSEMBLY_USAGE_OCCURRENCE('pin_direct:20','pin_direct:20','pin_direct:20',#12,#51,'pin_direct:20');
#1598=PRODUCT_DEFINITION_SHAPE('pin_direct:20','pin_direct:20',#1597);
#1599=ITEM_DEFINED_TRANSFORMATION('pin_direct:20','pin_direct:20',#76,#1593);
#1603=(REPRESENTATION_RELATIONSHIP('pin_direct:20','pin_direct:20',#80,#41)REPRESENTATION_RELATIONSHIP_WITH_TRANSFORMATION(#1599)SHAPE_REPRESENTATION_RELATIONSHIP());
#1604=CONTEXT_DEPENDENT_SHAPE_REPRESENTATION(#1603,#1598);
ENDSEC;
END-ISO-10303-21;
