ISO-10303-21;
HEADER;
/****************************************************************
 * Generated by software with PDElib inside                    *
 * PDElib Version v51a, created Wed 11/30/2011                  *
 * ITI Transcendata (http://www.transcendata.com/)              *
 ****************************************************************/
FILE_DESCRIPTION((''),'2;1');
FILE_NAME('D:\\Inventor models\\snubber_C\\C_22.5.stp','2017-02-17T15:22:28',('A_Perevoztchikov'),(''),'Autodesk Inventor 2013','Autodesk Inventor 2013','');
FILE_SCHEMA(('AUTOMOTIVE_DESIGN { 1 0 10303 214 1 1 1 1 }'));
ENDSEC;
DATA;
#5=APPLICATION_CONTEXT('automotive design');
#6=APPLICATION_PROTOCOL_DEFINITION('International Standard','automotive_design',2001,#5);
#7=PRODUCT_CONTEXT('',#5,'mechanical');
#8=PRODUCT('C_22','C_22',$,(#7));
#9=PRODUCT_RELATED_PRODUCT_CATEGORY('part',$,(#8));
#10=PRODUCT_DEFINITION_FORMATION('',$,#8);
#11=PRODUCT_DEFINITION_CONTEXT('part definition',#5,'design');
#12=PRODUCT_DEFINITION('',$,#10,#11);
#18=(NAMED_UNIT(*)PLANE_ANGLE_UNIT()SI_UNIT($,.RADIAN.));
#19=DIMENSIONAL_EXPONENTS(0.0,0.0,0.0,0.0,0.0,0.0,0.0);
#20=PLANE_ANGLE_MEASURE_WITH_UNIT(PLANE_ANGLE_MEASURE(0.0174532925),#18);
#24=(CONVERSION_BASED_UNIT('DEGREE',#20)NAMED_UNIT(#19)PLANE_ANGLE_UNIT());
#28=(NAMED_UNIT(*)SI_UNIT($,.STERADIAN.)SOLID_ANGLE_UNIT());
#32=(LENGTH_UNIT()NAMED_UNIT(*)SI_UNIT(.MILLI.,.METRE.));
#34=UNCERTAINTY_MEASURE_WITH_UNIT(LENGTH_MEASURE(0.01),#32,'DISTANCE_ACCURACY_VALUE','');
#36=(GEOMETRIC_REPRESENTATION_CONTEXT(3)GLOBAL_UNCERTAINTY_ASSIGNED_CONTEXT((#34))GLOBAL_UNIT_ASSIGNED_CONTEXT((#24,#28,#32))REPRESENTATION_CONTEXT('None','None'));
#37=AXIS2_PLACEMENT_3D('',#38,#39,#40);
#38=CARTESIAN_POINT('',(0.0,0.0,0.0));
#39=DIRECTION('',(0.0,0.0,1.0));
#40=DIRECTION('',(1.0,0.0,0.0));
#41=SHAPE_REPRESENTATION('',(#37,#884),#36);
#42=PRODUCT_DEFINITION_SHAPE('','',#12);
#43=SHAPE_DEFINITION_REPRESENTATION(#42,#41);
#44=APPLICATION_CONTEXT('automotive design');
#45=APPLICATION_PROTOCOL_DEFINITION('International Standard','automotive_design',2001,#44);
#46=PRODUCT_CONTEXT('',#44,'mechanical');
#47=PRODUCT('C_22','C_22',$,(#46));
#48=PRODUCT_RELATED_PRODUCT_CATEGORY('part',$,(#47));
#49=PRODUCT_DEFINITION_FORMATION('',$,#47);
#50=PRODUCT_DEFINITION_CONTEXT('part definition',#44,'design');
#51=PRODUCT_DEFINITION('',$,#49,#50);
#57=(NAMED_UNIT(*)PLANE_ANGLE_UNIT()SI_UNIT($,.RADIAN.));
#58=DIMENSIONAL_EXPONENTS(0.0,0.0,0.0,0.0,0.0,0.0,0.0);
#59=PLANE_ANGLE_MEASURE_WITH_UNIT(PLANE_ANGLE_MEASURE(0.0174532925),#57);
#63=(CONVERSION_BASED_UNIT('DEGREE',#59)NAMED_UNIT(#58)PLANE_ANGLE_UNIT());
#67=(NAMED_UNIT(*)SI_UNIT($,.STERADIAN.)SOLID_ANGLE_UNIT());
#71=(LENGTH_UNIT()NAMED_UNIT(*)SI_UNIT(.MILLI.,.METRE.));
#73=UNCERTAINTY_MEASURE_WITH_UNIT(LENGTH_MEASURE(0.01),#71,'DISTANCE_ACCURACY_VALUE','');
#75=(GEOMETRIC_REPRESENTATION_CONTEXT(3)GLOBAL_UNCERTAINTY_ASSIGNED_CONTEXT((#73))GLOBAL_UNIT_ASSIGNED_CONTEXT((#63,#67,#71))REPRESENTATION_CONTEXT('None','None'));
#76=AXIS2_PLACEMENT_3D('',#77,#78,#79);
#77=CARTESIAN_POINT('',(0.0,0.0,0.0));
#78=DIRECTION('',(0.0,0.0,1.0));
#79=DIRECTION('',(1.0,0.0,0.0));
#80=SHAPE_REPRESENTATION('',(#76),#75);
#81=PRODUCT_DEFINITION_SHAPE('','',#51);
#82=SHAPE_DEFINITION_REPRESENTATION(#81,#80);
#88=(NAMED_UNIT(*)PLANE_ANGLE_UNIT()SI_UNIT($,.RADIAN.));
#89=DIMENSIONAL_EXPONENTS(0.0,0.0,0.0,0.0,0.0,0.0,0.0);
#90=PLANE_ANGLE_MEASURE_WITH_UNIT(PLANE_ANGLE_MEASURE(0.0174532925),#88);
#94=(CONVERSION_BASED_UNIT('DEGREE',#90)NAMED_UNIT(#89)PLANE_ANGLE_UNIT());
#98=(NAMED_UNIT(*)SI_UNIT($,.STERADIAN.)SOLID_ANGLE_UNIT());
#102=(LENGTH_UNIT()NAMED_UNIT(*)SI_UNIT(.MILLI.,.METRE.));
#104=UNCERTAINTY_MEASURE_WITH_UNIT(LENGTH_MEASURE(0.000001),#102,'DISTANCE_ACCURACY_VALUE','');
#106=(GEOMETRIC_REPRESENTATION_CONTEXT(3)GLOBAL_UNCERTAINTY_ASSIGNED_CONTEXT((#104))GLOBAL_UNIT_ASSIGNED_CONTEXT((#94,#98,#102))REPRESENTATION_CONTEXT('','3D'));
#107=CARTESIAN_POINT('',(-4.999999999999998,-3.999999999999994,3.000000000000001));
#108=CARTESIAN_POINT('',(-4.999999999999998,-3.999999999999994,1.607540739937687));
#109=CARTESIAN_POINT('',(-6.063508326896289,-3.999999999999994,0.708712152522081));
#110=CARTESIAN_POINT('',(-7.12701665379258,-3.999999999999995,-0.190116434893527));
#111=CARTESIAN_POINT('',(-8.499999999999998,-3.999999999999995,0.041960108450191));
#112=CARTESIAN_POINT('',(-4.999999999999999,-0.499999999999995,3.000000000000001));
#113=CARTESIAN_POINT('',(-4.999999999999999,-0.499999999999995,1.607540739937687));
#114=CARTESIAN_POINT('',(-6.06350832689629,-1.563508326896286,0.708712152522081));
#115=CARTESIAN_POINT('',(-7.12701665379258,-2.627016653792577,-0.190116434893527));
#116=CARTESIAN_POINT('',(-8.499999999999998,-3.999999999999995,0.041960108450191));
#117=CARTESIAN_POINT('',(-8.499999999999998,-0.499999999999995,3.000000000000001));
#118=CARTESIAN_POINT('',(-8.499999999999998,-0.499999999999995,1.607540739937687));
#119=CARTESIAN_POINT('',(-8.499999999999998,-1.563508326896286,0.708712152522081));
#120=CARTESIAN_POINT('',(-8.499999999999998,-2.627016653792577,-0.190116434893527));
#121=CARTESIAN_POINT('',(-8.499999999999998,-3.999999999999995,0.041960108450191));
#122=CARTESIAN_POINT('',(-11.999999999999996,-0.499999999999996,3.000000000000001));
#123=CARTESIAN_POINT('',(-11.999999999999996,-0.499999999999996,1.607540739937687));
#124=CARTESIAN_POINT('',(-10.936491673103706,-1.563508326896287,0.708712152522081));
#125=CARTESIAN_POINT('',(-9.872983346207416,-2.627016653792577,-0.190116434893527));
#126=CARTESIAN_POINT('',(-8.499999999999998,-3.999999999999995,0.041960108450191));
#127=CARTESIAN_POINT('',(-11.999999999999998,-3.999999999999995,3.000000000000001));
#128=CARTESIAN_POINT('',(-11.999999999999998,-3.999999999999995,1.607540739937687));
#129=CARTESIAN_POINT('',(-10.936491673103706,-3.999999999999995,0.708712152522081));
#130=CARTESIAN_POINT('',(-9.872983346207418,-3.999999999999995,-0.190116434893527));
#131=CARTESIAN_POINT('',(-8.499999999999998,-3.999999999999995,0.041960108450191));
#132=CARTESIAN_POINT('',(-11.999999999999996,-7.499999999999994,3.000000000000001));
#133=CARTESIAN_POINT('',(-11.999999999999996,-7.499999999999995,1.607540739937687));
#134=CARTESIAN_POINT('',(-10.936491673103706,-6.436491673103704,0.708712152522081));
#135=CARTESIAN_POINT('',(-9.872983346207416,-5.372983346207413,-0.190116434893527));
#136=CARTESIAN_POINT('',(-8.499999999999998,-3.999999999999995,0.041960108450191));
#137=CARTESIAN_POINT('',(-8.499999999999998,-7.499999999999995,3.000000000000001));
#138=CARTESIAN_POINT('',(-8.499999999999998,-7.499999999999995,1.607540739937687));
#139=CARTESIAN_POINT('',(-8.499999999999998,-6.436491673103704,0.708712152522081));
#140=CARTESIAN_POINT('',(-8.499999999999998,-5.372983346207413,-0.190116434893527));
#141=CARTESIAN_POINT('',(-8.499999999999998,-3.999999999999995,0.041960108450191));
#142=CARTESIAN_POINT('',(-4.999999999999999,-7.499999999999994,3.000000000000001));
#143=CARTESIAN_POINT('',(-4.999999999999999,-7.499999999999995,1.607540739937687));
#144=CARTESIAN_POINT('',(-6.06350832689629,-6.436491673103704,0.708712152522081));
#145=CARTESIAN_POINT('',(-7.12701665379258,-5.372983346207413,-0.190116434893527));
#146=CARTESIAN_POINT('',(-8.499999999999998,-3.999999999999995,0.041960108450191));
#147=CARTESIAN_POINT('',(-4.999999999999998,-3.999999999999994,3.000000000000001));
#148=CARTESIAN_POINT('',(-4.999999999999998,-3.999999999999994,1.607540739937687));
#149=CARTESIAN_POINT('',(-6.063508326896289,-3.999999999999994,0.708712152522081));
#150=CARTESIAN_POINT('',(-7.12701665379258,-3.999999999999995,-0.190116434893527));
#151=CARTESIAN_POINT('',(-8.499999999999998,-3.999999999999995,0.041960108450191));
#159=(BOUNDED_SURFACE()B_SPLINE_SURFACE(2,2,((#107,#112,#117,#122,#127,#132,#137,#142,#147),(#108,#113,#118,#123,#128,#133,#138,#143,#148),(#109,#114,#119,#124,#129,#134,#139,#144,#149),(#110,#115,#120,#125,#130,#135,#140,#145,#150),(#111,#116,#121,#126,#131,#136,#141,#146,#151)),.UNSPECIFIED.,.F.,.T.,.U.)B_SPLINE_SURFACE_WITH_KNOTS((3,2,3),(3,2,2,2,3),(0.0,0.869122203007293,1.738244406014585),(0.0,1.570796326794897,3.141592653589793,4.71238898038469,6.283185307179586),.UNSPECIFIED.)GEOMETRIC_REPRESENTATION_ITEM()RATIONAL_B_SPLINE_SURFACE(((1.0,0.707106781186548,1.0,0.707106781186548,1.0,0.707106781186548,1.0,0.707106781186548,1.0),(0.907054911338861,0.641384678716271,0.907054911338861,0.641384678716271,0.907054911338861,0.641384678716271,0.907054911338861,0.641384678716271,0.907054911338861),(1.0,0.707106781186548,1.0,0.707106781186548,1.0,0.707106781186548,1.0,0.707106781186548,1.0),(0.907054911338861,0.641384678716271,0.907054911338861,0.641384678716271,0.907054911338861,0.641384678716271,0.907054911338861,0.641384678716271,0.907054911338861),(1.0,0.707106781186548,1.0,0.707106781186548,1.0,0.707106781186548,1.0,0.707106781186548,1.0)))REPRESENTATION_ITEM('')SURFACE());
#160=CARTESIAN_POINT('',(-11.999999999999996,-3.999999999999996,3.000000000000001));
#161=VERTEX_POINT('',#160);
#162=CARTESIAN_POINT('',(-9.0,-3.999999999999995,0.0));
#163=VERTEX_POINT('',#162);
#164=CARTESIAN_POINT('',(-8.999999999999996,-3.999999999999995,3.000000000000001));
#165=DIRECTION('',(0.0,-1.0,0.0));
#166=DIRECTION('',(-1.0,0.0,0.0));
#167=AXIS2_PLACEMENT_3D('',#164,#165,#166);
#168=CIRCLE('',#167,3.000000000000002);
#169=EDGE_CURVE('',#161,#163,#168,.T.);
#170=ORIENTED_EDGE('',*,*,#169,.T.);
#171=CARTESIAN_POINT('',(-8.499999999999998,-4.499999999999996,0.0));
#172=VERTEX_POINT('',#171);
#173=CARTESIAN_POINT('',(-8.499999999999998,-3.999999999999995,0.0));
#174=DIRECTION('',(0.0,0.0,1.0));
#175=DIRECTION('',(-0.707106781186548,-0.707106781186548,0.0));
#176=AXIS2_PLACEMENT_3D('',#173,#174,#175);
#177=CIRCLE('',#176,0.499999999999999);
#178=EDGE_CURVE('',#163,#172,#177,.T.);
#179=ORIENTED_EDGE('',*,*,#178,.T.);
#180=CARTESIAN_POINT('',(-8.499999999999998,-7.499999999999995,3.000000000000001));
#181=VERTEX_POINT('',#180);
#182=CARTESIAN_POINT('',(-8.499999999999998,-4.499999999999994,3.000000000000001));
#183=DIRECTION('',(-1.0,0.0,0.0));
#184=DIRECTION('',(0.0,0.0,-1.0));
#185=AXIS2_PLACEMENT_3D('',#182,#183,#184);
#186=CIRCLE('',#185,3.000000000000001);
#187=EDGE_CURVE('',#172,#181,#186,.T.);
#188=ORIENTED_EDGE('',*,*,#187,.T.);
#189=CARTESIAN_POINT('',(-8.499999999999998,-3.999999999999995,3.000000000000001));
#190=DIRECTION('',(0.0,0.0,-1.0));
#191=DIRECTION('',(-0.707106781186547,-0.707106781186547,0.0));
#192=AXIS2_PLACEMENT_3D('',#189,#190,#191);
#193=CIRCLE('',#192,3.499999999999999);
#194=EDGE_CURVE('',#181,#161,#193,.T.);
#195=ORIENTED_EDGE('',*,*,#194,.T.);
#196=EDGE_LOOP('',(#170,#179,#188,#195));
#197=FACE_OUTER_BOUND('',#196,.T.);
#198=ADVANCED_FACE('',(#197),#159,.T.);
#199=CARTESIAN_POINT('',(-8.499999999999998,-3.999999999999995,6.958039891549809));
#200=CARTESIAN_POINT('',(-7.127016653792581,-3.999999999999995,7.190116434893527));
#201=CARTESIAN_POINT('',(-6.063508326896289,-3.999999999999994,6.29128784747792));
#202=CARTESIAN_POINT('',(-4.999999999999998,-3.999999999999994,5.392459260062313));
#203=CARTESIAN_POINT('',(-4.999999999999998,-3.999999999999994,4.0));
#204=CARTESIAN_POINT('',(-8.499999999999998,-3.999999999999995,6.958039891549809));
#205=CARTESIAN_POINT('',(-7.127016653792581,-2.627016653792578,7.190116434893526));
#206=CARTESIAN_POINT('',(-6.06350832689629,-1.563508326896286,6.29128784747792));
#207=CARTESIAN_POINT('',(-4.999999999999999,-0.499999999999995,5.392459260062313));
#208=CARTESIAN_POINT('',(-4.999999999999999,-0.499999999999995,4.0));
#209=CARTESIAN_POINT('',(-8.499999999999998,-3.999999999999995,6.958039891549809));
#210=CARTESIAN_POINT('',(-8.499999999999998,-2.627016653792578,7.190116434893527));
#211=CARTESIAN_POINT('',(-8.499999999999998,-1.563508326896286,6.29128784747792));
#212=CARTESIAN_POINT('',(-8.499999999999998,-0.499999999999995,5.392459260062313));
#213=CARTESIAN_POINT('',(-8.499999999999998,-0.499999999999995,4.0));
#214=CARTESIAN_POINT('',(-8.499999999999998,-3.999999999999995,6.958039891549809));
#215=CARTESIAN_POINT('',(-9.872983346207414,-2.627016653792578,7.190116434893526));
#216=CARTESIAN_POINT('',(-10.936491673103706,-1.563508326896287,6.29128784747792));
#217=CARTESIAN_POINT('',(-11.999999999999996,-0.499999999999996,5.392459260062313));
#218=CARTESIAN_POINT('',(-11.999999999999996,-0.499999999999996,4.0));
#219=CARTESIAN_POINT('',(-8.499999999999998,-3.999999999999995,6.958039891549809));
#220=CARTESIAN_POINT('',(-9.872983346207416,-3.999999999999995,7.190116434893527));
#221=CARTESIAN_POINT('',(-10.936491673103706,-3.999999999999995,6.29128784747792));
#222=CARTESIAN_POINT('',(-11.999999999999998,-3.999999999999995,5.392459260062313));
#223=CARTESIAN_POINT('',(-11.999999999999998,-3.999999999999995,4.0));
#224=CARTESIAN_POINT('',(-8.499999999999998,-3.999999999999995,6.958039891549809));
#225=CARTESIAN_POINT('',(-9.872983346207414,-5.372983346207412,7.190116434893526));
#226=CARTESIAN_POINT('',(-10.936491673103706,-6.436491673103704,6.29128784747792));
#227=CARTESIAN_POINT('',(-11.999999999999996,-7.499999999999994,5.392459260062313));
#228=CARTESIAN_POINT('',(-11.999999999999996,-7.499999999999994,4.0));
#229=CARTESIAN_POINT('',(-8.499999999999998,-3.999999999999995,6.958039891549809));
#230=CARTESIAN_POINT('',(-8.499999999999998,-5.372983346207412,7.190116434893527));
#231=CARTESIAN_POINT('',(-8.499999999999998,-6.436491673103704,6.29128784747792));
#232=CARTESIAN_POINT('',(-8.499999999999998,-7.499999999999995,5.392459260062313));
#233=CARTESIAN_POINT('',(-8.499999999999998,-7.499999999999995,4.0));
#234=CARTESIAN_POINT('',(-8.499999999999998,-3.999999999999995,6.958039891549809));
#235=CARTESIAN_POINT('',(-7.127016653792581,-5.372983346207412,7.190116434893526));
#236=CARTESIAN_POINT('',(-6.06350832689629,-6.436491673103704,6.29128784747792));
#237=CARTESIAN_POINT('',(-4.999999999999999,-7.499999999999994,5.392459260062313));
#238=CARTESIAN_POINT('',(-4.999999999999999,-7.499999999999994,4.0));
#239=CARTESIAN_POINT('',(-8.499999999999998,-3.999999999999995,6.958039891549809));
#240=CARTESIAN_POINT('',(-7.127016653792581,-3.999999999999995,7.190116434893527));
#241=CARTESIAN_POINT('',(-6.063508326896289,-3.999999999999994,6.29128784747792));
#242=CARTESIAN_POINT('',(-4.999999999999998,-3.999999999999994,5.392459260062313));
#243=CARTESIAN_POINT('',(-4.999999999999998,-3.999999999999994,4.0));
#251=(BOUNDED_SURFACE()B_SPLINE_SURFACE(2,2,((#199,#204,#209,#214,#219,#224,#229,#234,#239),(#200,#205,#210,#215,#220,#225,#230,#235,#240),(#201,#206,#211,#216,#221,#226,#231,#236,#241),(#202,#207,#212,#217,#222,#227,#232,#237,#242),(#203,#208,#213,#218,#223,#228,#233,#238,#243)),.UNSPECIFIED.,.F.,.T.,.U.)B_SPLINE_SURFACE_WITH_KNOTS((3,2,3),(3,2,2,2,3),(-1.738244406014585,-0.869122203007293,0.0),(0.0,1.570796326794897,3.141592653589793,4.71238898038469,6.283185307179586),.UNSPECIFIED.)GEOMETRIC_REPRESENTATION_ITEM()RATIONAL_B_SPLINE_SURFACE(((1.0,0.707106781186548,1.0,0.707106781186548,1.0,0.707106781186548,1.0,0.707106781186548,1.0),(0.907054911338859,0.64138467871627,0.907054911338859,0.64138467871627,0.907054911338859,0.64138467871627,0.907054911338859,0.64138467871627,0.907054911338859),(1.0,0.707106781186548,1.0,0.707106781186548,1.0,0.707106781186548,1.0,0.707106781186548,1.0),(0.907054911338862,0.641384678716272,0.907054911338862,0.641384678716272,0.907054911338862,0.641384678716272,0.907054911338862,0.641384678716272,0.907054911338862),(1.0,0.707106781186548,1.0,0.707106781186548,1.0,0.707106781186548,1.0,0.707106781186548,1.0)))REPRESENTATION_ITEM('')SURFACE());
#252=CARTESIAN_POINT('',(-9.0,-3.999999999999995,7.000000000000001));
#253=VERTEX_POINT('',#252);
#254=CARTESIAN_POINT('',(-11.999999999999996,-3.999999999999996,4.0));
#255=VERTEX_POINT('',#254);
#256=CARTESIAN_POINT('',(-8.999999999999996,-3.999999999999995,4.0));
#257=DIRECTION('',(0.0,-1.0,0.0));
#258=DIRECTION('',(0.0,0.0,1.0));
#259=AXIS2_PLACEMENT_3D('',#256,#257,#258);
#260=CIRCLE('',#259,3.000000000000001);
#261=EDGE_CURVE('',#253,#255,#260,.T.);
#262=ORIENTED_EDGE('',*,*,#261,.T.);
#263=CARTESIAN_POINT('',(-8.499999999999998,-7.499999999999995,4.0));
#264=VERTEX_POINT('',#263);
#265=CARTESIAN_POINT('',(-8.499999999999998,-3.999999999999995,4.0));
#266=DIRECTION('',(0.0,0.0,1.0));
#267=DIRECTION('',(-0.707106781186547,-0.707106781186547,0.0));
#268=AXIS2_PLACEMENT_3D('',#265,#266,#267);
#269=CIRCLE('',#268,3.499999999999999);
#270=EDGE_CURVE('',#255,#264,#269,.T.);
#271=ORIENTED_EDGE('',*,*,#270,.T.);
#272=CARTESIAN_POINT('',(-8.499999999999998,-4.499999999999996,7.000000000000001));
#273=VERTEX_POINT('',#272);
#274=CARTESIAN_POINT('',(-8.499999999999998,-4.499999999999994,4.0));
#275=DIRECTION('',(-1.0,0.0,0.0));
#276=DIRECTION('',(0.0,-1.0,0.0));
#277=AXIS2_PLACEMENT_3D('',#274,#275,#276);
#278=CIRCLE('',#277,3.0);
#279=EDGE_CURVE('',#264,#273,#278,.T.);
#280=ORIENTED_EDGE('',*,*,#279,.T.);
#281=CARTESIAN_POINT('',(-8.499999999999998,-3.999999999999995,7.000000000000001));
#282=DIRECTION('',(0.0,0.0,-1.0));
#283=DIRECTION('',(-0.707106781186548,-0.707106781186548,0.0));
#284=AXIS2_PLACEMENT_3D('',#281,#282,#283);
#285=CIRCLE('',#284,0.499999999999999);
#286=EDGE_CURVE('',#273,#253,#285,.T.);
#287=ORIENTED_EDGE('',*,*,#286,.T.);
#288=EDGE_LOOP('',(#262,#271,#280,#287));
#289=FACE_OUTER_BOUND('',#288,.T.);
#290=ADVANCED_FACE('',(#289),#251,.T.);
#291=CARTESIAN_POINT('',(-8.499999999999998,-3.999999999999995,0.0));
#292=DIRECTION('',(0.0,0.0,1.0));
#293=DIRECTION('',(-0.707106781186548,-0.707106781186547,0.0));
#294=AXIS2_PLACEMENT_3D('',#291,#292,#293);
#295=CYLINDRICAL_SURFACE('',#294,3.5);
#296=ORIENTED_EDGE('',*,*,#194,.F.);
#297=CARTESIAN_POINT('',(-8.499999999999998,-7.499999999999996,3.000000000000001));
#298=DIRECTION('',(0.0,0.0,1.0));
#299=VECTOR('',#298,0.999999999999999);
#300=LINE('',#297,#299);
#301=EDGE_CURVE('',#181,#264,#300,.T.);
#302=ORIENTED_EDGE('',*,*,#301,.T.);
#303=ORIENTED_EDGE('',*,*,#270,.F.);
#304=CARTESIAN_POINT('',(-12.0,-3.999999999999995,4.0));
#305=DIRECTION('',(0.0,0.0,-1.0));
#306=VECTOR('',#305,0.999999999999999);
#307=LINE('',#304,#306);
#308=EDGE_CURVE('',#255,#161,#307,.T.);
#309=ORIENTED_EDGE('',*,*,#308,.T.);
#310=EDGE_LOOP('',(#296,#302,#303,#309));
#311=FACE_OUTER_BOUND('',#310,.T.);
#312=ADVANCED_FACE('',(#311),#295,.T.);
#313=CARTESIAN_POINT('',(1.708035E-015,8.540177E-016,0.0));
#314=DIRECTION('',(0.0,0.0,1.0));
#315=DIRECTION('',(1.0,0.0,0.0));
#316=AXIS2_PLACEMENT_3D('',#313,#314,#315);
#317=PLANE('',#316);
#318=ORIENTED_EDGE('',*,*,#178,.F.);
#319=CARTESIAN_POINT('',(-9.000000000000002,7.499999999999999,0.0));
#320=VERTEX_POINT('',#319);
#321=CARTESIAN_POINT('',(-9.000000000000002,7.499999999999999,0.0));
#322=DIRECTION('',(0.0,-1.0,0.0));
#323=VECTOR('',#322,11.499999999999993);
#324=LINE('',#321,#323);
#325=EDGE_CURVE('',#320,#163,#324,.T.);
#326=ORIENTED_EDGE('',*,*,#325,.F.);
#327=CARTESIAN_POINT('',(9.000000000000004,7.500000000000001,0.0));
#328=VERTEX_POINT('',#327);
#329=CARTESIAN_POINT('',(-9.000000000000002,7.499999999999999,0.0));
#330=DIRECTION('',(1.0,0.0,0.0));
#331=VECTOR('',#330,18.000000000000007);
#332=LINE('',#329,#331);
#333=EDGE_CURVE('',#320,#328,#332,.T.);
#334=ORIENTED_EDGE('',*,*,#333,.T.);
#335=CARTESIAN_POINT('',(9.000000000000004,-3.999999999999999,0.0));
#336=VERTEX_POINT('',#335);
#337=CARTESIAN_POINT('',(9.000000000000004,-3.999999999999999,0.0));
#338=DIRECTION('',(0.0,1.0,0.0));
#339=VECTOR('',#338,11.5);
#340=LINE('',#337,#339);
#341=EDGE_CURVE('',#336,#328,#340,.T.);
#342=ORIENTED_EDGE('',*,*,#341,.F.);
#343=CARTESIAN_POINT('',(8.500000000000004,-4.499999999999998,0.0));
#344=VERTEX_POINT('',#343);
#345=CARTESIAN_POINT('',(8.500000000000004,-3.999999999999999,0.0));
#346=DIRECTION('',(0.0,0.0,1.0));
#347=DIRECTION('',(0.707106781186548,-0.707106781186547,0.0));
#348=AXIS2_PLACEMENT_3D('',#345,#346,#347);
#349=CIRCLE('',#348,0.499999999999999);
#350=EDGE_CURVE('',#344,#336,#349,.T.);
#351=ORIENTED_EDGE('',*,*,#350,.F.);
#352=CARTESIAN_POINT('',(-8.499999999999996,-4.499999999999996,0.0));
#353=DIRECTION('',(1.0,0.0,0.0));
#354=VECTOR('',#353,17.0);
#355=LINE('',#352,#354);
#356=EDGE_CURVE('',#172,#344,#355,.T.);
#357=ORIENTED_EDGE('',*,*,#356,.F.);
#358=EDGE_LOOP('',(#318,#326,#334,#342,#351,#357));
#359=FACE_OUTER_BOUND('',#358,.T.);
#360=ADVANCED_FACE('',(#359),#317,.F.);
#361=CARTESIAN_POINT('',(-9.000000000000002,3.75,3.0));
#362=DIRECTION('',(-1.480297E-016,1.0,0.0));
#363=DIRECTION('',(-0.707106781186548,0.0,-0.707106781186547));
#364=AXIS2_PLACEMENT_3D('',#361,#362,#363);
#365=CYLINDRICAL_SURFACE('',#364,3.0);
#366=ORIENTED_EDGE('',*,*,#169,.F.);
#367=CARTESIAN_POINT('',(-12.000000000000002,7.499999999999999,3.0));
#368=VERTEX_POINT('',#367);
#369=CARTESIAN_POINT('',(-12.0,-3.999999999999995,3.0));
#370=DIRECTION('',(0.0,1.0,0.0));
#371=VECTOR('',#370,11.499999999999995);
#372=LINE('',#369,#371);
#373=EDGE_CURVE('',#161,#368,#372,.T.);
#374=ORIENTED_EDGE('',*,*,#373,.T.);
#375=CARTESIAN_POINT('',(-9.000000000000002,7.499999999999998,3.0));
#376=DIRECTION('',(0.0,-1.0,0.0));
#377=DIRECTION('',(-0.707106781186548,0.0,-0.707106781186547));
#378=AXIS2_PLACEMENT_3D('',#375,#376,#377);
#379=CIRCLE('',#378,3.0);
#380=EDGE_CURVE('',#368,#320,#379,.T.);
#381=ORIENTED_EDGE('',*,*,#380,.T.);
#382=ORIENTED_EDGE('',*,*,#325,.T.);
#383=EDGE_LOOP('',(#366,#374,#381,#382));
#384=FACE_OUTER_BOUND('',#383,.T.);
#385=ADVANCED_FACE('',(#384),#365,.T.);
#386=CARTESIAN_POINT('',(-12.000000000000002,7.5,0.0));
#387=DIRECTION('',(-1.0,0.0,0.0));
#388=DIRECTION('',(0.0,-1.0,0.0));
#389=AXIS2_PLACEMENT_3D('',#386,#387,#388);
#390=PLANE('',#389);
#391=ORIENTED_EDGE('',*,*,#308,.F.);
#392=CARTESIAN_POINT('',(-12.000000000000002,7.499999999999999,4.0));
#393=VERTEX_POINT('',#392);
#394=CARTESIAN_POINT('',(-12.000000000000002,7.499999999999999,4.0));
#395=DIRECTION('',(0.0,-1.0,0.0));
#396=VECTOR('',#395,11.499999999999995);
#397=LINE('',#394,#396);
#398=EDGE_CURVE('',#393,#255,#397,.T.);
#399=ORIENTED_EDGE('',*,*,#398,.F.);
#400=CARTESIAN_POINT('',(-12.000000000000002,7.499999999999999,3.0));
#401=DIRECTION('',(0.0,0.0,1.0));
#402=VECTOR('',#401,1.0);
#403=LINE('',#400,#402);
#404=EDGE_CURVE('',#368,#393,#403,.T.);
#405=ORIENTED_EDGE('',*,*,#404,.F.);
#406=ORIENTED_EDGE('',*,*,#373,.F.);
#407=EDGE_LOOP('',(#391,#399,#405,#406));
#408=FACE_OUTER_BOUND('',#407,.T.);
#409=ADVANCED_FACE('',(#408),#390,.T.);
#410=CARTESIAN_POINT('',(-9.000000000000002,3.75,4.0));
#411=DIRECTION('',(1.480297E-016,-1.0,0.0));
#412=DIRECTION('',(-0.707106781186548,0.0,0.707106781186547));
#413=AXIS2_PLACEMENT_3D('',#410,#411,#412);
#414=CYLINDRICAL_SURFACE('',#413,3.0);
#415=ORIENTED_EDGE('',*,*,#261,.F.);
#416=CARTESIAN_POINT('',(-9.000000000000002,7.499999999999999,7.000000000000001));
#417=VERTEX_POINT('',#416);
#418=CARTESIAN_POINT('',(-9.0,-3.999999999999995,7.000000000000001));
#419=DIRECTION('',(0.0,1.0,0.0));
#420=VECTOR('',#419,11.499999999999993);
#421=LINE('',#418,#420);
#422=EDGE_CURVE('',#253,#417,#421,.T.);
#423=ORIENTED_EDGE('',*,*,#422,.T.);
#424=CARTESIAN_POINT('',(-9.000000000000002,7.499999999999998,4.0));
#425=DIRECTION('',(0.0,-1.0,0.0));
#426=DIRECTION('',(-0.707106781186548,0.0,0.707106781186547));
#427=AXIS2_PLACEMENT_3D('',#424,#425,#426);
#428=CIRCLE('',#427,3.0);
#429=EDGE_CURVE('',#417,#393,#428,.T.);
#430=ORIENTED_EDGE('',*,*,#429,.T.);
#431=ORIENTED_EDGE('',*,*,#398,.T.);
#432=EDGE_LOOP('',(#415,#423,#430,#431));
#433=FACE_OUTER_BOUND('',#432,.T.);
#434=ADVANCED_FACE('',(#433),#414,.T.);
#435=CARTESIAN_POINT('',(12.000000000000004,-3.999999999999998,3.0));
#436=CARTESIAN_POINT('',(12.000000000000004,-3.999999999999998,1.607540739937687));
#437=CARTESIAN_POINT('',(10.936491673103712,-3.999999999999998,0.708712152522081));
#438=CARTESIAN_POINT('',(9.872983346207422,-3.999999999999998,-0.190116434893526));
#439=CARTESIAN_POINT('',(8.500000000000005,-3.999999999999999,0.041960108450192));
#440=CARTESIAN_POINT('',(12.000000000000004,-0.499999999999999,3.0));
#441=CARTESIAN_POINT('',(12.000000000000004,-0.499999999999999,1.607540739937687));
#442=CARTESIAN_POINT('',(10.936491673103712,-1.563508326896291,0.708712152522081));
#443=CARTESIAN_POINT('',(9.872983346207422,-2.627016653792581,-0.190116434893526));
#444=CARTESIAN_POINT('',(8.500000000000005,-3.999999999999997,0.041960108450192));
#445=CARTESIAN_POINT('',(8.500000000000004,-0.499999999999999,3.0));
#446=CARTESIAN_POINT('',(8.500000000000004,-0.499999999999999,1.607540739937687));
#447=CARTESIAN_POINT('',(8.500000000000004,-1.563508326896291,0.708712152522081));
#448=CARTESIAN_POINT('',(8.500000000000004,-2.627016653792581,-0.190116434893526));
#449=CARTESIAN_POINT('',(8.500000000000004,-3.999999999999997,0.041960108450192));
#450=CARTESIAN_POINT('',(5.000000000000004,-0.5,3.0));
#451=CARTESIAN_POINT('',(5.000000000000004,-0.5,1.607540739937687));
#452=CARTESIAN_POINT('',(6.063508326896296,-1.563508326896292,0.708712152522081));
#453=CARTESIAN_POINT('',(7.127016653792586,-2.627016653792582,-0.190116434893526));
#454=CARTESIAN_POINT('',(8.500000000000002,-3.999999999999997,0.041960108450192));
#455=CARTESIAN_POINT('',(5.000000000000004,-3.999999999999999,3.0));
#456=CARTESIAN_POINT('',(5.000000000000004,-3.999999999999999,1.607540739937687));
#457=CARTESIAN_POINT('',(6.063508326896296,-3.999999999999999,0.708712152522081));
#458=CARTESIAN_POINT('',(7.127016653792586,-3.999999999999999,-0.190116434893526));
#459=CARTESIAN_POINT('',(8.500000000000002,-3.999999999999999,0.041960108450192));
#460=CARTESIAN_POINT('',(5.000000000000004,-7.499999999999998,3.0));
#461=CARTESIAN_POINT('',(5.000000000000004,-7.499999999999998,1.607540739937687));
#462=CARTESIAN_POINT('',(6.063508326896296,-6.436491673103705,0.708712152522081));
#463=CARTESIAN_POINT('',(7.127016653792586,-5.372983346207416,-0.190116434893526));
#464=CARTESIAN_POINT('',(8.500000000000002,-4.0,0.041960108450192));
#465=CARTESIAN_POINT('',(8.500000000000004,-7.499999999999998,3.0));
#466=CARTESIAN_POINT('',(8.500000000000004,-7.499999999999998,1.607540739937687));
#467=CARTESIAN_POINT('',(8.500000000000004,-6.436491673103706,0.708712152522081));
#468=CARTESIAN_POINT('',(8.500000000000004,-5.372983346207416,-0.190116434893526));
#469=CARTESIAN_POINT('',(8.500000000000004,-4.0,0.041960108450192));
#470=CARTESIAN_POINT('',(12.000000000000004,-7.499999999999998,3.0));
#471=CARTESIAN_POINT('',(12.000000000000004,-7.499999999999998,1.607540739937687));
#472=CARTESIAN_POINT('',(10.936491673103712,-6.436491673103705,0.708712152522081));
#473=CARTESIAN_POINT('',(9.872983346207422,-5.372983346207416,-0.190116434893526));
#474=CARTESIAN_POINT('',(8.500000000000005,-4.0,0.041960108450192));
#475=CARTESIAN_POINT('',(12.000000000000004,-3.999999999999998,3.0));
#476=CARTESIAN_POINT('',(12.000000000000004,-3.999999999999998,1.607540739937687));
#477=CARTESIAN_POINT('',(10.936491673103712,-3.999999999999998,0.708712152522081));
#478=CARTESIAN_POINT('',(9.872983346207422,-3.999999999999998,-0.190116434893526));
#479=CARTESIAN_POINT('',(8.500000000000005,-3.999999999999999,0.041960108450192));
#487=(BOUNDED_SURFACE()B_SPLINE_SURFACE(2,2,((#435,#440,#445,#450,#455,#460,#465,#470,#475),(#436,#441,#446,#451,#456,#461,#466,#471,#476),(#437,#442,#447,#452,#457,#462,#467,#472,#477),(#438,#443,#448,#453,#458,#463,#468,#473,#478),(#439,#444,#449,#454,#459,#464,#469,#474,#479)),.UNSPECIFIED.,.F.,.T.,.U.)B_SPLINE_SURFACE_WITH_KNOTS((3,2,3),(3,2,2,2,3),(0.0,0.869122203007293,1.738244406014586),(0.0,1.570796326794897,3.141592653589793,4.71238898038469,6.283185307179586),.UNSPECIFIED.)GEOMETRIC_REPRESENTATION_ITEM()RATIONAL_B_SPLINE_SURFACE(((1.0,0.707106781186548,1.0,0.707106781186548,1.0,0.707106781186548,1.0,0.707106781186548,1.0),(0.907054911338858,0.641384678716269,0.907054911338858,0.641384678716269,0.907054911338858,0.641384678716269,0.907054911338858,0.641384678716269,0.907054911338858),(1.0,0.707106781186548,1.0,0.707106781186548,1.0,0.707106781186548,1.0,0.707106781186548,1.0),(0.907054911338861,0.641384678716271,0.907054911338861,0.641384678716271,0.907054911338861,0.641384678716271,0.907054911338861,0.641384678716271,0.907054911338861),(1.0,0.707106781186548,1.0,0.707106781186548,1.0,0.707106781186548,1.0,0.707106781186548,1.0)))REPRESENTATION_ITEM('')SURFACE());
#488=CARTESIAN_POINT('',(8.500000000000004,-7.499999999999998,3.0));
#489=VERTEX_POINT('',#488);
#490=CARTESIAN_POINT('',(8.500000000000004,-4.499999999999998,3.0));
#491=DIRECTION('',(1.0,0.0,0.0));
#492=DIRECTION('',(0.0,-1.0,0.0));
#493=AXIS2_PLACEMENT_3D('',#490,#491,#492);
#494=CIRCLE('',#493,3.0);
#495=EDGE_CURVE('',#489,#344,#494,.T.);
#496=ORIENTED_EDGE('',*,*,#495,.T.);
#497=ORIENTED_EDGE('',*,*,#350,.T.);
#498=CARTESIAN_POINT('',(12.000000000000004,-3.999999999999999,3.0));
#499=VERTEX_POINT('',#498);
#500=CARTESIAN_POINT('',(9.000000000000002,-3.999999999999999,3.0));
#501=DIRECTION('',(0.0,-1.0,0.0));
#502=DIRECTION('',(0.0,0.0,-1.0));
#503=AXIS2_PLACEMENT_3D('',#500,#501,#502);
#504=CIRCLE('',#503,3.0);
#505=EDGE_CURVE('',#336,#499,#504,.T.);
#506=ORIENTED_EDGE('',*,*,#505,.T.);
#507=CARTESIAN_POINT('',(8.500000000000004,-3.999999999999999,3.0));
#508=DIRECTION('',(0.0,0.0,-1.0));
#509=DIRECTION('',(0.707106781186548,-0.707106781186547,0.0));
#510=AXIS2_PLACEMENT_3D('',#507,#508,#509);
#511=CIRCLE('',#510,3.5);
#512=EDGE_CURVE('',#499,#489,#511,.T.);
#513=ORIENTED_EDGE('',*,*,#512,.T.);
#514=EDGE_LOOP('',(#496,#497,#506,#513));
#515=FACE_OUTER_BOUND('',#514,.T.);
#516=ADVANCED_FACE('',(#515),#487,.T.);
#517=CARTESIAN_POINT('',(8.500000000000005,-3.999999999999999,6.958039891549808));
#518=CARTESIAN_POINT('',(9.872983346207422,-3.999999999999998,7.190116434893525));
#519=CARTESIAN_POINT('',(10.936491673103712,-3.999999999999998,6.29128784747792));
#520=CARTESIAN_POINT('',(12.000000000000004,-3.999999999999998,5.392459260062313));
#521=CARTESIAN_POINT('',(12.000000000000004,-3.999999999999998,4.0));
#522=CARTESIAN_POINT('',(8.500000000000005,-3.999999999999997,6.958039891549808));
#523=CARTESIAN_POINT('',(9.872983346207422,-2.627016653792581,7.190116434893526));
#524=CARTESIAN_POINT('',(10.936491673103712,-1.563508326896291,6.29128784747792));
#525=CARTESIAN_POINT('',(12.000000000000004,-0.499999999999999,5.392459260062313));
#526=CARTESIAN_POINT('',(12.000000000000004,-0.499999999999999,4.0));
#527=CARTESIAN_POINT('',(8.500000000000004,-3.999999999999997,6.958039891549808));
#528=CARTESIAN_POINT('',(8.500000000000004,-2.627016653792581,7.190116434893525));
#529=CARTESIAN_POINT('',(8.500000000000004,-1.563508326896291,6.29128784747792));
#530=CARTESIAN_POINT('',(8.500000000000004,-0.499999999999999,5.392459260062313));
#531=CARTESIAN_POINT('',(8.500000000000004,-0.499999999999999,4.0));
#532=CARTESIAN_POINT('',(8.500000000000002,-3.999999999999997,6.958039891549808));
#533=CARTESIAN_POINT('',(7.127016653792587,-2.627016653792582,7.190116434893526));
#534=CARTESIAN_POINT('',(6.063508326896296,-1.563508326896292,6.29128784747792));
#535=CARTESIAN_POINT('',(5.000000000000004,-0.5,5.392459260062313));
#536=CARTESIAN_POINT('',(5.000000000000004,-0.5,4.0));
#537=CARTESIAN_POINT('',(8.500000000000002,-3.999999999999999,6.958039891549808));
#538=CARTESIAN_POINT('',(7.127016653792586,-3.999999999999999,7.190116434893525));
#539=CARTESIAN_POINT('',(6.063508326896296,-3.999999999999999,6.29128784747792));
#540=CARTESIAN_POINT('',(5.000000000000004,-3.999999999999999,5.392459260062313));
#541=CARTESIAN_POINT('',(5.000000000000004,-3.999999999999999,4.0));
#542=CARTESIAN_POINT('',(8.500000000000002,-4.0,6.958039891549808));
#543=CARTESIAN_POINT('',(7.127016653792587,-5.372983346207416,7.190116434893526));
#544=CARTESIAN_POINT('',(6.063508326896296,-6.436491673103705,6.29128784747792));
#545=CARTESIAN_POINT('',(5.000000000000004,-7.499999999999998,5.392459260062313));
#546=CARTESIAN_POINT('',(5.000000000000004,-7.499999999999998,4.0));
#547=CARTESIAN_POINT('',(8.500000000000004,-4.0,6.958039891549808));
#548=CARTESIAN_POINT('',(8.500000000000004,-5.372983346207416,7.190116434893525));
#549=CARTESIAN_POINT('',(8.500000000000004,-6.436491673103706,6.29128784747792));
#550=CARTESIAN_POINT('',(8.500000000000004,-7.499999999999998,5.392459260062313));
#551=CARTESIAN_POINT('',(8.500000000000004,-7.499999999999998,4.0));
#552=CARTESIAN_POINT('',(8.500000000000005,-4.0,6.958039891549808));
#553=CARTESIAN_POINT('',(9.872983346207422,-5.372983346207416,7.190116434893526));
#554=CARTESIAN_POINT('',(10.936491673103712,-6.436491673103705,6.29128784747792));
#555=CARTESIAN_POINT('',(12.000000000000004,-7.499999999999998,5.392459260062313));
#556=CARTESIAN_POINT('',(12.000000000000004,-7.499999999999998,4.0));
#557=CARTESIAN_POINT('',(8.500000000000005,-3.999999999999999,6.958039891549808));
#558=CARTESIAN_POINT('',(9.872983346207422,-3.999999999999998,7.190116434893525));
#559=CARTESIAN_POINT('',(10.936491673103712,-3.999999999999998,6.29128784747792));
#560=CARTESIAN_POINT('',(12.000000000000004,-3.999999999999998,5.392459260062313));
#561=CARTESIAN_POINT('',(12.000000000000004,-3.999999999999998,4.0));
#569=(BOUNDED_SURFACE()B_SPLINE_SURFACE(2,2,((#517,#522,#527,#532,#537,#542,#547,#552,#557),(#518,#523,#528,#533,#538,#543,#548,#553,#558),(#519,#524,#529,#534,#539,#544,#549,#554,#559),(#520,#525,#530,#535,#540,#545,#550,#555,#560),(#521,#526,#531,#536,#541,#546,#551,#556,#561)),.UNSPECIFIED.,.F.,.T.,.U.)B_SPLINE_SURFACE_WITH_KNOTS((3,2,3),(3,2,2,2,3),(-1.738244406014586,-0.869122203007293,0.0),(0.0,1.570796326794897,3.141592653589793,4.71238898038469,6.283185307179586),.UNSPECIFIED.)GEOMETRIC_REPRESENTATION_ITEM()RATIONAL_B_SPLINE_SURFACE(((1.0,0.707106781186548,1.0,0.707106781186548,1.0,0.707106781186548,1.0,0.707106781186548,1.0),(0.907054911338865,0.641384678716274,0.907054911338865,0.641384678716274,0.907054911338865,0.641384678716274,0.907054911338865,0.641384678716274,0.907054911338865),(1.0,0.707106781186548,1.0,0.707106781186548,1.0,0.707106781186548,1.0,0.707106781186548,1.0),(0.907054911338858,0.641384678716269,0.907054911338858,0.641384678716269,0.907054911338858,0.641384678716269,0.907054911338858,0.641384678716269,0.907054911338858),(1.0,0.707106781186548,1.0,0.707106781186548,1.0,0.707106781186548,1.0,0.707106781186548,1.0)))REPRESENTATION_ITEM('')SURFACE());
#570=CARTESIAN_POINT('',(8.500000000000004,-4.499999999999998,7.000000000000001));
#571=VERTEX_POINT('',#570);
#572=CARTESIAN_POINT('',(8.500000000000004,-7.499999999999998,4.0));
#573=VERTEX_POINT('',#572);
#574=CARTESIAN_POINT('',(8.500000000000004,-4.499999999999998,4.0));
#575=DIRECTION('',(1.0,0.0,0.0));
#576=DIRECTION('',(0.0,0.0,1.0));
#577=AXIS2_PLACEMENT_3D('',#574,#575,#576);
#578=CIRCLE('',#577,3.0);
#579=EDGE_CURVE('',#571,#573,#578,.T.);
#580=ORIENTED_EDGE('',*,*,#579,.T.);
#581=CARTESIAN_POINT('',(12.000000000000004,-3.999999999999999,4.0));
#582=VERTEX_POINT('',#581);
#583=CARTESIAN_POINT('',(8.500000000000004,-3.999999999999999,4.0));
#584=DIRECTION('',(0.0,0.0,1.0));
#585=DIRECTION('',(0.707106781186548,-0.707106781186547,0.0));
#586=AXIS2_PLACEMENT_3D('',#583,#584,#585);
#587=CIRCLE('',#586,3.5);
#588=EDGE_CURVE('',#573,#582,#587,.T.);
#589=ORIENTED_EDGE('',*,*,#588,.T.);
#590=CARTESIAN_POINT('',(9.000000000000004,-3.999999999999999,7.000000000000001));
#591=VERTEX_POINT('',#590);
#592=CARTESIAN_POINT('',(9.000000000000002,-3.999999999999999,4.0));
#593=DIRECTION('',(0.0,-1.0,0.0));
#594=DIRECTION('',(1.0,0.0,0.0));
#595=AXIS2_PLACEMENT_3D('',#592,#593,#594);
#596=CIRCLE('',#595,3.000000000000002);
#597=EDGE_CURVE('',#582,#591,#596,.T.);
#598=ORIENTED_EDGE('',*,*,#597,.T.);
#599=CARTESIAN_POINT('',(8.500000000000004,-3.999999999999999,7.000000000000001));
#600=DIRECTION('',(0.0,0.0,-1.0));
#601=DIRECTION('',(0.707106781186548,-0.707106781186547,0.0));
#602=AXIS2_PLACEMENT_3D('',#599,#600,#601);
#603=CIRCLE('',#602,0.499999999999999);
#604=EDGE_CURVE('',#591,#571,#603,.T.);
#605=ORIENTED_EDGE('',*,*,#604,.T.);
#606=EDGE_LOOP('',(#580,#589,#598,#605));
#607=FACE_OUTER_BOUND('',#606,.T.);
#608=ADVANCED_FACE('',(#607),#569,.T.);
#609=CARTESIAN_POINT('',(8.500000000000004,-3.999999999999999,0.0));
#610=DIRECTION('',(0.0,0.0,1.0));
#611=DIRECTION('',(0.707106781186548,-0.707106781186547,0.0));
#612=AXIS2_PLACEMENT_3D('',#609,#610,#611);
#613=CYLINDRICAL_SURFACE('',#612,3.5);
#614=ORIENTED_EDGE('',*,*,#512,.F.);
#615=CARTESIAN_POINT('',(12.000000000000004,-3.999999999999999,3.0));
#616=DIRECTION('',(0.0,0.0,1.0));
#617=VECTOR('',#616,1.0);
#618=LINE('',#615,#617);
#619=EDGE_CURVE('',#499,#582,#618,.T.);
#620=ORIENTED_EDGE('',*,*,#619,.T.);
#621=ORIENTED_EDGE('',*,*,#588,.F.);
#622=CARTESIAN_POINT('',(8.500000000000004,-7.499999999999998,4.0));
#623=DIRECTION('',(0.0,0.0,-1.0));
#624=VECTOR('',#623,1.0);
#625=LINE('',#622,#624);
#626=EDGE_CURVE('',#573,#489,#625,.T.);
#627=ORIENTED_EDGE('',*,*,#626,.T.);
#628=EDGE_LOOP('',(#614,#620,#621,#627));
#629=FACE_OUTER_BOUND('',#628,.T.);
#630=ADVANCED_FACE('',(#629),#613,.T.);
#631=CARTESIAN_POINT('',(-5.999999999999998,-4.499999999999996,3.0));
#632=DIRECTION('',(-1.0,1.387779E-016,0.0));
#633=DIRECTION('',(0.0,-0.707106781186548,-0.707106781186548));
#634=AXIS2_PLACEMENT_3D('',#631,#632,#633);
#635=CYLINDRICAL_SURFACE('',#634,3.000000000000001);
#636=ORIENTED_EDGE('',*,*,#187,.F.);
#637=ORIENTED_EDGE('',*,*,#356,.T.);
#638=ORIENTED_EDGE('',*,*,#495,.F.);
#639=CARTESIAN_POINT('',(8.500000000000004,-7.499999999999998,3.0));
#640=DIRECTION('',(-1.0,0.0,0.0));
#641=VECTOR('',#640,17.0);
#642=LINE('',#639,#641);
#643=EDGE_CURVE('',#489,#181,#642,.T.);
#644=ORIENTED_EDGE('',*,*,#643,.T.);
#645=EDGE_LOOP('',(#636,#637,#638,#644));
#646=FACE_OUTER_BOUND('',#645,.T.);
#647=ADVANCED_FACE('',(#646),#635,.T.);
#648=CARTESIAN_POINT('',(-12.0,-7.499999999999996,0.0));
#649=DIRECTION('',(0.0,-1.0,0.0));
#650=DIRECTION('',(1.0,0.0,0.0));
#651=AXIS2_PLACEMENT_3D('',#648,#649,#650);
#652=PLANE('',#651);
#653=ORIENTED_EDGE('',*,*,#301,.F.);
#654=ORIENTED_EDGE('',*,*,#643,.F.);
#655=ORIENTED_EDGE('',*,*,#626,.F.);
#656=CARTESIAN_POINT('',(-8.499999999999996,-7.499999999999996,4.0));
#657=DIRECTION('',(1.0,0.0,0.0));
#658=VECTOR('',#657,17.0);
#659=LINE('',#656,#658);
#660=EDGE_CURVE('',#264,#573,#659,.T.);
#661=ORIENTED_EDGE('',*,*,#660,.F.);
#662=EDGE_LOOP('',(#653,#654,#655,#661));
#663=FACE_OUTER_BOUND('',#662,.T.);
#664=ADVANCED_FACE('',(#663),#652,.T.);
#665=CARTESIAN_POINT('',(-5.999999999999998,-4.499999999999996,4.0));
#666=DIRECTION('',(1.0,-1.387779E-016,0.0));
#667=DIRECTION('',(0.0,-0.707106781186548,0.707106781186548));
#668=AXIS2_PLACEMENT_3D('',#665,#666,#667);
#669=CYLINDRICAL_SURFACE('',#668,3.000000000000001);
#670=ORIENTED_EDGE('',*,*,#279,.F.);
#671=ORIENTED_EDGE('',*,*,#660,.T.);
#672=ORIENTED_EDGE('',*,*,#579,.F.);
#673=CARTESIAN_POINT('',(8.500000000000004,-4.499999999999998,7.000000000000001));
#674=DIRECTION('',(-1.0,0.0,0.0));
#675=VECTOR('',#674,17.0);
#676=LINE('',#673,#675);
#677=EDGE_CURVE('',#571,#273,#676,.T.);
#678=ORIENTED_EDGE('',*,*,#677,.T.);
#679=EDGE_LOOP('',(#670,#671,#672,#678));
#680=FACE_OUTER_BOUND('',#679,.T.);
#681=ADVANCED_FACE('',(#680),#669,.T.);
#682=CARTESIAN_POINT('',(-11.25,7.499999999999999,3.5));
#683=DIRECTION('',(0.0,1.0,0.0));
#684=DIRECTION('',(-1.0,0.0,0.0));
#685=AXIS2_PLACEMENT_3D('',#682,#683,#684);
#686=CYLINDRICAL_SURFACE('',#685,0.250000000000001);
#687=CARTESIAN_POINT('',(-10.999999999999998,10.499999999999998,3.5));
#688=VERTEX_POINT('',#687);
#689=CARTESIAN_POINT('',(-11.25,10.499999999999998,3.5));
#690=DIRECTION('',(0.0,1.0,0.0));
#691=DIRECTION('',(-1.0,0.0,0.0));
#692=AXIS2_PLACEMENT_3D('',#689,#690,#691);
#693=CIRCLE('',#692,0.250000000000001);
#694=EDGE_CURVE('',#688,#688,#693,.T.);
#695=ORIENTED_EDGE('',*,*,#694,.F.);
#696=EDGE_LOOP('',(#695));
#697=FACE_OUTER_BOUND('',#696,.T.);
#698=CARTESIAN_POINT('',(-10.999999999999998,7.500000000000001,3.5));
#699=VERTEX_POINT('',#698);
#700=CARTESIAN_POINT('',(-11.25,7.500000000000001,3.5));
#701=DIRECTION('',(0.0,-1.0,0.0));
#702=DIRECTION('',(-1.0,0.0,0.0));
#703=AXIS2_PLACEMENT_3D('',#700,#701,#702);
#704=CIRCLE('',#703,0.250000000000001);
#705=EDGE_CURVE('',#699,#699,#704,.T.);
#706=ORIENTED_EDGE('',*,*,#705,.F.);
#707=EDGE_LOOP('',(#706));
#708=FACE_BOUND('',#707,.T.);
#709=ADVANCED_FACE('',(#697,#708),#686,.T.);
#710=CARTESIAN_POINT('',(-11.249999999999998,10.499999999999998,3.5));
#711=DIRECTION('',(0.0,-1.0,0.0));
#712=DIRECTION('',(0.0,0.0,-1.0));
#713=AXIS2_PLACEMENT_3D('',#710,#711,#712);
#714=PLANE('',#713);
#715=ORIENTED_EDGE('',*,*,#694,.T.);
#716=EDGE_LOOP('',(#715));
#717=FACE_OUTER_BOUND('',#716,.T.);
#718=ADVANCED_FACE('',(#717),#714,.F.);
#719=CARTESIAN_POINT('',(11.25,7.500000000000001,3.5));
#720=DIRECTION('',(0.0,1.0,0.0));
#721=DIRECTION('',(-1.0,0.0,0.0));
#722=AXIS2_PLACEMENT_3D('',#719,#720,#721);
#723=CYLINDRICAL_SURFACE('',#722,0.249999999999999);
#724=CARTESIAN_POINT('',(11.5,10.500000000000004,3.5));
#725=VERTEX_POINT('',#724);
#726=CARTESIAN_POINT('',(11.25,10.500000000000004,3.5));
#727=DIRECTION('',(0.0,1.0,0.0));
#728=DIRECTION('',(-1.0,0.0,0.0));
#729=AXIS2_PLACEMENT_3D('',#726,#727,#728);
#730=CIRCLE('',#729,0.249999999999999);
#731=EDGE_CURVE('',#725,#725,#730,.T.);
#732=ORIENTED_EDGE('',*,*,#731,.F.);
#733=EDGE_LOOP('',(#732));
#734=FACE_OUTER_BOUND('',#733,.T.);
#735=CARTESIAN_POINT('',(11.5,7.500000000000001,3.5));
#736=VERTEX_POINT('',#735);
#737=CARTESIAN_POINT('',(11.25,7.500000000000001,3.5));
#738=DIRECTION('',(0.0,-1.0,0.0));
#739=DIRECTION('',(-1.0,0.0,0.0));
#740=AXIS2_PLACEMENT_3D('',#737,#738,#739);
#741=CIRCLE('',#740,0.249999999999999);
#742=EDGE_CURVE('',#736,#736,#741,.T.);
#743=ORIENTED_EDGE('',*,*,#742,.F.);
#744=EDGE_LOOP('',(#743));
#745=FACE_BOUND('',#744,.T.);
#746=ADVANCED_FACE('',(#734,#745),#723,.T.);
#747=CARTESIAN_POINT('',(11.25,10.5,3.5));
#748=DIRECTION('',(0.0,-1.0,0.0));
#749=DIRECTION('',(0.0,0.0,-1.0));
#750=AXIS2_PLACEMENT_3D('',#747,#748,#749);
#751=PLANE('',#750);
#752=ORIENTED_EDGE('',*,*,#731,.T.);
#753=EDGE_LOOP('',(#752));
#754=FACE_OUTER_BOUND('',#753,.T.);
#755=ADVANCED_FACE('',(#754),#751,.F.);
#756=CARTESIAN_POINT('',(9.000000000000004,-3.749999999999999,4.0));
#757=DIRECTION('',(0.0,1.0,0.0));
#758=DIRECTION('',(0.707106781186547,0.0,0.707106781186548));
#759=AXIS2_PLACEMENT_3D('',#756,#757,#758);
#760=CYLINDRICAL_SURFACE('',#759,3.0);
#761=ORIENTED_EDGE('',*,*,#597,.F.);
#762=CARTESIAN_POINT('',(12.000000000000004,7.500000000000001,4.0));
#763=VERTEX_POINT('',#762);
#764=CARTESIAN_POINT('',(12.000000000000004,-3.999999999999999,4.0));
#765=DIRECTION('',(0.0,1.0,0.0));
#766=VECTOR('',#765,11.5);
#767=LINE('',#764,#766);
#768=EDGE_CURVE('',#582,#763,#767,.T.);
#769=ORIENTED_EDGE('',*,*,#768,.T.);
#770=CARTESIAN_POINT('',(9.000000000000004,7.500000000000001,7.000000000000001));
#771=VERTEX_POINT('',#770);
#772=CARTESIAN_POINT('',(9.000000000000004,7.500000000000001,4.0));
#773=DIRECTION('',(0.0,-1.0,0.0));
#774=DIRECTION('',(0.707106781186547,0.0,0.707106781186548));
#775=AXIS2_PLACEMENT_3D('',#772,#773,#774);
#776=CIRCLE('',#775,3.0);
#777=EDGE_CURVE('',#763,#771,#776,.T.);
#778=ORIENTED_EDGE('',*,*,#777,.T.);
#779=CARTESIAN_POINT('',(9.000000000000004,7.500000000000001,7.000000000000001));
#780=DIRECTION('',(0.0,-1.0,0.0));
#781=VECTOR('',#780,11.5);
#782=LINE('',#779,#781);
#783=EDGE_CURVE('',#771,#591,#782,.T.);
#784=ORIENTED_EDGE('',*,*,#783,.T.);
#785=EDGE_LOOP('',(#761,#769,#778,#784));
#786=FACE_OUTER_BOUND('',#785,.T.);
#787=ADVANCED_FACE('',(#786),#760,.T.);
#788=CARTESIAN_POINT('',(1.708035E-015,8.540177E-016,7.000000000000001));
#789=DIRECTION('',(0.0,0.0,1.0));
#790=DIRECTION('',(1.0,0.0,0.0));
#791=AXIS2_PLACEMENT_3D('',#788,#789,#790);
#792=PLANE('',#791);
#793=ORIENTED_EDGE('',*,*,#286,.F.);
#794=ORIENTED_EDGE('',*,*,#677,.F.);
#795=ORIENTED_EDGE('',*,*,#604,.F.);
#796=ORIENTED_EDGE('',*,*,#783,.F.);
#797=CARTESIAN_POINT('',(9.000000000000005,7.500000000000001,7.000000000000001));
#798=DIRECTION('',(-1.0,0.0,0.0));
#799=VECTOR('',#798,18.000000000000007);
#800=LINE('',#797,#799);
#801=EDGE_CURVE('',#771,#417,#800,.T.);
#802=ORIENTED_EDGE('',*,*,#801,.T.);
#803=ORIENTED_EDGE('',*,*,#422,.F.);
#804=EDGE_LOOP('',(#793,#794,#795,#796,#802,#803));
#805=FACE_OUTER_BOUND('',#804,.T.);
#806=ADVANCED_FACE('',(#805),#792,.T.);
#807=CARTESIAN_POINT('',(9.000000000000004,-3.749999999999999,3.0));
#808=DIRECTION('',(0.0,-1.0,0.0));
#809=DIRECTION('',(0.707106781186547,0.0,-0.707106781186548));
#810=AXIS2_PLACEMENT_3D('',#807,#808,#809);
#811=CYLINDRICAL_SURFACE('',#810,3.0);
#812=ORIENTED_EDGE('',*,*,#505,.F.);
#813=ORIENTED_EDGE('',*,*,#341,.T.);
#814=CARTESIAN_POINT('',(12.000000000000004,7.500000000000001,3.0));
#815=VERTEX_POINT('',#814);
#816=CARTESIAN_POINT('',(9.000000000000004,7.500000000000001,3.0));
#817=DIRECTION('',(0.0,-1.0,0.0));
#818=DIRECTION('',(0.707106781186547,0.0,-0.707106781186548));
#819=AXIS2_PLACEMENT_3D('',#816,#817,#818);
#820=CIRCLE('',#819,3.0);
#821=EDGE_CURVE('',#328,#815,#820,.T.);
#822=ORIENTED_EDGE('',*,*,#821,.T.);
#823=CARTESIAN_POINT('',(12.000000000000004,7.500000000000001,3.0));
#824=DIRECTION('',(0.0,-1.0,0.0));
#825=VECTOR('',#824,11.5);
#826=LINE('',#823,#825);
#827=EDGE_CURVE('',#815,#499,#826,.T.);
#828=ORIENTED_EDGE('',*,*,#827,.T.);
#829=EDGE_LOOP('',(#812,#813,#822,#828));
#830=FACE_OUTER_BOUND('',#829,.T.);
#831=ADVANCED_FACE('',(#830),#811,.T.);
#832=CARTESIAN_POINT('',(12.000000000000002,7.500000000000001,0.0));
#833=DIRECTION('',(0.0,1.0,0.0));
#834=DIRECTION('',(-1.0,0.0,0.0));
#835=AXIS2_PLACEMENT_3D('',#832,#833,#834);
#836=PLANE('',#835);
#837=ORIENTED_EDGE('',*,*,#429,.F.);
#838=ORIENTED_EDGE('',*,*,#801,.F.);
#839=ORIENTED_EDGE('',*,*,#777,.F.);
#840=CARTESIAN_POINT('',(12.000000000000004,7.500000000000001,3.0));
#841=DIRECTION('',(0.0,0.0,1.0));
#842=VECTOR('',#841,1.0);
#843=LINE('',#840,#842);
#844=EDGE_CURVE('',#815,#763,#843,.T.);
#845=ORIENTED_EDGE('',*,*,#844,.F.);
#846=ORIENTED_EDGE('',*,*,#821,.F.);
#847=ORIENTED_EDGE('',*,*,#333,.F.);
#848=ORIENTED_EDGE('',*,*,#380,.F.);
#849=ORIENTED_EDGE('',*,*,#404,.T.);
#850=EDGE_LOOP('',(#837,#838,#839,#845,#846,#847,#848,#849));
#851=FACE_OUTER_BOUND('',#850,.T.);
#852=ORIENTED_EDGE('',*,*,#705,.T.);
#853=EDGE_LOOP('',(#852));
#854=FACE_BOUND('',#853,.T.);
#855=ORIENTED_EDGE('',*,*,#742,.T.);
#856=EDGE_LOOP('',(#855));
#857=FACE_BOUND('',#856,.T.);
#858=ADVANCED_FACE('',(#851,#854,#857),#836,.T.);
#859=CARTESIAN_POINT('',(12.000000000000004,-7.499999999999999,0.0));
#860=DIRECTION('',(1.0,0.0,0.0));
#861=DIRECTION('',(0.0,1.0,0.0));
#862=AXIS2_PLACEMENT_3D('',#859,#860,#861);
#863=PLANE('',#862);
#864=ORIENTED_EDGE('',*,*,#619,.F.);
#865=ORIENTED_EDGE('',*,*,#827,.F.);
#866=ORIENTED_EDGE('',*,*,#844,.T.);
#867=ORIENTED_EDGE('',*,*,#768,.F.);
#868=EDGE_LOOP('',(#864,#865,#866,#867));
#869=FACE_OUTER_BOUND('',#868,.T.);
#870=ADVANCED_FACE('',(#869),#863,.T.);
#871=CLOSED_SHELL('',(#198,#290,#312,#360,#385,#409,#434,#516,#608,#630,#647,#664,#681,#709,#718,#746,#755,#787,#806,#831,#858,#870));
#872=MANIFOLD_SOLID_BREP('\X2\04220432043504400434043E0435\X0\ \X2\04420435043B043E\X0\1',#871);
#873=COLOUR_RGB('\X2\FFFDFFFDFFFDFFFDFFFDFFFDFFFDFFFDFFFDFFFD\X0\',0.540000021457672,0.230000004172325,0.230000004172325);
#874=FILL_AREA_STYLE_COLOUR('\X2\FFFDFFFDFFFDFFFDFFFDFFFDFFFDFFFDFFFDFFFD\X0\',#873);
#875=FILL_AREA_STYLE('\X2\FFFDFFFDFFFDFFFDFFFDFFFDFFFDFFFDFFFDFFFD\X0\',(#874));
#876=SURFACE_STYLE_FILL_AREA(#875);
#877=SURFACE_SIDE_STYLE('\X2\FFFDFFFDFFFDFFFDFFFDFFFDFFFDFFFDFFFDFFFD\X0\',(#876));
#878=SURFACE_STYLE_USAGE(.BOTH.,#877);
#879=PRESENTATION_STYLE_ASSIGNMENT((#878));
#880=STYLED_ITEM('',(#879),#872);
#881=MECHANICAL_DESIGN_GEOMETRIC_PRESENTATION_REPRESENTATION('',(#880),#36);
#882=ADVANCED_BREP_SHAPE_REPRESENTATION('ABSR',(#872),#75);
#883=SHAPE_REPRESENTATION_RELATIONSHIP('SRR','None',#882,#80);
#884=AXIS2_PLACEMENT_3D('',#885,#886,#887);
#885=CARTESIAN_POINT('',(11.25,-3.500000000000003,7.499999999999992));
#886=DIRECTION('',(-1.068275E-017,1.000000000000001,1.848893E-032));
#887=DIRECTION('',(1.0,3.145632E-016,9.251859E-017));
#888=NEXT_ASSEMBLY_USAGE_OCCURRENCE('C_22.5:1','C_22.5:1','C_22.5:1',#12,#51,'C_22.5:1');
#889=PRODUCT_DEFINITION_SHAPE('C_22.5:1','C_22.5:1',#888);
#890=ITEM_DEFINED_TRANSFORMATION('C_22.5:1','C_22.5:1',#76,#884);
#894=(REPRESENTATION_RELATIONSHIP('C_22.5:1','C_22.5:1',#80,#41)REPRESENTATION_RELATIONSHIP_WITH_TRANSFORMATION(#890)SHAPE_REPRESENTATION_RELATIONSHIP());
#895=CONTEXT_DEPENDENT_SHAPE_REPRESENTATION(#894,#889);
ENDSEC;
END-ISO-10303-21;
